CaseNo,ColumnName,FinVal,ArenaVal
 00532015002053,ELIMINATIONPERIODTYPE,65376000,68960004.0
 00532015002053,BENEFITTERMDATE,12/17/2015,12/30/2015
 00532015002053,ELIMINATIONPERIODBASIS,5568000,5568001.0
 00532015002053,HOSPITALIZATIONAPPIES,N,Y
 00532015002037,ELIMINATIONPERIOD,0,14.0
 00532015002037,ELIMINATIONPERIODBASIS,5568000,5568001.0
 00532015002034,BENEFITTERMDATE,,12/18/2015
 00532015002029,BENEFITTERMDATE,12/22/2015,01/04/2016
 00532015002026,ELIMINATIONPERIOD,0,7.0
 00532015002026,ELIMINATIONPERIODBASIS,5568000,5568001.0
 00532015002025,BENEFITTERMDATE,11/11/2016,11/15/2016
 00532015002024,ELIMINATIONPERIODBASIS,5568000,5568001.0
 00532015002023,ELIMINATIONPERIOD,0,7.0
 00532015002023,ELIMINATIONPERIODBASIS,5568000,5568001.0
 00532015002022,BENEFITTERMDATE,12/02/2015,12/14/2015
 00532015002015,PARTIALDISABILITYENDDATE,,11/25/2015
 00532015002015,PARTIALDISABILITYSTARTDATE,,11/25/2015
 00532015002015,PARTIALDISABILITYEMPLOYER,70496000,70496006.0
 00532015002011,BENEFITTERMDATE,,11/18/2015
 00532015002011,EMPLOYEECONTRIBUTION,1,0
 00532015002011,ELIMINATIONPERIOD,0,14.0
 00532015002011,ELIMINATIONPERIODBASIS,5568000,5568001.0
 00532015002010,BENEFITTERMDATE,,11/16/2015
 00532015002010,EMPLOYEECONTRIBUTION,1,0
 00532015002009,ELIMINATIONPERIODBASIS,5568000,5568001.0
 00532015002008,BENEFITTERMDATE,01/15/2016,02/19/2016
 00532015002006,ELIMINATIONPERIOD,0,14.0
 00532015002006,ELIMINATIONPERIODBASIS,5568000,5568001.0
 00532015001998,ELIMINATIONPERIODBASIS,5568000,5568001.0
 00532015001993,BENEFITTERMDATE,,12/08/2015
 00532015001993,EMPLOYEECONTRIBUTION,1,0
 00532015001989,ELIMINATIONPERIODBASIS,5568000,5568001.0
 00532015001983,BENEFITTERMDATE,,10/28/2015
 00532015001981,BENEFITTERMDATE,12/28/2015,01/06/2016
 00532015001981,ELIMINATIONPERIOD,0,7.0
 00532015001981,ELIMINATIONPERIODBASIS,5568000,5568001.0
 00532015001980,BENEFITTERMDATE,12/13/2015,12/26/2015
 00532015001980,ELIMINATIONPERIODBASIS,5568000,5568001.0
 00532015001973,PARTIALDISABILITYSTARTDATE,,12/07/2015
 00532015001973,PARTIALDISABILITYEMPLOYER,70496000,70496006.0
 00532015001971,PARTIALDISABILITYSTARTDATE,,01/11/2016
 00532015001971,PARTIALDISABILITYEMPLOYER,70496000,70496006.0
 00532015001971,BENEFITTERMDATE,12/28/2015,01/18/2016
 00532015001970,ELIMINATIONPERIODBASIS,5568000,5568001.0
 00532015001966,ELIMINATIONPERIODBASIS,5568000,5568001.0
 00532015001962,ELIMINATIONPERIODBASIS,5568000,5568001.0
 00532015001952,ELIMINATIONPERIODBASIS,5568000,5568001.0
 00532015001944,BENEFITTERMDATE,10/28/2015,11/16/2015
 00532015001944,ELIMINATIONPERIOD,0,7.0
 00532015001944,ELIMINATIONPERIODBASIS,5568000,5568001.0
