CaseNo,ColumnName,FinVal,ArenaVal
053180621,CLAIMCOMPLETIONDATE,04/05/2018,04/04/2018
053180617,CLAIMCOMPLETIONDATE,04/04/2018,04/06/2018
053180612,CASESTATUS,H1,H2
053180603,CASESTATUS,H1,H2
053180602,CASESTATUS,H3,H4
053180599,CASESTATUS,H1,H2
053180593,CASESTATUS,H1,H2
053180591,CASESTATUS,H1,H2
053180577,CASESTATUS,H1,H2
053180575,CASESTATUS,H1,H2
053180574,CASESTATUS,H1,H2
053180570,CASESTATUS,H1,H2
053180546,CASESTATUS,H1,H2
053180541,CASESTATUS,H1,H2
053180540,CASESTATUS,H1,H2
053180533,CASESTATUS,H3,H4
053180531,CASESTATUS,H1,H2
053180530,CASESTATUS,H1,H2
053180528,CASESTATUS,H1,H2
053180527,CASESTATUS,H1,H2
053180519,CASESTATUS,H1,H2
053180505,CASESTATUS,H1,H2
053180502,CURRENTEARININGS,,0.00
053180502,PDI_SALARY_FREQUENCY,,5152004
053180498,CASESTATUS,H1,H2
053180489,CASESTATUS,H1,H2
053180476,CASESTATUS,H1,H2
053180475,CASESTATUS,H1,H5
053180473,CASESTATUS,H1,H2
053180461,CASESTATUS,H1,H2
053180459,CASESTATUS,H1,H2
053180457,CASESTATUS,H1,H2
053180452,CURRENTEARININGS,,0.00
053180452,PDI_SALARY_FREQUENCY,,5152004
053180450,CURRENTEARININGS,,0.00
053180450,PDI_SALARY_FREQUENCY,,5152004
053180445,CASESTATUS,H1,H2
053180438,CASESTATUS,H1,H2
053180423,CASESTATUS,H1,H2
053180421,CURRENTEARININGS,,0.00
053180421,PDI_SALARY_FREQUENCY,,5152004
053180416,CASESTATUS,H1,H2
053180410,CASESTATUS,H1,H2
053180407,CASESTATUS,H1,H2
053180400,CASESTATUS,H1,H2
053180396,CASESTATUS,H1,H2
053180388,CASESTATUS,H1,H2
053180387,CASESTATUS,H1,H2
053180384,CASESTATUS,H1,H2
053180381,CASESTATUS,H1,H2
053180379,CLAIMCOMPLETIONDATE,03/06/2018,03/01/2018
053180353,CASESTATUS,H1,H2
053180345,CASESTATUS,H1,H2
053180342,CASESTATUS,H1,H2
053180340,CASESTATUS,H1,H2
053180334,CASESTATUS,H1,H2
053180333,CASESTATUS,H1,H2
053180321,CASESTATUS,H1,H2
053180319,CASESTATUS,H1,H2
053180316,CASESTATUS,H1,H2
053180313,CASESTATUS,H1,H2
053180305,CASESTATUS,H1,H2
053180303,CASESTATUS,H1,H2
053180290,CASESTATUS,H1,H2
053180289,CASESTATUS,H1,H2
053180283,CASESTATUS,H1,H2
053180280,CASESTATUS,H1,H5
053180273,CASESTATUS,H1,H2
053180270,CASESTATUS,H3,H4
053180269,CASESTATUS,H1,H2
053180263,CASESTATUS,H1,H2
053180252,CASESTATUS,H1,H2
053180222,CASESTATUS,H1,H2
053180220,CASESTATUS,H1,H2
053180218,CASESTATUS,H1,H2
053180214,CASESTATUS,H1,H5
053180206,CASESTATUS,H1,H2
053180202,CASESTATUS,H1,H2
053180196,CASESTATUS,H1,H2
053180186,CASESTATUS,H1,H2
053180171,CASESTATUS,H1,H5
053180170,CASESTATUS,H1,H2
053180168,CASESTATUS,H1,H2
053180166,CASESTATUS,H1,H2
053180156,CASESTATUS,H1,H2
053180145,CASESTATUS,H1,H2
053180125,CASESTATUS,H1,H2
053180115,CLAIMCOMPLETIONDATE,02/08/2018,02/05/2018
053180108,CASESTATUS,H1,H2
053180106,CASESTATUS,H1,H2
053180103,CLAIMCOMPLETIONDATE,01/22/2018,01/19/2018
053180102,CASESTATUS,H1,H2
053180100,CASESTATUS,H1,H2
053180088,CASESTATUS,H1,H2
053180079,CASESTATUS,H1,H2
053180077,CASESTATUS,H1,H2
053180075,CASESTATUS,H1,H2
053180074,CASESTATUS,H1,H2
053180072,CASESTATUS,H1,H2
053180068,CASESTATUS,H1,H2
053180066,CASESTATUS,H1,H2
053180059,CASESTATUS,H1,H2
053180055,CASESTATUS,H1,H5
053180046,CASESTATUS,H1,H2
053180040,CLAIMCOMPLETIONDATE,01/10/2018,01/08/2018
053180038,CLAIMCOMPLETIONDATE,01/10/2018,01/09/2018
053180037,CLAIMCOMPLETIONDATE,01/10/2018,01/09/2018
053180036,CLAIMCOMPLETIONDATE,01/10/2018,01/09/2018
053180034,CASESTATUS,H1,H2
053180029,CASESTATUS,H1,H2
053180024,CASESTATUS,H1,H2
053180022,CURRENTEARININGS,,0.00
053180022,PDI_SALARY_FREQUENCY,,5152004
053180020,CASESTATUS,H1,H2
053180016,CASESTATUS,H1,H2
053180010,CURRENTEARININGS,,0.00
053180010,PDI_SALARY_FREQUENCY,,5152004
053180004,CLAIMCOMPLETIONDATE,01/03/2018,01/02/2018
053180004,CASESTATUS,H1,H2
053179973,CASESTATUS,H1,H2
053179939,CASESTATUS,H3,H4
053179830,CASESTATUS,H1,H2
053179761,CASESTATUS,H1,H2
053179747,CURRENTEARININGS,,0.00
053179747,PDI_SALARY_FREQUENCY,,5152004
053179725,CASESTATUS,H3,H4
053179721,CASESTATUS,H1,H2
053179615,CASESTATUS,H1,H2
053179606,CASESTATUS,H1,H2
053179554,CASESTATUS,H1,H2
053179501,CASESTATUS,H1,H5
053179494,CASESTATUS,H1,H2
053179489,CASESTATUS,H1,H2
053179450,CLAIMCOMPLETIONDATE,09/01/2017,08/31/2017
053179447,CASESTATUS,H1,H2
053179395,CLAIMCOMPLETIONDATE,08/31/2017,08/30/2017
053179386,CURRENTEARININGS,,0.00
053179386,PDI_SALARY_FREQUENCY,,5152004
053179357,CLAIMCOMPLETIONDATE,08/31/2017,08/30/2017
053179351,CLAIMCOMPLETIONDATE,08/31/2017,08/30/2017
053179351,CASESTATUS,H1,H2
053179339,CLAIMCOMPLETIONDATE,08/30/2017,08/29/2017
053179334,CURRENTEARININGS,,0.00
053179334,PDI_SALARY_FREQUENCY,,5152004
053179291,CASESTATUS,H1,H2
053179280,CASESTATUS,H1,H2
053179262,CASESTATUS,H1,H2
053179235,CASESTATUS,H1,H2
053179218,CASESTATUS,H1,H2
053179177,CASESTATUS,H1,H2
053179175,CURRENTEARININGS,,0.00
053179175,PDI_SALARY_FREQUENCY,,5152004
053179058,CASESTATUS,H1,H2
053179034,CASESTATUS,H1,H2
053178989,CASESTATUS,H3,H4
053178988,CASESTATUS,H3,H4
053178960,CLAIMCOMPLETIONDATE,08/22/2017,08/21/2017
053178951,CASESTATUS,H1,H2
053178946,CASESTATUS,H1,H2
053178901,CASESTATUS,H1,H2
053178860,CASESTATUS,H1,H2
053178830,CASESTATUS,H1,H2
053178819,CASESTATUS,H3,H4
053178773,CASESTATUS,H1,H2
053178741,CASESTATUS,H1,H2
053178728,CASESTATUS,H3,H4
053178723,CASESTATUS,H1,H2
053178677,CASESTATUS,H1,H2
053178660,CASESTATUS,H1,H2
053178614,CASESTATUS,H1,H2
053178599,CASESTATUS,H1,H2
053178539,CASESTATUS,H1,H2
053178531,CASESTATUS,H1,H2
053178506,CASESTATUS,H1,H2
053178505,CASESTATUS,H1,H2
053178483,CASESTATUS,H3,H4
053178480,CASESTATUS,H1,H2
053178478,CURRENTEARININGS,,0.00
053178478,PDI_SALARY_FREQUENCY,,5152004
053178456,CLAIMCOMPLETIONDATE,08/08/2017,08/07/2017
053178452,CLAIMCOMPLETIONDATE,08/08/2017,08/07/2017
053178273,CASESTATUS,H1,H2
053178225,CASESTATUS,H1,H2
053178206,CASESTATUS,H1,H2
053178191,CASESTATUS,H1,H2
053178178,CASESTATUS,H1,H2
053178153,CASESTATUS,H1,H2
053178081,CASESTATUS,H1,H2
053177984,CURRENTEARININGS,,0.00
053177984,PDI_SALARY_FREQUENCY,,5152004
053177980,CASESTATUS,H1,H2
053177951,CASESTATUS,H1,H2
053177896,CASESTATUS,H1,H2
053177889,CASESTATUS,H1,H2
053177863,CASESTATUS,H1,H2
053177847,CASESTATUS,H1,H2
053177811,CASESTATUS,H1,H2
