CaseNo,ColumnName,FinVal,ArenaVal
00532018008586,MAXBENEFITPERIOD_BASIS,UNKNOWN,WEEKS
00532018008586,MAXBENEFITPERIOD_UNITS,0,13.0
00532018008586,ALTERNATE_WAITINGPERIOD_BASIS,5568001,0
00532018008586,ALTERNATE_WAITINGPERIOD_UNITS,60,0
00532018008583,INTEGRATIONTYPE,73632000,73660000
00532018008582,INTEGRATIONTYPE,73632000,73660000
00532018008581,MAXBENEFITPERIOD_BASIS,UNKNOWN,WEEKS
00532018008581,MAXBENEFITPERIOD_UNITS,0,13.0
00532018008580,MAXBENEFITPERIOD_BASIS,UNKNOWN,WEEKS
00532018008580,MAXBENEFITPERIOD_UNITS,0,25.0
00532018008579,MAXBENEFITPERIOD_BASIS,UNKNOWN,WEEKS
00532018008579,MAXBENEFITPERIOD_UNITS,0,26.0
00532018008578,INTEGRATIONTYPE,73632000,73660000
00532018008577,INTEGRATIONTYPE,73632000,73660000
00532018008572,MAXBENEFITPERIOD_BASIS,UNKNOWN,WEEKS
00532018008572,MAXBENEFITPERIOD_UNITS,0,13.0
00532018008571,INTEGRATIONTYPE,73632000,73660000
00532018008569,MAXBENEFITPERIOD_BASIS,UNKNOWN,WEEKS
00532018008569,MAXBENEFITPERIOD_UNITS,0,25.0
00532018008569,ALTERNATE_WAITINGPERIOD_BASIS,0,5568001.0
00532018008569,ALTERNATE_WAITINGPERIOD_UNITS,0,30.0
00532018008563,ALTERNATE_WAITINGPERIOD_BASIS,5568001,5568003.0
00532018008563,ALTERNATE_WAITINGPERIOD_UNITS,58,3.0
00532018008560,INTEGRATIONTYPE,73632000,73660000
00532018008559,INTEGRATIONTYPE,73632000,73660000
00532018008558,INTEGRATIONTYPE,73632000,73660000
00532018008555,INTEGRATIONTYPE,73632000,73660000
00532018008552,INTEGRATIONTYPE,73632000,73660000
00532018008550,INTEGRATIONTYPE,73632000,73660000
00532018008549,MAXBENEFITPERIOD_BASIS,UNKNOWN,WEEKS
00532018008549,MAXBENEFITPERIOD_UNITS,0,12.0
00532018008547,INTEGRATIONTYPE,73632000,73660000
00532018008546,ALTERNATE_WAITINGPERIOD_BASIS,5568001,0
00532018008546,ALTERNATE_WAITINGPERIOD_UNITS,30,0
00532018008545,INTEGRATIONTYPE,73632000,73660000
00532018008544,MAXBENEFITPERIOD_BASIS,UNKNOWN,WEEKS
00532018008544,MAXBENEFITPERIOD_UNITS,0,52.0
00532018008541,MAXBENEFITPERIOD_BASIS,UNKNOWN,WEEKS
00532018008541,MAXBENEFITPERIOD_UNITS,0,13.0
00532018008540,INTEGRATIONTYPE,73632000,73660000
00532018008539,INTEGRATIONTYPE,73632000,73660000
00532018008537,ALTERNATE_WAITINGPERIOD_UNITS,60,90.0
00532018008536,MAXBENEFITPERIOD_BASIS,UNKNOWN,WEEKS
00532018008536,MAXBENEFITPERIOD_UNITS,0,22.0
00532018008536,ALTERNATE_WAITINGPERIOD_BASIS,5568001,0
00532018008536,ALTERNATE_WAITINGPERIOD_UNITS,45,0
00532018008535,INTEGRATIONTYPE,73632000,73660000
00532018008535,ALTERNATE_WAITINGPERIOD_UNITS,60,90.0
00532018008534,INTEGRATIONTYPE,73632000,73660000
00532018008533,ALTERNATE_WAITINGPERIOD_BASIS,5568003,0
00532018008533,ALTERNATE_WAITINGPERIOD_UNITS,3,0
00532018008532,INTEGRATIONTYPE,73632000,73660000
00532018008531,ALTERNATE_WAITINGPERIOD_UNITS,60,90.0
00532018008530,INTEGRATIONTYPE,73632000,73660000
00532018008530,MAXBENEFITPERIOD_BASIS,UNKNOWN,WEEKS
00532018008530,MAXBENEFITPERIOD_UNITS,0,12.0
00532018008525,ALTERNATE_WAITINGPERIOD_BASIS,5568003,5568001.0
00532018008525,ALTERNATE_WAITINGPERIOD_UNITS,12,30.0
00532018008524,INTEGRATIONTYPE,73632000,73660000
00532018008524,MAXBENEFITPERIOD_BASIS,UNKNOWN,WEEKS
00532018008524,MAXBENEFITPERIOD_UNITS,0,12.0
00532018008522,INTEGRATIONTYPE,73632000,73660000
00532018008522,ALTERNATE_WAITINGPERIOD_BASIS,5568001,0
00532018008522,ALTERNATE_WAITINGPERIOD_UNITS,30,0
00532018008520,INTEGRATIONTYPE,73632000,73660000
00532018008520,ALTERNATE_WAITINGPERIOD_BASIS,5568001,0
00532018008520,ALTERNATE_WAITINGPERIOD_UNITS,90,0
00532018008518,INTEGRATIONTYPE,73632000,73660000
00532018008517,INTEGRATIONTYPE,73632000,73660000
00532018008515,ALTERNATE_WAITINGPERIOD_BASIS,5568001,0
00532018008515,ALTERNATE_WAITINGPERIOD_UNITS,60,0
00532018008511,MAXBENEFITPERIOD_BASIS,UNKNOWN,WEEKS
00532018008511,MAXBENEFITPERIOD_UNITS,0,13.0
00532018008509,ALTERNATE_WAITINGPERIOD_BASIS,5568003,0
00532018008509,ALTERNATE_WAITINGPERIOD_UNITS,6,0
00532018008508,INTEGRATIONTYPE,73632000,73660000
00532018008507,INTEGRATIONTYPE,73632000,73660000
00532018008504,INTEGRATIONTYPE,73632000,73660000
00532018008504,ALTERNATE_WAITINGPERIOD_BASIS,5568001,0
00532018008504,ALTERNATE_WAITINGPERIOD_UNITS,90,0
00532018008503,INTEGRATIONTYPE,73632000,73660000
00532018008500,ALTERNATE_WAITINGPERIOD_UNITS,30,90.0
00532018008498,INTEGRATIONTYPE,73632000,73660000
00532018008497,INTEGRATIONTYPE,73632000,73660000
00532018008495,INTEGRATIONTYPE,73632000,73660000
00532018008494,INTEGRATIONTYPE,73632000,73660000
00532018008490,INTEGRATIONTYPE,73632000,73660000
00532018008488,MAXBENEFITPERIOD_BASIS,UNKNOWN,WEEKS
00532018008488,MAXBENEFITPERIOD_UNITS,0,13.0
00532018008486,INTEGRATIONTYPE,73632000,73660000
00532018008485,INTEGRATIONTYPE,73632000,73660000
00532018008484,MAXBENEFITPERIOD_BASIS,UNKNOWN,WEEKS
00532018008484,MAXBENEFITPERIOD_UNITS,0,11.0
00532018008482,INTEGRATIONTYPE,73632000,73660000
00532018008481,MAXBENEFITPERIOD_BASIS,UNKNOWN,WEEKS
00532018008481,MAXBENEFITPERIOD_UNITS,0,12.0
00532018008481,ALTERNATE_WAITINGPERIOD_BASIS,5568001,0
00532018008481,ALTERNATE_WAITINGPERIOD_UNITS,60,0
00532018008480,ALTERNATE_WAITINGPERIOD_UNITS,30,90.0
00532018008479,ALTERNATE_WAITINGPERIOD_BASIS,5568001,0
00532018008479,ALTERNATE_WAITINGPERIOD_UNITS,30,0
00532018008477,INTEGRATIONTYPE,73632000,73660000
00532018008474,INTEGRATIONTYPE,73632000,73660000
00532018008474,ALTERNATE_WAITINGPERIOD_BASIS,5568001,0
00532018008474,ALTERNATE_WAITINGPERIOD_UNITS,60,0
00532018008472,ALTERNATE_WAITINGPERIOD_BASIS,0,5568001.0
00532018008472,ALTERNATE_WAITINGPERIOD_UNITS,0,30.0
00532018008467,INTEGRATIONTYPE,73632000,73660000
00532018008465,INTEGRATIONTYPE,73632000,73660000
00532018008463,ALTERNATE_WAITINGPERIOD_BASIS,5568001,5568003.0
00532018008463,ALTERNATE_WAITINGPERIOD_UNITS,90,4.0
00532018008462,MAXBENEFITPERIOD_BASIS,UNKNOWN,WEEKS
00532018008462,MAXBENEFITPERIOD_UNITS,0,26.0
00532018008460,MAXBENEFITPERIOD_BASIS,UNKNOWN,WEEKS
00532018008460,MAXBENEFITPERIOD_UNITS,0,26.0
00532018008460,ALTERNATE_WAITINGPERIOD_BASIS,5568003,0
00532018008460,ALTERNATE_WAITINGPERIOD_UNITS,3,0
00532018008458,INTEGRATIONTYPE,73632000,73660000
00532018008457,INTEGRATIONTYPE,73632000,73660000
00532018008453,INTEGRATIONTYPE,73632000,73660000
00532018008453,ALTERNATE_WAITINGPERIOD_BASIS,5568001,0
00532018008453,ALTERNATE_WAITINGPERIOD_UNITS,60,0
00532018008452,INTEGRATIONTYPE,73632000,73660000
00532018008451,INTEGRATIONTYPE,73632000,73660000
00532018008448,INTEGRATIONTYPE,73632000,73660000
00532018008448,ALTERNATE_WAITINGPERIOD_BASIS,5568001,0
00532018008448,ALTERNATE_WAITINGPERIOD_UNITS,30,0
00532018008447,INTEGRATIONTYPE,73632000,73660000
00532018008446,INTEGRATIONTYPE,73632000,73660000
00532018008445,ALTERNATE_WAITINGPERIOD_BASIS,0,5568001.0
00532018008445,ALTERNATE_WAITINGPERIOD_UNITS,0,30.0
00532018008444,INTEGRATIONTYPE,73632000,73660000
00532018008442,INTEGRATIONTYPE,73632000,73660000
00532018008442,ALTERNATE_WAITINGPERIOD_BASIS,5568001,0
00532018008442,ALTERNATE_WAITINGPERIOD_UNITS,30,0
00532018008441,INTEGRATIONTYPE,73632000,73660000
00532018008440,INTEGRATIONTYPE,73632000,73660000
00532018008438,INTEGRATIONTYPE,73632000,73660000
00532018008437,MAXBENEFITPERIOD_BASIS,UNKNOWN,WEEKS
00532018008437,MAXBENEFITPERIOD_UNITS,0,12.0
00532018008436,MAXBENEFITPERIOD_BASIS,UNKNOWN,WEEKS
00532018008436,MAXBENEFITPERIOD_UNITS,0,13.0
00532018008434,ALTERNATE_WAITINGPERIOD_BASIS,0,5568001.0
00532018008434,ALTERNATE_WAITINGPERIOD_UNITS,0,30.0
00532018008432,MAXBENEFITPERIOD_BASIS,UNKNOWN,MONTHS
00532018008432,MAXBENEFITPERIOD_UNITS,0,12.0
00532018008431,MAXBENEFITPERIOD_BASIS,UNKNOWN,MONTHS
00532018008431,MAXBENEFITPERIOD_UNITS,0,12.0
00532018008430,INTEGRATIONTYPE,73632000,73660000
00532018008429,INTEGRATIONTYPE,73632000,73660000
00532018008428,INTEGRATIONTYPE,73632000,73660000
00532018008427,INTEGRATIONTYPE,73632000,73660000
00532018008425,MAXBENEFITPERIOD_BASIS,UNKNOWN,WEEKS
00532018008425,MAXBENEFITPERIOD_UNITS,0,11.0
00532018008424,ALTERNATE_WAITINGPERIOD_UNITS,30,90.0
00532018008417,INTEGRATIONTYPE,73632000,73660000
00532018008416,MAXBENEFITPERIOD_BASIS,UNKNOWN,WEEKS
00532018008416,MAXBENEFITPERIOD_UNITS,0,26.0
00532018008416,ALTERNATE_WAITINGPERIOD_BASIS,5568003,0
00532018008416,ALTERNATE_WAITINGPERIOD_UNITS,6,0
00532018008415,INTEGRATIONTYPE,73632000,73660000
00532018008413,ALTERNATE_WAITINGPERIOD_BASIS,5568001,0
00532018008413,ALTERNATE_WAITINGPERIOD_UNITS,90,0
00532018008411,INTEGRATIONTYPE,73632000,73660000
00532018008408,INTEGRATIONTYPE,73632000,73660000
00532018008407,INTEGRATIONTYPE,73632000,73660000
00532018008405,INTEGRATIONTYPE,73632000,73660000
00532018008404,MAXBENEFITPERIOD_BASIS,UNKNOWN,WEEKS
00532018008404,MAXBENEFITPERIOD_UNITS,0,11.0
00532018008403,INTEGRATIONTYPE,73632000,73660000
00532018008401,INTEGRATIONTYPE,73632000,73660000
00532018008401,MAXBENEFITPERIOD_BASIS,UNKNOWN,WEEKS
00532018008401,MAXBENEFITPERIOD_UNITS,0,24.0
00532018008400,INTEGRATIONTYPE,73632000,73660000
00532018008400,MAXBENEFITPERIOD_BASIS,UNKNOWN,WEEKS
00532018008400,MAXBENEFITPERIOD_UNITS,0,26.0
00532018008399,ALTERNATE_WAITINGPERIOD_BASIS,5568001,0
00532018008399,ALTERNATE_WAITINGPERIOD_UNITS,60,0
00532018008395,INTEGRATIONTYPE,73632000,73660000
00532018008392,MAXBENEFITPERIOD_BASIS,UNKNOWN,WEEKS
00532018008392,MAXBENEFITPERIOD_UNITS,0,11.0
00532018008391,INTEGRATIONTYPE,73632000,73660000
00532018008390,INTEGRATIONTYPE,73632000,73660000
00532018008389,INTEGRATIONTYPE,73632000,73660000
00532018008387,INTEGRATIONTYPE,73632000,73660000
00532018008387,ALTERNATE_WAITINGPERIOD_BASIS,5568001,0
00532018008387,ALTERNATE_WAITINGPERIOD_UNITS,30,0
00532018008385,INTEGRATIONTYPE,73632000,73660000
00532018008385,ALTERNATE_WAITINGPERIOD_BASIS,5568001,0
00532018008385,ALTERNATE_WAITINGPERIOD_UNITS,30,0
00532018008383,INTEGRATIONTYPE,73632000,73660000
00532018008382,INTEGRATIONTYPE,73632000,73660000
00532018008380,INTEGRATIONTYPE,73632000,73660000
00532018008380,MAXBENEFITPERIOD_BASIS,UNKNOWN,WEEKS
00532018008380,MAXBENEFITPERIOD_UNITS,0,11.0
00532018008379,INTEGRATIONTYPE,73632000,73660000
00532018008378,INTEGRATIONTYPE,73632000,73660000
00532018008376,ALTERNATE_WAITINGPERIOD_UNITS,60,90.0
00532018008375,ALTERNATE_WAITINGPERIOD_BASIS,5568001,0
00532018008375,ALTERNATE_WAITINGPERIOD_UNITS,90,0
00532018008372,ALTERNATE_WAITINGPERIOD_BASIS,5568001,0
00532018008372,ALTERNATE_WAITINGPERIOD_UNITS,30,0
00532018008370,MAXBENEFITPERIOD_BASIS,UNKNOWN,WEEKS
00532018008370,MAXBENEFITPERIOD_UNITS,0,13.0
00532018008367,INTEGRATIONTYPE,73632000,73660000
00532018008367,ALTERNATE_WAITINGPERIOD_UNITS,90,60.0
00532018008366,INTEGRATIONTYPE,73632000,73660000
00532018008364,INTEGRATIONTYPE,73632000,73660000
00532018008362,INTEGRATIONTYPE,73632000,73660000
00532018008361,INTEGRATIONTYPE,73632000,73660000
00532018008361,ALTERNATE_WAITINGPERIOD_BASIS,5568001,0
00532018008361,ALTERNATE_WAITINGPERIOD_UNITS,30,0
00532018008360,INTEGRATIONTYPE,73632000,73660000
00532018008359,MAXBENEFITPERIOD_BASIS,UNKNOWN,WEEKS
00532018008359,MAXBENEFITPERIOD_UNITS,0,26.0
00532018008358,MAXBENEFITPERIOD_BASIS,UNKNOWN,WEEKS
00532018008358,MAXBENEFITPERIOD_UNITS,0,26.0
00532018008356,INTEGRATIONTYPE,73632000,73660000
00532018008353,INTEGRATIONTYPE,73632000,73660000
00532018008352,MAXBENEFITPERIOD_BASIS,UNKNOWN,WEEKS
00532018008352,MAXBENEFITPERIOD_UNITS,0,13.0
00532018008350,INTEGRATIONTYPE,73632000,73660000
00532018008349,INTEGRATIONTYPE,73632000,73660000
00532018008347,INTEGRATIONTYPE,73632000,73660000
00532018008346,ALTERNATE_WAITINGPERIOD_BASIS,0,5568001.0
00532018008346,ALTERNATE_WAITINGPERIOD_UNITS,0,30.0
00532018008343,MAXBENEFITPERIOD_BASIS,UNKNOWN,WEEKS
00532018008343,MAXBENEFITPERIOD_UNITS,0,24.0
00532018008340,ALTERNATE_WAITINGPERIOD_BASIS,5568003,0
00532018008340,ALTERNATE_WAITINGPERIOD_UNITS,1,0
00532018008339,MAXBENEFITPERIOD_BASIS,UNKNOWN,WEEKS
00532018008339,MAXBENEFITPERIOD_UNITS,0,24.0
00532018008338,INTEGRATIONTYPE,73632000,73660000
00532018008338,MAXBENEFITPERIOD_BASIS,UNKNOWN,WEEKS
00532018008338,MAXBENEFITPERIOD_UNITS,0,11.0
00532018008337,MAXBENEFITPERIOD_BASIS,UNKNOWN,WEEKS
00532018008337,MAXBENEFITPERIOD_UNITS,0,50.0
00532018008334,INTEGRATIONTYPE,73632000,73660000
00532018008330,INTEGRATIONTYPE,73632000,73660000
00532018008329,MAXBENEFITPERIOD_BASIS,UNKNOWN,WEEKS
00532018008329,MAXBENEFITPERIOD_UNITS,0,12.0
00532018008328,INTEGRATIONTYPE,73632000,73660000
00532018008328,MAXBENEFITPERIOD_BASIS,UNKNOWN,WEEKS
00532018008328,MAXBENEFITPERIOD_UNITS,0,25.0
00532018008326,INTEGRATIONTYPE,73632000,73660000
00532018008325,INTEGRATIONTYPE,73632000,73660000
00532018008325,ALTERNATE_WAITINGPERIOD_BASIS,5568001,0
00532018008325,ALTERNATE_WAITINGPERIOD_UNITS,90,0
00532018008323,ALTERNATE_WAITINGPERIOD_UNITS,30,90.0
00532018008322,INTEGRATIONTYPE,73632000,73660000
00532018008321,INTEGRATIONTYPE,73632000,73660000
00532018008320,MAXBENEFITPERIOD_BASIS,UNKNOWN,WEEKS
00532018008320,MAXBENEFITPERIOD_UNITS,0,25.0
00532018008320,ALTERNATE_WAITINGPERIOD_BASIS,0,5568001.0
00532018008320,ALTERNATE_WAITINGPERIOD_UNITS,0,30.0
00532018008317,MAXBENEFITPERIOD_BASIS,UNKNOWN,WEEKS
00532018008317,MAXBENEFITPERIOD_UNITS,0,12.0
00532018008316,INTEGRATIONTYPE,73632000,73660000
00532018008315,MAXBENEFITPERIOD_BASIS,UNKNOWN,WEEKS
00532018008315,MAXBENEFITPERIOD_UNITS,0,26.0
00532018008315,ALTERNATE_WAITINGPERIOD_BASIS,5568001,0
00532018008315,ALTERNATE_WAITINGPERIOD_UNITS,30,0
00532018008313,INTEGRATIONTYPE,73632000,73660000
00532018008312,INTEGRATIONTYPE,73632000,73660000
00532018008311,MAXBENEFITPERIOD_BASIS,UNKNOWN,WEEKS
00532018008311,MAXBENEFITPERIOD_UNITS,0,13.0
00532018008308,MAXBENEFITPERIOD_BASIS,UNKNOWN,WEEKS
00532018008308,MAXBENEFITPERIOD_UNITS,0,11.0
00532018008307,MAXBENEFITPERIOD_BASIS,UNKNOWN,WEEKS
00532018008307,MAXBENEFITPERIOD_UNITS,0,13.0
00532018008306,ALTERNATE_WAITINGPERIOD_BASIS,5568003,0
00532018008306,ALTERNATE_WAITINGPERIOD_UNITS,1,0
00532018008304,MAXBENEFITPERIOD_BASIS,UNKNOWN,WEEKS
00532018008304,MAXBENEFITPERIOD_UNITS,0,13.0
00532018008301,INTEGRATIONTYPE,73632000,73660000
00532018008300,INTEGRATIONTYPE,73632000,73660000
00532018008300,ALTERNATE_WAITINGPERIOD_UNITS,90,60.0
00532018008299,INTEGRATIONTYPE,73632000,73660000
00532018008296,INTEGRATIONTYPE,73632000,73660000
00532018008295,INTEGRATIONTYPE,73632000,73660000
00532018008289,INTEGRATIONTYPE,73632000,73660000
00532018008288,ALTERNATE_WAITINGPERIOD_BASIS,5568003,0
00532018008288,ALTERNATE_WAITINGPERIOD_UNITS,3,0
00532018008287,INTEGRATIONTYPE,73632000,73660000
00532015000153,MAXBENEFITPERIOD_BASIS,UNKNOWN,WEEKS
00532015000153,MAXBENEFITPERIOD_UNITS,0,13.0
00532015000150,ALTERNATE_WAITINGPERIOD_BASIS,0,5568003.0
00532015000150,ALTERNATE_WAITINGPERIOD_UNITS,0,1.0
00532015000149,ALTERNATE_WAITINGPERIOD_UNITS,2,3.0
00532015000147,ALTERNATE_WAITINGPERIOD_BASIS,5568003,0
00532015000147,ALTERNATE_WAITINGPERIOD_UNITS,2,0
00532015000141,ALTERNATE_WAITINGPERIOD_BASIS,5568001,5568003.0
00532015000141,ALTERNATE_WAITINGPERIOD_UNITS,60,3.0
00532015000140,ALTERNATE_WAITINGPERIOD_UNITS,60,90.0
00532015000132,MAXBENEFITPERIOD_BASIS,UNKNOWN,WEEKS
00532015000132,MAXBENEFITPERIOD_UNITS,0,12.0
00532015000131,MAXBENEFITPERIOD_BASIS,UNKNOWN,WEEKS
00532015000131,MAXBENEFITPERIOD_UNITS,0,25.0
00532015000131,ALTERNATE_WAITINGPERIOD_BASIS,0,5568001.0
00532015000131,ALTERNATE_WAITINGPERIOD_UNITS,0,30.0
00532015000130,MAXBENEFITPERIOD_BASIS,UNKNOWN,WEEKS
00532015000130,MAXBENEFITPERIOD_UNITS,0,13.0
00532015000129,ALTERNATE_WAITINGPERIOD_BASIS,5568001,0
00532015000129,ALTERNATE_WAITINGPERIOD_UNITS,90,0
00532015000127,ALTERNATE_WAITINGPERIOD_BASIS,5568003,5568001.0
00532015000127,ALTERNATE_WAITINGPERIOD_UNITS,1,30.0
00532015000126,MAXBENEFITPERIOD_BASIS,UNKNOWN,WEEKS
00532015000126,MAXBENEFITPERIOD_UNITS,0,26.0
00532015000126,ALTERNATE_WAITINGPERIOD_UNITS,30,90.0
00532015000125,ALTERNATE_WAITINGPERIOD_BASIS,5568001,0
00532015000125,ALTERNATE_WAITINGPERIOD_UNITS,30,0
00532015000121,MAXBENEFITPERIOD_BASIS,UNKNOWN,WEEKS
00532015000121,MAXBENEFITPERIOD_UNITS,0,25.0
00532015000119,ALTERNATE_WAITINGPERIOD_BASIS,5568001,0
00532015000119,ALTERNATE_WAITINGPERIOD_UNITS,30,0
00532015000118,ALTERNATE_WAITINGPERIOD_BASIS,5568001,0
00532015000118,ALTERNATE_WAITINGPERIOD_UNITS,60,0
00532015000113,MAXBENEFITPERIOD_BASIS,UNKNOWN,WEEKS
00532015000113,MAXBENEFITPERIOD_UNITS,0,26.0
00532015000100,ALTERNATE_WAITINGPERIOD_UNITS,0,60.0
00532015000089,MAXBENEFITPERIOD_BASIS,UNKNOWN,WEEKS
00532015000089,MAXBENEFITPERIOD_UNITS,0,25.0
00532015000086,MAXBENEFITPERIOD_BASIS,UNKNOWN,WEEKS
00532015000086,MAXBENEFITPERIOD_UNITS,0,26.0
00532015000086,ALTERNATE_WAITINGPERIOD_BASIS,5568003,0
00532015000086,ALTERNATE_WAITINGPERIOD_UNITS,2,0
00532015000085,ALTERNATE_WAITINGPERIOD_BASIS,5568001,0
00532015000085,ALTERNATE_WAITINGPERIOD_UNITS,60,0
00532015000084,ALTERNATE_WAITINGPERIOD_BASIS,0,5568001.0
00532015000084,ALTERNATE_WAITINGPERIOD_UNITS,0,30.0
00532015000080,ALTERNATE_WAITINGPERIOD_BASIS,0,5568001.0
00532015000080,ALTERNATE_WAITINGPERIOD_UNITS,0,30.0
00532015000076,MAXBENEFITPERIOD_BASIS,UNKNOWN,WEEKS
00532015000076,MAXBENEFITPERIOD_UNITS,0,12.0
00532015000071,MAXBENEFITPERIOD_BASIS,UNKNOWN,WEEKS
00532015000071,MAXBENEFITPERIOD_UNITS,0,25.0
00532015000071,ALTERNATE_WAITINGPERIOD_BASIS,0,5568001.0
00532015000071,ALTERNATE_WAITINGPERIOD_UNITS,0,30.0
00532015000070,ALTERNATE_WAITINGPERIOD_BASIS,5568001,0
00532015000070,ALTERNATE_WAITINGPERIOD_UNITS,90,0
00532015000068,ALTERNATE_WAITINGPERIOD_BASIS,0,5568001.0
00532015000068,ALTERNATE_WAITINGPERIOD_UNITS,0,30.0
00532015000067,MAXBENEFITPERIOD_BASIS,UNKNOWN,WEEKS
00532015000067,MAXBENEFITPERIOD_UNITS,0,26.0
00532015000062,ALTERNATE_WAITINGPERIOD_BASIS,5568003,0
00532015000062,ALTERNATE_WAITINGPERIOD_UNITS,2,0
00532015000059,ALTERNATE_WAITINGPERIOD_BASIS,0,5568001.0
00532015000059,ALTERNATE_WAITINGPERIOD_UNITS,0,30.0
00532015000058,ALTERNATE_WAITINGPERIOD_BASIS,0,5568001.0
00532015000058,ALTERNATE_WAITINGPERIOD_UNITS,0,30.0
00532015000053,ALTERNATE_WAITINGPERIOD_UNITS,50,60.0
00532015000041,INTEGRATIONTYPE,73632000,73660000
00532015000034,ALTERNATE_WAITINGPERIOD_BASIS,5568003,5568001.0
00532015000034,ALTERNATE_WAITINGPERIOD_UNITS,1,30.0
00532015000033,ALTERNATE_WAITINGPERIOD_BASIS,5568003,5568001.0
00532015000033,ALTERNATE_WAITINGPERIOD_UNITS,1,30.0
00532015000032,ALTERNATE_WAITINGPERIOD_BASIS,5568003,5568001.0
00532015000032,ALTERNATE_WAITINGPERIOD_UNITS,1,30.0
00532015000030,ALTERNATE_WAITINGPERIOD_BASIS,5568001,0
00532015000030,ALTERNATE_WAITINGPERIOD_UNITS,30,0
00532015000025,ALTERNATE_WAITINGPERIOD_BASIS,5568001,5568003.0
00532015000025,ALTERNATE_WAITINGPERIOD_UNITS,90,4.0
00532015000022,ALTERNATE_WAITINGPERIOD_UNITS,30,90.0
00532015000019,ALTERNATE_WAITINGPERIOD_BASIS,5568001,0
00532015000019,ALTERNATE_WAITINGPERIOD_UNITS,30,0
00532015000018,ALTERNATE_WAITINGPERIOD_BASIS,5568001,5568003.0
00532015000018,ALTERNATE_WAITINGPERIOD_UNITS,30,3.0
053211068,INTEGRATIONTYPE,73632000,73660000
053211068,MAXBENEFITPERIOD_BASIS,UNKNOWN,SSFRA OR SSNRA
053211068,ENDDATECALCTYPE,5599000,78527005.0
053211068,ALTERNATE_WAITINGPERIOD_UNITS,60,90.0
053211067,INTEGRATIONTYPE,73632000,73660000
053211067,MAXBENEFITPERIOD_BASIS,UNKNOWN,SSFRA OR SSNRA
053211067,ENDDATECALCTYPE,5599000,78527005.0
053211066,INTEGRATIONTYPE,73632000,73660000
053211066,MAXBENEFITPERIOD_BASIS,UNKNOWN,SSFRA OR SSNRA
053211066,ENDDATECALCTYPE,5599000,78527005.0
053211064,INTEGRATIONTYPE,73632000,73660000
053211064,MAXBENEFITPERIOD_BASIS,UNKNOWN,SSFRA OR SSNRA
053211064,ENDDATECALCTYPE,5599000,78527005.0
053211063,INTEGRATIONTYPE,73632000,73660000
053211063,MAXBENEFITPERIOD_BASIS,UNKNOWN,SSFRA OR SSNRA
053211063,ENDDATECALCTYPE,5599000,78527005.0
053211062,INTEGRATIONTYPE,73632000,73660000
053211062,MAXBENEFITPERIOD_BASIS,UNKNOWN,SSFRA OR SSNRA
053211062,ENDDATECALCTYPE,5599000,78527005.0
053211062,ALTERNATE_WAITINGPERIOD_BASIS,5568001,0
053211062,ALTERNATE_WAITINGPERIOD_UNITS,60,0
053211061,INTEGRATIONTYPE,73632000,73660000
053211061,MAXBENEFITPERIOD_BASIS,UNKNOWN,SSFRA OR SSNRA
053211061,ENDDATECALCTYPE,5599000,78527005.0
053211060,INTEGRATIONTYPE,73632000,73660000
053211060,MAXBENEFITPERIOD_BASIS,UNKNOWN,SSFRA OR SSNRA
053211060,ENDDATECALCTYPE,5599000,78527005.0
053211059,INTEGRATIONTYPE,73632000,73660000
053211059,MAXBENEFITPERIOD_BASIS,UNKNOWN,SSFRA OR SSNRA
053211059,ENDDATECALCTYPE,5599000,78527005.0
053211058,INTEGRATIONTYPE,73632000,73660000
053211058,MAXBENEFITPERIOD_BASIS,UNKNOWN,SSFRA OR SSNRA
053211058,ENDDATECALCTYPE,5599000,78527005.0
053211054,INTEGRATIONTYPE,73632000,73660000
053211054,MAXBENEFITPERIOD_BASIS,UNKNOWN,2 YEAR DURATION TO AGE 70
053211054,ENDDATECALCTYPE,5599002,78527000.0
053211050,INTEGRATIONTYPE,73632000,73660000
053211050,MAXBENEFITPERIOD_BASIS,UNKNOWN,2 YEAR DURATION TO AGE 70
053211050,ENDDATECALCTYPE,5599002,78527000.0
053211049,INTEGRATIONTYPE,73632000,73660000
053211049,MAXBENEFITPERIOD_BASIS,UNKNOWN,SSFRA OR SSNRA
053211049,ENDDATECALCTYPE,5599000,78527005.0
053211047,INTEGRATIONTYPE,73632000,73660000
053211047,MAXBENEFITPERIOD_BASIS,UNKNOWN,SSFRA OR SSNRA
053211047,ENDDATECALCTYPE,5599000,78527005.0
053211046,INTEGRATIONTYPE,73632000,73660000
053211046,MAXBENEFITPERIOD_BASIS,UNKNOWN,SSFRA OR SSNRA
053211046,ENDDATECALCTYPE,5599000,78527005.0
053211045,INTEGRATIONTYPE,73632000,73660000
053211045,MAXBENEFITPERIOD_BASIS,UNKNOWN,SSFRA OR SSNRA
053211045,ENDDATECALCTYPE,5599000,78527005.0
053211044,INTEGRATIONTYPE,73632000,73660000
053211044,MAXBENEFITPERIOD_BASIS,UNKNOWN,SSFRA OR SSNRA
053211044,ENDDATECALCTYPE,5599000,78527005.0
053211043,INTEGRATIONTYPE,73632000,73660000
053211043,MAXBENEFITPERIOD_BASIS,UNKNOWN,3 YEAR DURATION TO AGE 70
053211043,ENDDATECALCTYPE,5599001,78527001.0
053211041,INTEGRATIONTYPE,73632000,73660000
053211041,MAXBENEFITPERIOD_BASIS,UNKNOWN,SSFRA OR SSNRA
053211041,ENDDATECALCTYPE,5599000,78527005.0
053211040,INTEGRATIONTYPE,73632000,73660000
053211040,MAXBENEFITPERIOD_BASIS,UNKNOWN,5 YR/SSFRA OR 5 YR/SSNRA
053211040,ENDDATECALCTYPE,5599003,78527002.0
053211039,INTEGRATIONTYPE,73632000,73660000
053211039,MAXBENEFITPERIOD_BASIS,UNKNOWN,5 YR/SSFRA OR 5 YR/SSNRA
053211039,ENDDATECALCTYPE,5599003,78527002.0
053211038,INTEGRATIONTYPE,73632000,73660000
053211038,MAXBENEFITPERIOD_BASIS,UNKNOWN,2 YEAR DURATION TO AGE 70
053211038,ENDDATECALCTYPE,5599002,78527000.0
053211037,INTEGRATIONTYPE,73632000,73660000
053211037,MAXBENEFITPERIOD_BASIS,UNKNOWN,SSFRA OR SSNRA
053211037,ENDDATECALCTYPE,5599000,78527005.0
053211035,INTEGRATIONTYPE,73632000,73660000
053211035,MAXBENEFITPERIOD_BASIS,UNKNOWN,SSFRA OR SSNRA
053211035,ENDDATECALCTYPE,5599000,78527005.0
053211035,ALTERNATE_WAITINGPERIOD_BASIS,5568003,0
053211035,ALTERNATE_WAITINGPERIOD_UNITS,12,0
053211034,INTEGRATIONTYPE,73632000,73660000
053211034,MAXBENEFITPERIOD_BASIS,UNKNOWN,SSFRA OR SSNRA
053211034,ENDDATECALCTYPE,5599000,78527005.0
053211034,ALTERNATE_WAITINGPERIOD_BASIS,5568001,0
053211034,ALTERNATE_WAITINGPERIOD_UNITS,30,0
053211033,INTEGRATIONTYPE,73632000,73660000
053211033,MAXBENEFITPERIOD_BASIS,UNKNOWN,SSFRA OR SSNRA
053211033,ENDDATECALCTYPE,5599000,78527005.0
053211032,INTEGRATIONTYPE,73632000,73660000
053211032,MAXBENEFITPERIOD_BASIS,UNKNOWN,2 YEAR DURATION TO AGE 70
053211032,ENDDATECALCTYPE,5599002,78527000.0
053211031,INTEGRATIONTYPE,73632000,73660000
053211031,MAXBENEFITPERIOD_BASIS,UNKNOWN,6565T70A
053211031,ENDDATECALCTYPE,5599007,78527010.0
053211029,INTEGRATIONTYPE,73632000,73660000
053211029,MAXBENEFITPERIOD_BASIS,UNKNOWN,SSFRA OR SSNRA
053211029,ENDDATECALCTYPE,5599000,78527005.0
053211028,INTEGRATIONTYPE,73632000,73660000
053211028,MAXBENEFITPERIOD_BASIS,UNKNOWN,SSFRA OR SSNRA
053211028,ENDDATECALCTYPE,5599000,78527005.0
053211028,ALTERNATE_WAITINGPERIOD_BASIS,0,5568001.0
053211028,ALTERNATE_WAITINGPERIOD_UNITS,0,30.0
053211027,INTEGRATIONTYPE,73632000,73660000
053211027,MAXBENEFITPERIOD_BASIS,UNKNOWN,SSFRA OR SSNRA
053211027,ENDDATECALCTYPE,5599000,78527005.0
053211027,ALTERNATE_WAITINGPERIOD_BASIS,0,5568001.0
053211027,ALTERNATE_WAITINGPERIOD_UNITS,0,30.0
053211026,INTEGRATIONTYPE,73632000,73660000
053211026,MAXBENEFITPERIOD_BASIS,UNKNOWN,SSFRA OR SSNRA
053211026,ENDDATECALCTYPE,5599000,78527005.0
053211024,INTEGRATIONTYPE,73632000,73660000
053211024,MAXBENEFITPERIOD_BASIS,UNKNOWN,SSFRA OR SSNRA
053211024,ENDDATECALCTYPE,5599000,78527005.0
053211023,INTEGRATIONTYPE,73632000,73660000
053211023,MAXBENEFITPERIOD_BASIS,UNKNOWN,SSFRA OR SSNRA
053211023,ENDDATECALCTYPE,5599000,78527005.0
053211022,INTEGRATIONTYPE,73632000,73660000
053211022,MAXBENEFITPERIOD_BASIS,UNKNOWN,SSFRA OR SSNRA
053211022,ENDDATECALCTYPE,5599000,78527005.0
053211021,INTEGRATIONTYPE,73632000,73660000
053211021,MAXBENEFITPERIOD_BASIS,UNKNOWN,SSFRA OR SSNRA
053211021,ENDDATECALCTYPE,5599000,78527005.0
053211020,INTEGRATIONTYPE,73632000,73660000
053211020,MAXBENEFITPERIOD_BASIS,UNKNOWN,2 YEAR DURATION TO AGE 70
053211020,ENDDATECALCTYPE,5599002,78527000.0
053211019,INTEGRATIONTYPE,73632000,73660000
053211019,MAXBENEFITPERIOD_BASIS,UNKNOWN,SSFRA OR SSNRA
053211019,ENDDATECALCTYPE,5599000,78527005.0
053211019,ALTERNATE_WAITINGPERIOD_BASIS,0,5568001.0
053211019,ALTERNATE_WAITINGPERIOD_UNITS,0,30.0
053211018,INTEGRATIONTYPE,73632000,73660000
053211018,MAXBENEFITPERIOD_BASIS,UNKNOWN,SSFRA OR SSNRA
053211018,ENDDATECALCTYPE,5599000,78527005.0
053211017,INTEGRATIONTYPE,73632000,73660000
053211017,MAXBENEFITPERIOD_BASIS,UNKNOWN,SSFRA OR SSNRA
053211017,ENDDATECALCTYPE,5599000,78527005.0
053211016,INTEGRATIONTYPE,73632000,73660000
053211016,MAXBENEFITPERIOD_BASIS,UNKNOWN,SSFRA OR SSNRA
053211016,ENDDATECALCTYPE,5599000,78527005.0
053211015,INTEGRATIONTYPE,73632000,73660000
053211015,MAXBENEFITPERIOD_BASIS,UNKNOWN,SSFRA OR SSNRA
053211015,ENDDATECALCTYPE,5599000,78527005.0
053211014,INTEGRATIONTYPE,73632000,73660000
053211014,MAXBENEFITPERIOD_BASIS,UNKNOWN,2 YEAR DURATION TO AGE 70
053211014,ENDDATECALCTYPE,5599002,78527000.0
053211012,INTEGRATIONTYPE,73632000,73660000
053211012,MAXBENEFITPERIOD_BASIS,UNKNOWN,OA MODIFIED SSFRA
053211012,ENDDATECALCTYPE,5599008,78527017.0
053211011,INTEGRATIONTYPE,73632000,73660000
053211011,MAXBENEFITPERIOD_BASIS,UNKNOWN,SSFRA OR SSNRA
053211011,ENDDATECALCTYPE,5599000,78527005.0
053211010,INTEGRATIONTYPE,73632000,73660000
053211010,MAXBENEFITPERIOD_BASIS,UNKNOWN,SSFRA OR SSNRA
053211010,ENDDATECALCTYPE,5599000,78527005.0
053211009,INTEGRATIONTYPE,73632000,73660000
053211009,MAXBENEFITPERIOD_BASIS,UNKNOWN,5 YR/SSFRA OR 5 YR/SSNRA
053211009,ENDDATECALCTYPE,5599003,78527002.0
053211006,INTEGRATIONTYPE,73632000,73660000
053211006,MAXBENEFITPERIOD_BASIS,UNKNOWN,SSFRA OR SSNRA
053211006,ENDDATECALCTYPE,5599000,78527005.0
053211005,INTEGRATIONTYPE,73632000,73660000
053211005,MAXBENEFITPERIOD_BASIS,UNKNOWN,SSFRA OR SSNRA
053211005,ENDDATECALCTYPE,5599000,78527005.0
053211004,INTEGRATIONTYPE,73632000,73660000
053211004,MAXBENEFITPERIOD_BASIS,UNKNOWN,SSFRA OR SSNRA
053211004,ENDDATECALCTYPE,5599000,78527005.0
053211003,INTEGRATIONTYPE,73632000,73660000
053211003,MAXBENEFITPERIOD_BASIS,UNKNOWN,SSFRA OR SSNRA
053211003,ENDDATECALCTYPE,5599000,78527005.0
053211003,ALTERNATE_WAITINGPERIOD_BASIS,5568001,0
053211003,ALTERNATE_WAITINGPERIOD_UNITS,30,0
053211002,INTEGRATIONTYPE,73632000,73660000
053211002,MAXBENEFITPERIOD_BASIS,UNKNOWN,SSFRA OR SSNRA
053211002,ENDDATECALCTYPE,5599000,78527005.0
053211001,INTEGRATIONTYPE,73632000,73660000
053211001,MAXBENEFITPERIOD_BASIS,UNKNOWN,SSFRA OR SSNRA
053211001,ENDDATECALCTYPE,5599000,78527005.0
053211001,ALTERNATE_WAITINGPERIOD_BASIS,5568001,0
053211001,ALTERNATE_WAITINGPERIOD_UNITS,30,0
053211000,INTEGRATIONTYPE,73632000,73660000
053211000,MAXBENEFITPERIOD_BASIS,UNKNOWN,SSFRA OR SSNRA
053211000,ENDDATECALCTYPE,5599000,78527005.0
053210997,INTEGRATIONTYPE,73632000,73660000
053210997,MAXBENEFITPERIOD_BASIS,UNKNOWN,SSFRA OR SSNRA
053210997,ENDDATECALCTYPE,5599000,78527005.0
053210994,INTEGRATIONTYPE,73632000,73660000
053210994,MAXBENEFITPERIOD_BASIS,UNKNOWN,6565T70A
053210994,ENDDATECALCTYPE,5599007,78527010.0
053210993,MAXBENEFITPERIOD_BASIS,UNKNOWN,3 YEAR DURATION TO AGE 70
053210993,ENDDATECALCTYPE,5599001,78527001.0
053210992,INTEGRATIONTYPE,73632000,73660000
053210992,MAXBENEFITPERIOD_BASIS,UNKNOWN,SSFRA OR SSNRA
053210992,ENDDATECALCTYPE,5599000,78527005.0
053210991,INTEGRATIONTYPE,73632000,73660000
053210991,MAXBENEFITPERIOD_BASIS,UNKNOWN,SSFRA OR SSNRA
053210991,ENDDATECALCTYPE,5599000,78527005.0
053210990,INTEGRATIONTYPE,73632000,73660000
053210990,MAXBENEFITPERIOD_BASIS,UNKNOWN,SSFRA OR SSNRA
053210990,ENDDATECALCTYPE,5599000,78527005.0
053210989,INTEGRATIONTYPE,73632000,73660000
053210989,MAXBENEFITPERIOD_BASIS,UNKNOWN,5 YR/SSFRA OR 5 YR/SSNRA
053210989,ENDDATECALCTYPE,5599003,78527002.0
053210988,INTEGRATIONTYPE,73632000,73660000
053210988,MAXBENEFITPERIOD_BASIS,UNKNOWN,2 YEAR DURATION TO AGE 70
053210988,ENDDATECALCTYPE,5599002,78527000.0
053210987,INTEGRATIONTYPE,73632000,73660000
053210987,MAXBENEFITPERIOD_BASIS,UNKNOWN,5 YR/SSFRA OR 5 YR/SSNRA
053210987,ENDDATECALCTYPE,5599003,78527002.0
053210986,INTEGRATIONTYPE,73632000,73660000
053210986,MAXBENEFITPERIOD_BASIS,UNKNOWN,SSFRA OR SSNRA
053210986,ENDDATECALCTYPE,5599000,78527005.0
053210985,INTEGRATIONTYPE,73632000,73660000
053210985,MAXBENEFITPERIOD_BASIS,UNKNOWN,SSFRA OR SSNRA
053210985,ENDDATECALCTYPE,5599000,78527005.0
053210985,ALTERNATE_WAITINGPERIOD_BASIS,5568001,5568003.0
053210985,ALTERNATE_WAITINGPERIOD_UNITS,30,6.0
053210984,INTEGRATIONTYPE,73632000,73660000
053210984,MAXBENEFITPERIOD_BASIS,UNKNOWN,6565T70A
053210984,ENDDATECALCTYPE,5599007,78527010.0
053210983,INTEGRATIONTYPE,73632000,73660000
053210983,MAXBENEFITPERIOD_BASIS,UNKNOWN,SSFRA OR SSNRA
053210983,ENDDATECALCTYPE,5599000,78527005.0
053210982,INTEGRATIONTYPE,73632000,73660000
053210982,MAXBENEFITPERIOD_BASIS,UNKNOWN,SSFRA OR SSNRA
053210982,ENDDATECALCTYPE,5599000,78527005.0
053210981,INTEGRATIONTYPE,73632000,73660000
053210981,MAXBENEFITPERIOD_BASIS,UNKNOWN,SSFRA OR SSNRA
053210981,ENDDATECALCTYPE,5599000,78527005.0
053210980,INTEGRATIONTYPE,73632000,73660000
053210980,MAXBENEFITPERIOD_BASIS,UNKNOWN,SSFRA OR SSNRA
053210980,ENDDATECALCTYPE,5599000,78527005.0
053210979,INTEGRATIONTYPE,73632000,73660000
053210979,MAXBENEFITPERIOD_BASIS,UNKNOWN,SSFRA OR SSNRA
053210979,ENDDATECALCTYPE,5599000,78527005.0
053210977,INTEGRATIONTYPE,73632000,73660000
053210977,MAXBENEFITPERIOD_BASIS,UNKNOWN,5 YR/SSFRA OR 5 YR/SSNRA
053210977,ENDDATECALCTYPE,5599003,78527002.0
053210976,INTEGRATIONTYPE,73632000,73660000
053210976,MAXBENEFITPERIOD_BASIS,UNKNOWN,SSFRA OR SSNRA
053210976,ENDDATECALCTYPE,5599000,78527005.0
053210975,INTEGRATIONTYPE,73632000,73660000
053210975,MAXBENEFITPERIOD_BASIS,UNKNOWN,SSFRA OR SSNRA
053210975,ENDDATECALCTYPE,5599000,78527005.0
053210973,INTEGRATIONTYPE,73632000,73660000
053210973,MAXBENEFITPERIOD_BASIS,UNKNOWN,SSFRA OR SSNRA
053210973,ENDDATECALCTYPE,5599000,78527005.0
053210972,INTEGRATIONTYPE,73632000,73660000
053210972,MAXBENEFITPERIOD_BASIS,UNKNOWN,SSFRA OR SSNRA
053210972,ENDDATECALCTYPE,5599000,78527005.0
053210971,INTEGRATIONTYPE,73632000,73660000
053210971,MAXBENEFITPERIOD_BASIS,UNKNOWN,SSFRA OR SSNRA
053210971,ENDDATECALCTYPE,5599000,78527005.0
053210970,INTEGRATIONTYPE,73632000,73660000
053210970,MAXBENEFITPERIOD_BASIS,UNKNOWN,2 YEAR DURATION TO AGE 70
053210970,ENDDATECALCTYPE,5599002,78527000.0
053210969,INTEGRATIONTYPE,73632000,73660000
053210969,MAXBENEFITPERIOD_BASIS,UNKNOWN,SSFRA OR SSNRA
053210969,ENDDATECALCTYPE,5599000,78527005.0
053210967,INTEGRATIONTYPE,73632000,73660000
053210967,MAXBENEFITPERIOD_BASIS,UNKNOWN,5 YR/SSFRA OR 5 YR/SSNRA
053210967,ENDDATECALCTYPE,5599003,78527002.0
053210966,INTEGRATIONTYPE,73632000,73660000
053210966,MAXBENEFITPERIOD_BASIS,UNKNOWN,5 YR/SSFRA OR 5 YR/SSNRA
053210966,ENDDATECALCTYPE,5599003,78527002.0
053210965,INTEGRATIONTYPE,73632000,73660000
053210965,MAXBENEFITPERIOD_BASIS,UNKNOWN,5 YR/SSFRA OR 5 YR/SSNRA
053210965,ENDDATECALCTYPE,5599003,78527002.0
053210963,MAXBENEFITPERIOD_BASIS,UNKNOWN,5 YR/SSFRA OR 5 YR/SSNRA
053210963,ENDDATECALCTYPE,5599003,78527002.0
053210962,INTEGRATIONTYPE,73632000,73660000
053210962,MAXBENEFITPERIOD_BASIS,UNKNOWN,SSFRA OR SSNRA
053210962,ENDDATECALCTYPE,5599000,78527005.0
053210961,INTEGRATIONTYPE,73632000,73660000
053210961,MAXBENEFITPERIOD_BASIS,UNKNOWN,SSFRA OR SSNRA
053210961,ENDDATECALCTYPE,5599000,78527005.0
053210960,INTEGRATIONTYPE,73632000,73660000
053210960,MAXBENEFITPERIOD_BASIS,UNKNOWN,SSFRA OR SSNRA
053210960,ENDDATECALCTYPE,5599000,78527005.0
053210959,INTEGRATIONTYPE,73632000,73660000
053210959,MAXBENEFITPERIOD_BASIS,UNKNOWN,SSFRA OR SSNRA
053210959,ENDDATECALCTYPE,5599000,78527005.0
053210958,INTEGRATIONTYPE,73632000,73660000
053210958,MAXBENEFITPERIOD_BASIS,UNKNOWN,5 YR/SSFRA OR 5 YR/SSNRA
053210958,ENDDATECALCTYPE,5599003,78527002.0
053210957,INTEGRATIONTYPE,73632000,73660000
053210957,MAXBENEFITPERIOD_BASIS,UNKNOWN,SSFRA OR SSNRA
053210957,ENDDATECALCTYPE,5599000,78527005.0
053210956,INTEGRATIONTYPE,73632000,73660000
053210956,MAXBENEFITPERIOD_BASIS,UNKNOWN,SSFRA OR SSNRA
053210956,ENDDATECALCTYPE,5599000,78527005.0
053210956,ALTERNATE_WAITINGPERIOD_BASIS,5568003,0
053210956,ALTERNATE_WAITINGPERIOD_UNITS,6,0
053210955,INTEGRATIONTYPE,73632000,73660000
053210955,MAXBENEFITPERIOD_BASIS,UNKNOWN,5 YR/SSFRA OR 5 YR/SSNRA
053210955,ENDDATECALCTYPE,5599003,78527002.0
053210954,INTEGRATIONTYPE,73632000,73660000
053210954,MAXBENEFITPERIOD_BASIS,UNKNOWN,SSFRA OR SSNRA
053210954,ENDDATECALCTYPE,5599000,78527005.0
053210953,INTEGRATIONTYPE,73632000,73660000
053210953,MAXBENEFITPERIOD_BASIS,UNKNOWN,SSFRA OR SSNRA
053210953,ENDDATECALCTYPE,5599000,78527005.0
053210953,ALTERNATE_WAITINGPERIOD_BASIS,0,5568001.0
053210953,ALTERNATE_WAITINGPERIOD_UNITS,0,30.0
053210952,INTEGRATIONTYPE,73632000,73660000
053210952,MAXBENEFITPERIOD_BASIS,UNKNOWN,5 YR/SSFRA OR 5 YR/SSNRA
053210952,ENDDATECALCTYPE,5599003,78527002.0
053210951,INTEGRATIONTYPE,73632000,73660000
053210951,MAXBENEFITPERIOD_BASIS,UNKNOWN,SSFRA OR SSNRA
053210951,ENDDATECALCTYPE,5599000,78527005.0
053210950,INTEGRATIONTYPE,73632000,73660000
053210950,MAXBENEFITPERIOD_BASIS,UNKNOWN,5 YR/SSFRA OR 5 YR/SSNRA
053210950,ENDDATECALCTYPE,5599003,78527002.0
053210949,MAXBENEFITPERIOD_BASIS,UNKNOWN,5 YR/SSFRA OR 5 YR/SSNRA
053210949,ENDDATECALCTYPE,5599003,78527002.0
053210948,INTEGRATIONTYPE,73632000,73660000
053210948,MAXBENEFITPERIOD_BASIS,UNKNOWN,5 YR/SSFRA OR 5 YR/SSNRA
053210948,ENDDATECALCTYPE,5599003,78527002.0
053210945,INTEGRATIONTYPE,73632000,73660000
053210945,MAXBENEFITPERIOD_BASIS,UNKNOWN,5 YR/SSFRA OR 5 YR/SSNRA
053210945,ENDDATECALCTYPE,5599003,78527002.0
053210944,INTEGRATIONTYPE,73632000,73660000
053210944,MAXBENEFITPERIOD_BASIS,UNKNOWN,2 YEAR DURATION TO AGE 70
053210944,ENDDATECALCTYPE,5599002,78527000.0
053210943,INTEGRATIONTYPE,73632000,73660000
053210943,MAXBENEFITPERIOD_BASIS,UNKNOWN,SSFRA OR SSNRA
053210943,ENDDATECALCTYPE,5599000,78527005.0
053210940,MAXBENEFITPERIOD_BASIS,UNKNOWN,5 YR/SSFRA OR 5 YR/SSNRA
053210940,ENDDATECALCTYPE,5599003,78527002.0
053210939,INTEGRATIONTYPE,73632000,73660000
053210939,MAXBENEFITPERIOD_BASIS,UNKNOWN,OA MODIFIED SSFRA
053210939,ENDDATECALCTYPE,5599008,78527017.0
053210938,INTEGRATIONTYPE,73632000,73660000
053210938,MAXBENEFITPERIOD_BASIS,UNKNOWN,5 YR/SSFRA OR 5 YR/SSNRA
053210938,ENDDATECALCTYPE,5599003,78527002.0
053210937,INTEGRATIONTYPE,73632000,73660000
053210937,MAXBENEFITPERIOD_BASIS,UNKNOWN,SSFRA OR SSNRA
053210937,ENDDATECALCTYPE,5599000,78527005.0
053210936,INTEGRATIONTYPE,73632000,73660000
053210936,MAXBENEFITPERIOD_BASIS,UNKNOWN,3 YEAR DURATION TO AGE 70
053210936,ENDDATECALCTYPE,5599001,78527001.0
053210935,INTEGRATIONTYPE,73632000,73660000
053210935,MAXBENEFITPERIOD_BASIS,UNKNOWN,SSFRA OR SSNRA
053210935,ENDDATECALCTYPE,5599000,78527005.0
053210935,ALTERNATE_WAITINGPERIOD_BASIS,0,5568001.0
053210935,ALTERNATE_WAITINGPERIOD_UNITS,0,30.0
053210934,INTEGRATIONTYPE,73632000,73660000
053210934,MAXBENEFITPERIOD_BASIS,UNKNOWN,SSFRA OR SSNRA
053210934,ENDDATECALCTYPE,5599000,78527005.0
053210933,INTEGRATIONTYPE,73632000,73660000
053210933,MAXBENEFITPERIOD_BASIS,UNKNOWN,SSFRA OR SSNRA
053210933,ENDDATECALCTYPE,5599000,78527005.0
053210932,INTEGRATIONTYPE,73632000,73660000
053210932,MAXBENEFITPERIOD_BASIS,UNKNOWN,SSFRA OR SSNRA
053210932,ENDDATECALCTYPE,5599000,78527005.0
053210931,INTEGRATIONTYPE,73632000,73660000
053210931,MAXBENEFITPERIOD_BASIS,UNKNOWN,SSFRA OR SSNRA
053210931,ENDDATECALCTYPE,5599000,78527005.0
053210930,MAXBENEFITPERIOD_BASIS,UNKNOWN,5 YR/SSFRA OR 5 YR/SSNRA
053210930,ENDDATECALCTYPE,5599003,78527002.0
053210929,INTEGRATIONTYPE,73632000,73660000
053210929,MAXBENEFITPERIOD_BASIS,UNKNOWN,SSFRA OR SSNRA
053210929,ENDDATECALCTYPE,5599000,78527005.0
053210928,INTEGRATIONTYPE,73632000,73660000
053210928,MAXBENEFITPERIOD_BASIS,UNKNOWN,SSFRA OR SSNRA
053210928,ENDDATECALCTYPE,5599000,78527005.0
053210927,INTEGRATIONTYPE,73632000,73660000
053210927,MAXBENEFITPERIOD_BASIS,UNKNOWN,SSFRA OR SSNRA
053210927,ENDDATECALCTYPE,5599000,78527005.0
053210927,ALTERNATE_WAITINGPERIOD_BASIS,0,5568001.0
053210927,ALTERNATE_WAITINGPERIOD_UNITS,0,30.0
053210926,INTEGRATIONTYPE,73632000,73660000
053210926,MAXBENEFITPERIOD_BASIS,UNKNOWN,SSFRA OR SSNRA
053210926,ENDDATECALCTYPE,5599000,78527005.0
053210925,INTEGRATIONTYPE,73632000,73660000
053210925,MAXBENEFITPERIOD_BASIS,UNKNOWN,SSFRA OR SSNRA
053210925,ENDDATECALCTYPE,5599000,78527005.0
053210924,INTEGRATIONTYPE,73632000,73660000
053210924,MAXBENEFITPERIOD_BASIS,UNKNOWN,2 YEAR DURATION TO AGE 70
053210924,ENDDATECALCTYPE,5599002,78527000.0
053210923,INTEGRATIONTYPE,73632000,73660000
053210923,MAXBENEFITPERIOD_BASIS,UNKNOWN,SSFRA OR SSNRA
053210923,ENDDATECALCTYPE,5599000,78527005.0
053210921,INTEGRATIONTYPE,73632000,73660000
053210921,MAXBENEFITPERIOD_BASIS,UNKNOWN,5 YR/SSFRA OR 5 YR/SSNRA
053210921,ENDDATECALCTYPE,5599003,78527002.0
053210920,INTEGRATIONTYPE,73632000,73660000
053210920,MAXBENEFITPERIOD_BASIS,UNKNOWN,SSFRA OR SSNRA
053210920,ENDDATECALCTYPE,5599000,78527005.0
053210920,ALTERNATE_WAITINGPERIOD_BASIS,5568001,0
053210920,ALTERNATE_WAITINGPERIOD_UNITS,30,0
053210919,INTEGRATIONTYPE,73632000,73660000
053210919,MAXBENEFITPERIOD_BASIS,UNKNOWN,SSFRA OR SSNRA
053210919,ENDDATECALCTYPE,5599000,78527005.0
053210919,ALTERNATE_WAITINGPERIOD_BASIS,5568001,0
053210919,ALTERNATE_WAITINGPERIOD_UNITS,90,0
053210918,INTEGRATIONTYPE,73632000,73660000
053210918,MAXBENEFITPERIOD_BASIS,UNKNOWN,SSFRA OR SSNRA
053210918,ENDDATECALCTYPE,5599000,78527005.0
053210917,INTEGRATIONTYPE,73632000,73660000
053210917,MAXBENEFITPERIOD_BASIS,UNKNOWN,SSFRA OR SSNRA
053210917,ENDDATECALCTYPE,5599000,78527005.0
053210915,INTEGRATIONTYPE,73632000,73660000
053210915,MAXBENEFITPERIOD_BASIS,UNKNOWN,SSFRA OR SSNRA
053210915,ENDDATECALCTYPE,5599000,78527005.0
053210913,INTEGRATIONTYPE,73632000,73660000
053210913,MAXBENEFITPERIOD_BASIS,UNKNOWN,SSFRA OR SSNRA
053210913,ENDDATECALCTYPE,5599000,78527005.0
053210912,INTEGRATIONTYPE,73632000,73660000
053210912,MAXBENEFITPERIOD_BASIS,UNKNOWN,5 YR/SSFRA OR 5 YR/SSNRA
053210912,ENDDATECALCTYPE,5599003,78527002.0
053210911,MAXBENEFITPERIOD_BASIS,UNKNOWN,5 YR/SSFRA OR 5 YR/SSNRA
053210911,ENDDATECALCTYPE,5599003,78527002.0
053210910,INTEGRATIONTYPE,73632000,73660000
053210910,MAXBENEFITPERIOD_BASIS,UNKNOWN,SSFRA OR SSNRA
053210910,ENDDATECALCTYPE,5599000,78527005.0
053210909,INTEGRATIONTYPE,73632000,73660000
053210909,MAXBENEFITPERIOD_BASIS,UNKNOWN,SSFRA OR SSNRA
053210909,ENDDATECALCTYPE,5599000,78527005.0
053210908,INTEGRATIONTYPE,73632000,73660000
053210908,MAXBENEFITPERIOD_BASIS,UNKNOWN,SSFRA OR SSNRA
053210908,ENDDATECALCTYPE,5599000,78527005.0
053210907,INTEGRATIONTYPE,73632000,73660000
053210907,MAXBENEFITPERIOD_BASIS,UNKNOWN,SSFRA OR SSNRA
053210907,ENDDATECALCTYPE,5599000,78527005.0
053210906,INTEGRATIONTYPE,73632000,73660000
053210906,MAXBENEFITPERIOD_BASIS,UNKNOWN,SSFRA OR SSNRA
053210906,ENDDATECALCTYPE,5599000,78527005.0
053210905,INTEGRATIONTYPE,73632000,73660000
053210905,MAXBENEFITPERIOD_BASIS,UNKNOWN,SSFRA OR SSNRA
053210905,ENDDATECALCTYPE,5599000,78527005.0
053210904,INTEGRATIONTYPE,73632000,73660000
053210904,MAXBENEFITPERIOD_BASIS,UNKNOWN,SSFRA OR SSNRA
053210904,ENDDATECALCTYPE,5599000,78527005.0
053210903,INTEGRATIONTYPE,73632000,73660000
053210903,MAXBENEFITPERIOD_BASIS,UNKNOWN,SSFRA OR SSNRA
053210903,ENDDATECALCTYPE,5599000,78527005.0
053210901,INTEGRATIONTYPE,73632000,73660000
053210901,MAXBENEFITPERIOD_BASIS,UNKNOWN,SSFRA OR SSNRA
053210901,ENDDATECALCTYPE,5599000,78527005.0
053210901,ALTERNATE_WAITINGPERIOD_BASIS,5568001,0
053210901,ALTERNATE_WAITINGPERIOD_UNITS,30,0
053210900,INTEGRATIONTYPE,73632000,73660000
053210900,MAXBENEFITPERIOD_BASIS,UNKNOWN,SSFRA OR SSNRA
053210900,ENDDATECALCTYPE,5599000,78527005.0
053210899,MAXBENEFITPERIOD_BASIS,UNKNOWN,5 YR/SSFRA OR 5 YR/SSNRA
053210899,ENDDATECALCTYPE,5599003,78527002.0
053210898,INTEGRATIONTYPE,73632000,73660000
053210898,MAXBENEFITPERIOD_BASIS,UNKNOWN,SSFRA OR SSNRA
053210898,ENDDATECALCTYPE,5599000,78527005.0
053210897,INTEGRATIONTYPE,73632000,73660000
053210897,MAXBENEFITPERIOD_BASIS,UNKNOWN,2 YEAR DURATION TO AGE 70
053210897,ENDDATECALCTYPE,5599002,78527000.0
053210896,INTEGRATIONTYPE,73632000,73660000
053210896,MAXBENEFITPERIOD_BASIS,UNKNOWN,5 YR/SSFRA OR 5 YR/SSNRA
053210896,ENDDATECALCTYPE,5599003,78527002.0
053210895,INTEGRATIONTYPE,73632000,73660000
053210895,MAXBENEFITPERIOD_BASIS,UNKNOWN,5 YR/SSFRA OR 5 YR/SSNRA
053210895,ENDDATECALCTYPE,5599003,78527002.0
053210894,INTEGRATIONTYPE,73632000,73660000
053210894,MAXBENEFITPERIOD_BASIS,UNKNOWN,SSFRA OR SSNRA
053210894,ENDDATECALCTYPE,5599000,78527005.0
053210893,INTEGRATIONTYPE,73632000,73660000
053210893,MAXBENEFITPERIOD_BASIS,UNKNOWN,SSFRA OR SSNRA
053210893,ENDDATECALCTYPE,5599000,78527005.0
053210892,INTEGRATIONTYPE,73632000,73660000
053210892,MAXBENEFITPERIOD_BASIS,UNKNOWN,SSFRA OR SSNRA
053210892,ENDDATECALCTYPE,5599000,78527005.0
053210891,INTEGRATIONTYPE,73632000,73660001
053210891,MAXBENEFITPERIOD_BASIS,UNKNOWN,SSFRA OR SSNRA
053210891,ENDDATECALCTYPE,5599000,78527005.0
053210890,INTEGRATIONTYPE,73632000,73660000
053210890,MAXBENEFITPERIOD_BASIS,UNKNOWN,SSFRA OR SSNRA
053210890,ENDDATECALCTYPE,5599000,78527005.0
053210889,INTEGRATIONTYPE,73632000,73660000
053210889,MAXBENEFITPERIOD_BASIS,UNKNOWN,2 YEAR DURATION TO AGE 70
053210889,ENDDATECALCTYPE,5599002,78527000.0
053210888,INTEGRATIONTYPE,73632000,73660000
053210888,MAXBENEFITPERIOD_BASIS,UNKNOWN,2 YEAR DURATION TO AGE 70
053210888,ENDDATECALCTYPE,5599002,78527000.0
053210887,INTEGRATIONTYPE,73632000,73660000
053210887,MAXBENEFITPERIOD_BASIS,UNKNOWN,SSFRA OR SSNRA
053210887,ENDDATECALCTYPE,5599000,78527005.0
053210886,INTEGRATIONTYPE,73632000,73660000
053210886,MAXBENEFITPERIOD_BASIS,UNKNOWN,5 YR/SSFRA OR 5 YR/SSNRA
053210886,ENDDATECALCTYPE,5599003,78527002.0
053210886,ALTERNATE_WAITINGPERIOD_UNITS,30,90.0
053210885,INTEGRATIONTYPE,73632000,73660000
053210885,MAXBENEFITPERIOD_BASIS,UNKNOWN,SSFRA OR SSNRA
053210885,ENDDATECALCTYPE,5599000,78527005.0
053210884,INTEGRATIONTYPE,73632000,73660000
053210884,MAXBENEFITPERIOD_BASIS,UNKNOWN,SSFRA OR SSNRA
053210884,ENDDATECALCTYPE,5599000,78527005.0
053210884,ALTERNATE_WAITINGPERIOD_BASIS,5568001,0
053210884,ALTERNATE_WAITINGPERIOD_UNITS,365,0
053210883,INTEGRATIONTYPE,73632000,73660000
053210883,MAXBENEFITPERIOD_BASIS,UNKNOWN,5 YR/SSFRA OR 5 YR/SSNRA
053210883,ENDDATECALCTYPE,5599003,78527002.0
053210883,ALTERNATE_WAITINGPERIOD_UNITS,30,60.0
053210882,INTEGRATIONTYPE,73632000,73660000
053210882,MAXBENEFITPERIOD_BASIS,UNKNOWN,SSFRA OR SSNRA
053210882,ENDDATECALCTYPE,5599000,78527005.0
053210880,INTEGRATIONTYPE,73632000,73660000
053210880,MAXBENEFITPERIOD_BASIS,UNKNOWN,SSFRA OR SSNRA
053210880,ENDDATECALCTYPE,5599000,78527005.0
053210879,INTEGRATIONTYPE,73632000,73660000
053210879,MAXBENEFITPERIOD_BASIS,UNKNOWN,SSFRA OR SSNRA
053210879,ENDDATECALCTYPE,5599000,78527005.0
053210878,MAXBENEFITPERIOD_BASIS,UNKNOWN,5 YR/SSFRA OR 5 YR/SSNRA
053210878,ENDDATECALCTYPE,5599003,78527002.0
053210877,INTEGRATIONTYPE,73632000,73660000
053210877,MAXBENEFITPERIOD_BASIS,UNKNOWN,SSFRA OR SSNRA
053210877,ENDDATECALCTYPE,5599000,78527005.0
053210876,INTEGRATIONTYPE,73632000,73660000
053210876,MAXBENEFITPERIOD_BASIS,UNKNOWN,5 YR/SSFRA OR 5 YR/SSNRA
053210876,ENDDATECALCTYPE,5599003,78527002.0
053210876,ALTERNATE_WAITINGPERIOD_BASIS,5568001,0
053210876,ALTERNATE_WAITINGPERIOD_UNITS,30,0
053210875,INTEGRATIONTYPE,73632000,73660000
053210875,MAXBENEFITPERIOD_BASIS,UNKNOWN,SSFRA OR SSNRA
053210875,ENDDATECALCTYPE,5599000,78527005.0
053210874,INTEGRATIONTYPE,73632000,73660000
053210874,MAXBENEFITPERIOD_BASIS,UNKNOWN,SSFRA OR SSNRA
053210874,ENDDATECALCTYPE,5599000,78527005.0
053210872,INTEGRATIONTYPE,73632000,73660000
053210872,MAXBENEFITPERIOD_BASIS,UNKNOWN,SSFRA OR SSNRA
053210872,ENDDATECALCTYPE,5599000,78527005.0
053210872,ALTERNATE_WAITINGPERIOD_BASIS,5568001,0
053210872,ALTERNATE_WAITINGPERIOD_UNITS,60,0
053210871,MAXBENEFITPERIOD_BASIS,UNKNOWN,5 YR/SSFRA OR 5 YR/SSNRA
053210871,ENDDATECALCTYPE,5599003,78527002.0
053210870,INTEGRATIONTYPE,73632000,73660000
053210870,MAXBENEFITPERIOD_BASIS,UNKNOWN,SSFRA OR SSNRA
053210870,ENDDATECALCTYPE,5599000,78527005.0
053210869,INTEGRATIONTYPE,73632000,73660000
053210869,MAXBENEFITPERIOD_BASIS,UNKNOWN,SSFRA OR SSNRA
053210869,ENDDATECALCTYPE,5599000,78527005.0
053210868,INTEGRATIONTYPE,73632000,73660000
053210868,MAXBENEFITPERIOD_BASIS,UNKNOWN,SSFRA OR SSNRA
053210868,ENDDATECALCTYPE,5599000,78527005.0
053210867,INTEGRATIONTYPE,73632000,73660000
053210867,MAXBENEFITPERIOD_BASIS,UNKNOWN,SSFRA OR SSNRA
053210867,ENDDATECALCTYPE,5599000,78527005.0
053210866,INTEGRATIONTYPE,73632000,73660000
053210866,MAXBENEFITPERIOD_BASIS,UNKNOWN,SSFRA OR SSNRA
053210866,ENDDATECALCTYPE,5599000,78527005.0
053210865,INTEGRATIONTYPE,73632000,73660000
053210865,MAXBENEFITPERIOD_BASIS,UNKNOWN,SSFRA OR SSNRA
053210865,ENDDATECALCTYPE,5599000,78527005.0
053210863,INTEGRATIONTYPE,73632000,73660000
053210863,MAXBENEFITPERIOD_BASIS,UNKNOWN,5 YR/SSFRA OR 5 YR/SSNRA
053210863,ENDDATECALCTYPE,5599003,78527002.0
053210862,INTEGRATIONTYPE,73632000,73660000
053210862,MAXBENEFITPERIOD_BASIS,UNKNOWN,SSFRA OR SSNRA
053210862,ENDDATECALCTYPE,5599000,78527005.0
053210861,INTEGRATIONTYPE,73632000,73660000
053210861,MAXBENEFITPERIOD_BASIS,UNKNOWN,SSFRA OR SSNRA
053210861,ENDDATECALCTYPE,5599000,78527005.0
053210860,INTEGRATIONTYPE,73632000,73660000
053210860,MAXBENEFITPERIOD_BASIS,UNKNOWN,SSFRA OR SSNRA
053210860,ENDDATECALCTYPE,5599000,78527005.0
053210859,INTEGRATIONTYPE,73632000,73660000
053210859,MAXBENEFITPERIOD_BASIS,UNKNOWN,SSFRA OR SSNRA
053210859,ENDDATECALCTYPE,5599000,78527005.0
053210858,INTEGRATIONTYPE,73632000,73660000
053210858,MAXBENEFITPERIOD_BASIS,UNKNOWN,5 YR/SSFRA OR 5 YR/SSNRA
053210858,ENDDATECALCTYPE,5599003,78527002.0
053210857,INTEGRATIONTYPE,73632000,73660000
053210857,MAXBENEFITPERIOD_BASIS,UNKNOWN,5 YR/SSFRA OR 5 YR/SSNRA
053210857,ENDDATECALCTYPE,5599003,78527002.0
053210856,INTEGRATIONTYPE,73632000,73660000
053210856,MAXBENEFITPERIOD_BASIS,UNKNOWN,5 YR/SSFRA OR 5 YR/SSNRA
053210856,ENDDATECALCTYPE,5599003,78527002.0
053210855,INTEGRATIONTYPE,73632000,73660000
053210855,MAXBENEFITPERIOD_BASIS,UNKNOWN,SSFRA OR SSNRA
053210855,ENDDATECALCTYPE,5599000,78527005.0
053210855,ALTERNATE_WAITINGPERIOD_BASIS,5568001,0
053210855,ALTERNATE_WAITINGPERIOD_UNITS,90,0
053210854,INTEGRATIONTYPE,73632000,73660000
053210854,MAXBENEFITPERIOD_BASIS,UNKNOWN,SSFRA OR SSNRA
053210854,ENDDATECALCTYPE,5599000,78527005.0
053210853,INTEGRATIONTYPE,73632000,73660000
053210853,MAXBENEFITPERIOD_BASIS,UNKNOWN,SSFRA OR SSNRA
053210853,ENDDATECALCTYPE,5599000,78527005.0
053210852,INTEGRATIONTYPE,73632000,73660000
053210852,MAXBENEFITPERIOD_BASIS,UNKNOWN,SSFRA OR SSNRA
053210852,ENDDATECALCTYPE,5599000,78527005.0
053210851,INTEGRATIONTYPE,73632000,73660000
053210851,MAXBENEFITPERIOD_BASIS,UNKNOWN,SSFRA OR SSNRA
053210851,ENDDATECALCTYPE,5599000,78527005.0
053210850,INTEGRATIONTYPE,73632000,73660000
053210850,MAXBENEFITPERIOD_BASIS,UNKNOWN,SSFRA OR SSNRA
053210850,ENDDATECALCTYPE,5599000,78527005.0
053210849,INTEGRATIONTYPE,73632000,73660000
053210849,MAXBENEFITPERIOD_BASIS,UNKNOWN,SSFRA OR SSNRA
053210849,ENDDATECALCTYPE,5599000,78527005.0
053210848,INTEGRATIONTYPE,73632000,73660000
053210848,MAXBENEFITPERIOD_BASIS,UNKNOWN,SSFRA OR SSNRA
053210848,ENDDATECALCTYPE,5599000,78527005.0
053210848,ALTERNATE_WAITINGPERIOD_UNITS,60,90.0
053210847,INTEGRATIONTYPE,73632000,73660000
053210847,MAXBENEFITPERIOD_BASIS,UNKNOWN,SSFRA OR SSNRA
053210847,ENDDATECALCTYPE,5599000,78527005.0
053210846,INTEGRATIONTYPE,73632000,73660000
053210846,MAXBENEFITPERIOD_BASIS,UNKNOWN,6565T70A
053210846,ENDDATECALCTYPE,5599007,78527010.0
053210845,MAXBENEFITPERIOD_BASIS,UNKNOWN,5 YR/SSFRA OR 5 YR/SSNRA
053210845,ENDDATECALCTYPE,5599003,78527002.0
053210844,INTEGRATIONTYPE,73632000,73660000
053210844,MAXBENEFITPERIOD_BASIS,UNKNOWN,SSFRA OR SSNRA
053210844,ENDDATECALCTYPE,5599000,78527005.0
053210844,ALTERNATE_WAITINGPERIOD_BASIS,5568001,0
053210844,ALTERNATE_WAITINGPERIOD_UNITS,30,0
053210843,INTEGRATIONTYPE,73632000,73660000
053210843,MAXBENEFITPERIOD_BASIS,UNKNOWN,SSFRA OR SSNRA
053210843,ENDDATECALCTYPE,5599000,78527005.0
053210843,ALTERNATE_WAITINGPERIOD_BASIS,5568001,0
053210843,ALTERNATE_WAITINGPERIOD_UNITS,90,0
053210842,INTEGRATIONTYPE,73632000,73660000
053210842,MAXBENEFITPERIOD_BASIS,UNKNOWN,SSFRA OR SSNRA
053210842,ENDDATECALCTYPE,5599000,78527005.0
053210841,INTEGRATIONTYPE,73632000,73660000
053210841,MAXBENEFITPERIOD_BASIS,UNKNOWN,6565T70A
053210841,ENDDATECALCTYPE,5599007,78527010.0
053210840,INTEGRATIONTYPE,73632000,73660000
053210840,MAXBENEFITPERIOD_BASIS,UNKNOWN,5 YR/SSFRA OR 5 YR/SSNRA
053210840,ENDDATECALCTYPE,5599003,78527002.0
053210839,INTEGRATIONTYPE,73632000,73660000
053210839,MAXBENEFITPERIOD_BASIS,UNKNOWN,SSFRA OR SSNRA
053210839,ENDDATECALCTYPE,5599000,78527005.0
053210838,INTEGRATIONTYPE,73632000,73660000
053210838,MAXBENEFITPERIOD_BASIS,UNKNOWN,3 YEAR DURATION TO AGE 70
053210838,ENDDATECALCTYPE,5599001,78527001.0
053210837,INTEGRATIONTYPE,73632000,73660000
053210837,MAXBENEFITPERIOD_BASIS,UNKNOWN,SSFRA OR SSNRA
053210837,ENDDATECALCTYPE,5599000,78527005.0
053210836,INTEGRATIONTYPE,73632000,73660000
053210836,MAXBENEFITPERIOD_BASIS,UNKNOWN,SSFRA OR SSNRA
053210836,ENDDATECALCTYPE,5599000,78527005.0
053210835,INTEGRATIONTYPE,73632000,73660000
053210835,MAXBENEFITPERIOD_BASIS,UNKNOWN,SSFRA OR SSNRA
053210835,ENDDATECALCTYPE,5599000,78527005.0
053210834,INTEGRATIONTYPE,73632000,73660000
053210834,MAXBENEFITPERIOD_BASIS,UNKNOWN,SSFRA OR SSNRA
053210834,ENDDATECALCTYPE,5599000,78527005.0
053210833,INTEGRATIONTYPE,73632000,73660000
053210833,MAXBENEFITPERIOD_BASIS,UNKNOWN,SSFRA OR SSNRA
053210833,ENDDATECALCTYPE,5599000,78527005.0
053210832,INTEGRATIONTYPE,73632000,73660000
053210832,MAXBENEFITPERIOD_BASIS,UNKNOWN,SSFRA OR SSNRA
053210832,ENDDATECALCTYPE,5599000,78527005.0
053210831,INTEGRATIONTYPE,73632000,73660000
053210831,MAXBENEFITPERIOD_BASIS,UNKNOWN,SSFRA OR SSNRA
053210831,ENDDATECALCTYPE,5599000,78527005.0
053210830,INTEGRATIONTYPE,73632000,73660000
053210830,MAXBENEFITPERIOD_BASIS,UNKNOWN,SSFRA OR SSNRA
053210830,ENDDATECALCTYPE,5599000,78527005.0
053210829,INTEGRATIONTYPE,73632000,73660000
053210829,MAXBENEFITPERIOD_BASIS,UNKNOWN,SSFRA OR SSNRA
053210829,ENDDATECALCTYPE,5599000,78527005.0
053210828,INTEGRATIONTYPE,73632000,73660000
053210828,MAXBENEFITPERIOD_BASIS,UNKNOWN,5 YR/SSFRA OR 5 YR/SSNRA
053210828,ENDDATECALCTYPE,5599003,78527002.0
053210827,INTEGRATIONTYPE,73632000,73660000
053210827,MAXBENEFITPERIOD_BASIS,UNKNOWN,SSFRA OR SSNRA
053210827,ENDDATECALCTYPE,5599000,78527005.0
053210826,INTEGRATIONTYPE,73632000,73660000
053210826,MAXBENEFITPERIOD_BASIS,UNKNOWN,SSFRA OR SSNRA
053210826,ENDDATECALCTYPE,5599000,78527005.0
053210826,ALTERNATE_WAITINGPERIOD_BASIS,5568001,0
053210826,ALTERNATE_WAITINGPERIOD_UNITS,60,0
053210825,MAXBENEFITPERIOD_BASIS,UNKNOWN,5 YR/SSFRA OR 5 YR/SSNRA
053210825,ENDDATECALCTYPE,5599003,78527002.0
053210824,INTEGRATIONTYPE,73632000,73660000
053210824,MAXBENEFITPERIOD_BASIS,UNKNOWN,SSFRA OR SSNRA
053210824,ENDDATECALCTYPE,5599000,78527005.0
053210823,INTEGRATIONTYPE,73632000,73660000
053210823,MAXBENEFITPERIOD_BASIS,UNKNOWN,SSFRA OR SSNRA
053210823,ENDDATECALCTYPE,5599000,78527005.0
053210822,INTEGRATIONTYPE,73632000,73660000
053210822,MAXBENEFITPERIOD_BASIS,UNKNOWN,SSFRA OR SSNRA
053210822,ENDDATECALCTYPE,5599000,78527005.0
053210821,INTEGRATIONTYPE,73632000,73660000
053210821,MAXBENEFITPERIOD_BASIS,UNKNOWN,SSFRA OR SSNRA
053210821,ENDDATECALCTYPE,5599000,78527005.0
053210821,ALTERNATE_WAITINGPERIOD_BASIS,5568001,0
053210821,ALTERNATE_WAITINGPERIOD_UNITS,30,0
053210820,INTEGRATIONTYPE,73632000,73660000
053210820,MAXBENEFITPERIOD_BASIS,UNKNOWN,SSFRA OR SSNRA
053210820,ENDDATECALCTYPE,5599000,78527005.0
053210819,MAXBENEFITPERIOD_BASIS,UNKNOWN,5 YR/SSFRA OR 5 YR/SSNRA
053210819,ENDDATECALCTYPE,5599003,78527002.0
053210818,INTEGRATIONTYPE,73632000,73660000
053210818,MAXBENEFITPERIOD_BASIS,UNKNOWN,SSFRA OR SSNRA
053210818,ENDDATECALCTYPE,5599000,78527005.0
053210817,INTEGRATIONTYPE,73632000,73660000
053210817,MAXBENEFITPERIOD_BASIS,UNKNOWN,SSFRA OR SSNRA
053210817,ENDDATECALCTYPE,5599000,78527005.0
053210816,INTEGRATIONTYPE,73632000,73660000
053210816,MAXBENEFITPERIOD_BASIS,UNKNOWN,65/5/70
053210816,ENDDATECALCTYPE,5599007,78527010.0
053210815,INTEGRATIONTYPE,73632000,73660000
053210815,MAXBENEFITPERIOD_BASIS,UNKNOWN,SSFRA OR SSNRA
053210815,ENDDATECALCTYPE,5599000,78527005.0
053210814,INTEGRATIONTYPE,73632000,73660000
053210814,MAXBENEFITPERIOD_BASIS,UNKNOWN,SSFRA OR SSNRA
053210814,ENDDATECALCTYPE,5599000,78527005.0
053210813,MAXBENEFITPERIOD_BASIS,UNKNOWN,5 YR/SSFRA OR 5 YR/SSNRA
053210813,ENDDATECALCTYPE,5599003,78527002.0
053210812,INTEGRATIONTYPE,73632000,73660000
053210812,MAXBENEFITPERIOD_BASIS,UNKNOWN,SSFRA OR SSNRA
053210812,ENDDATECALCTYPE,5599000,78527005.0
053210811,INTEGRATIONTYPE,73632000,73660000
053210811,MAXBENEFITPERIOD_BASIS,UNKNOWN,5 YR/SSFRA OR 5 YR/SSNRA
053210811,ENDDATECALCTYPE,5599003,78527002.0
053210810,INTEGRATIONTYPE,73632000,73660000
053210810,MAXBENEFITPERIOD_BASIS,UNKNOWN,SSFRA OR SSNRA
053210810,ENDDATECALCTYPE,5599000,78527005.0
053210809,INTEGRATIONTYPE,73632000,73660000
053210809,MAXBENEFITPERIOD_BASIS,UNKNOWN,3 YEAR DURATION TO AGE 70
053210809,ENDDATECALCTYPE,5599001,78527001.0
053210807,INTEGRATIONTYPE,73632000,73660000
053210807,MAXBENEFITPERIOD_BASIS,UNKNOWN,SSFRA OR SSNRA
053210807,ENDDATECALCTYPE,5599000,78527005.0
053210806,INTEGRATIONTYPE,73632000,73660000
053210806,MAXBENEFITPERIOD_BASIS,UNKNOWN,65/5/70
053210806,ENDDATECALCTYPE,5599007,78527010.0
053210805,INTEGRATIONTYPE,73632000,73660000
053210805,MAXBENEFITPERIOD_BASIS,UNKNOWN,SSFRA OR SSNRA
053210805,ENDDATECALCTYPE,5599000,78527005.0
053210804,INTEGRATIONTYPE,73632000,73660000
053210804,MAXBENEFITPERIOD_BASIS,UNKNOWN,5 YR/SSFRA OR 5 YR/SSNRA
053210804,ENDDATECALCTYPE,5599003,78527002.0
053210802,INTEGRATIONTYPE,73632000,73660000
053210802,MAXBENEFITPERIOD_BASIS,UNKNOWN,SSFRA OR SSNRA
053210802,ENDDATECALCTYPE,5599000,78527005.0
053210801,INTEGRATIONTYPE,73632000,73660000
053210801,MAXBENEFITPERIOD_BASIS,UNKNOWN,SSFRA OR SSNRA
053210801,ENDDATECALCTYPE,5599000,78527005.0
053210800,INTEGRATIONTYPE,73632000,73660000
053210800,MAXBENEFITPERIOD_BASIS,UNKNOWN,SSFRA OR SSNRA
053210800,ENDDATECALCTYPE,5599000,78527005.0
053210798,INTEGRATIONTYPE,73632000,73660000
053210798,MAXBENEFITPERIOD_BASIS,UNKNOWN,SSFRA OR SSNRA
053210798,ENDDATECALCTYPE,5599000,78527005.0
053210797,INTEGRATIONTYPE,73632000,73660000
053210797,MAXBENEFITPERIOD_BASIS,UNKNOWN,SSFRA OR SSNRA
053210797,ENDDATECALCTYPE,5599000,78527005.0
053210796,INTEGRATIONTYPE,73632000,73660000
053210796,MAXBENEFITPERIOD_BASIS,UNKNOWN,SSFRA OR SSNRA
053210796,ENDDATECALCTYPE,5599000,78527005.0
053210795,INTEGRATIONTYPE,73632000,73660000
053210795,MAXBENEFITPERIOD_BASIS,UNKNOWN,SSFRA OR SSNRA
053210795,ENDDATECALCTYPE,5599000,78527005.0
053210794,INTEGRATIONTYPE,73632000,73660000
053210794,MAXBENEFITPERIOD_BASIS,UNKNOWN,SSFRA OR SSNRA
053210794,ENDDATECALCTYPE,5599000,78527005.0
053210793,INTEGRATIONTYPE,73632000,73660000
053210793,MAXBENEFITPERIOD_BASIS,UNKNOWN,SSFRA OR SSNRA
053210793,ENDDATECALCTYPE,5599000,78527005.0
053210792,INTEGRATIONTYPE,73632000,73660000
053210792,MAXBENEFITPERIOD_BASIS,UNKNOWN,SSFRA OR SSNRA
053210792,ENDDATECALCTYPE,5599000,78527005.0
053210791,INTEGRATIONTYPE,73632000,73660000
053210791,MAXBENEFITPERIOD_BASIS,UNKNOWN,SSFRA OR SSNRA
053210791,ENDDATECALCTYPE,5599000,78527005.0
053210790,INTEGRATIONTYPE,73632000,73660000
053210790,MAXBENEFITPERIOD_BASIS,UNKNOWN,SSFRA OR SSNRA
053210790,ENDDATECALCTYPE,5599000,78527005.0
053210790,ALTERNATE_WAITINGPERIOD_BASIS,5568003,0
053210790,ALTERNATE_WAITINGPERIOD_UNITS,12,0
053210789,INTEGRATIONTYPE,73632000,73660000
053210789,MAXBENEFITPERIOD_BASIS,UNKNOWN,SSFRA OR SSNRA
053210789,ENDDATECALCTYPE,5599000,78527005.0
053210789,ALTERNATE_WAITINGPERIOD_BASIS,5568001,0
053210789,ALTERNATE_WAITINGPERIOD_UNITS,90,0
053210788,INTEGRATIONTYPE,73632000,73660000
053210788,MAXBENEFITPERIOD_BASIS,UNKNOWN,SSFRA OR SSNRA
053210788,ENDDATECALCTYPE,5599000,78527005.0
053210787,INTEGRATIONTYPE,73632000,73660000
053210787,MAXBENEFITPERIOD_BASIS,UNKNOWN,2 YEAR DURATION TO AGE 70
053210787,ENDDATECALCTYPE,5599002,78527000.0
053210786,INTEGRATIONTYPE,73632000,73660000
053210786,MAXBENEFITPERIOD_BASIS,UNKNOWN,5 YR/SSFRA OR 5 YR/SSNRA
053210786,ENDDATECALCTYPE,5599003,78527002.0
053210785,INTEGRATIONTYPE,73632000,73660000
053210785,MAXBENEFITPERIOD_BASIS,UNKNOWN,SSFRA OR SSNRA
053210785,ENDDATECALCTYPE,5599000,78527005.0
053210784,INTEGRATIONTYPE,73632000,73660000
053210784,MAXBENEFITPERIOD_BASIS,UNKNOWN,SSFRA OR SSNRA
053210784,ENDDATECALCTYPE,5599000,78527005.0
053210783,INTEGRATIONTYPE,73632000,73660000
053210783,MAXBENEFITPERIOD_BASIS,UNKNOWN,SSFRA OR SSNRA
053210783,ENDDATECALCTYPE,5599000,78527005.0
053210782,INTEGRATIONTYPE,73632000,73660000
053210782,MAXBENEFITPERIOD_BASIS,UNKNOWN,SSFRA OR SSNRA
053210782,ENDDATECALCTYPE,5599000,78527005.0
053210781,INTEGRATIONTYPE,73632000,73660000
053210781,MAXBENEFITPERIOD_BASIS,UNKNOWN,SSFRA OR SSNRA
053210781,ENDDATECALCTYPE,5599000,78527005.0
053210780,MAXBENEFITPERIOD_BASIS,UNKNOWN,5 YR/SSFRA OR 5 YR/SSNRA
053210780,ENDDATECALCTYPE,5599003,78527002.0
053210779,INTEGRATIONTYPE,73632000,73660000
053210779,MAXBENEFITPERIOD_BASIS,UNKNOWN,SSFRA OR SSNRA
053210779,ENDDATECALCTYPE,5599000,78527005.0
053210778,INTEGRATIONTYPE,73632000,73660000
053210778,MAXBENEFITPERIOD_BASIS,UNKNOWN,SSFRA OR SSNRA
053210778,ENDDATECALCTYPE,5599000,78527005.0
053210777,INTEGRATIONTYPE,73632000,73660000
053210777,MAXBENEFITPERIOD_BASIS,UNKNOWN,SSFRA OR SSNRA
053210777,ENDDATECALCTYPE,5599000,78527005.0
053210776,INTEGRATIONTYPE,73632000,73660000
053210776,MAXBENEFITPERIOD_BASIS,UNKNOWN,SSFRA OR SSNRA
053210776,ENDDATECALCTYPE,5599000,78527005.0
053210775,INTEGRATIONTYPE,73632000,73660000
053210775,MAXBENEFITPERIOD_BASIS,UNKNOWN,SSFRA OR SSNRA
053210775,ENDDATECALCTYPE,5599000,78527005.0
053210774,INTEGRATIONTYPE,73632000,73660000
053210774,MAXBENEFITPERIOD_BASIS,UNKNOWN,SSFRA OR SSNRA
053210774,ENDDATECALCTYPE,5599000,78527005.0
053210773,INTEGRATIONTYPE,73632000,73660000
053210773,MAXBENEFITPERIOD_BASIS,UNKNOWN,5 YR/SSFRA OR 5 YR/SSNRA
053210773,ENDDATECALCTYPE,5599003,78527002.0
053210772,INTEGRATIONTYPE,73632000,73660000
053210772,MAXBENEFITPERIOD_BASIS,UNKNOWN,SSFRA OR SSNRA
053210772,ENDDATECALCTYPE,5599000,78527005.0
053210771,INTEGRATIONTYPE,73632000,73660000
053210771,MAXBENEFITPERIOD_BASIS,UNKNOWN,SSFRA OR SSNRA
053210771,ENDDATECALCTYPE,5599000,78527005.0
053210770,INTEGRATIONTYPE,73632000,73660000
053210770,MAXBENEFITPERIOD_BASIS,UNKNOWN,SSFRA OR SSNRA
053210770,ENDDATECALCTYPE,5599000,78527005.0
053210769,INTEGRATIONTYPE,73632000,73660000
053210769,MAXBENEFITPERIOD_BASIS,UNKNOWN,5 YR/SSFRA OR 5 YR/SSNRA
053210769,ENDDATECALCTYPE,5599003,78527002.0
053210768,INTEGRATIONTYPE,73632000,73660000
053210768,MAXBENEFITPERIOD_BASIS,UNKNOWN,SSFRA OR SSNRA
053210768,ENDDATECALCTYPE,5599000,78527005.0
053210767,INTEGRATIONTYPE,73632000,73660000
053210767,MAXBENEFITPERIOD_BASIS,UNKNOWN,SSFRA OR SSNRA
053210767,ENDDATECALCTYPE,5599000,78527005.0
053210766,INTEGRATIONTYPE,73632000,73660000
053210766,MAXBENEFITPERIOD_BASIS,UNKNOWN,SSFRA OR SSNRA
053210766,ENDDATECALCTYPE,5599000,78527005.0
053210765,INTEGRATIONTYPE,73632000,73660000
053210765,MAXBENEFITPERIOD_BASIS,UNKNOWN,3 YR/SSFRA OR 3 YR/SSNRA
053210765,ENDDATECALCTYPE,5599004,78527003.0
053210764,INTEGRATIONTYPE,73632000,73660000
053210764,MAXBENEFITPERIOD_BASIS,UNKNOWN,SSFRA OR SSNRA
053210764,ENDDATECALCTYPE,5599000,78527005.0
053210763,INTEGRATIONTYPE,73632000,73660000
053210763,MAXBENEFITPERIOD_BASIS,UNKNOWN,5 YR/SSFRA OR 5 YR/SSNRA
053210763,ENDDATECALCTYPE,5599003,78527002.0
053210762,INTEGRATIONTYPE,73632000,73660000
053210762,MAXBENEFITPERIOD_BASIS,UNKNOWN,2 YEAR DURATION TO AGE 70
053210762,ENDDATECALCTYPE,5599002,78527000.0
053210762,ALTERNATE_WAITINGPERIOD_BASIS,5568001,0
053210762,ALTERNATE_WAITINGPERIOD_UNITS,90,0
053210761,INTEGRATIONTYPE,73632000,73660000
053210761,MAXBENEFITPERIOD_BASIS,UNKNOWN,SSFRA OR SSNRA
053210761,ENDDATECALCTYPE,5599000,78527005.0
053210760,INTEGRATIONTYPE,73632000,73660000
053210760,MAXBENEFITPERIOD_BASIS,UNKNOWN,SSFRA OR SSNRA
053210760,ENDDATECALCTYPE,5599000,78527005.0
053210760,ALTERNATE_WAITINGPERIOD_BASIS,5568001,0
053210760,ALTERNATE_WAITINGPERIOD_UNITS,30,0
053210759,INTEGRATIONTYPE,73632000,73660000
053210759,MAXBENEFITPERIOD_BASIS,UNKNOWN,SSFRA OR SSNRA
053210759,ENDDATECALCTYPE,5599000,78527005.0
053210758,INTEGRATIONTYPE,73632000,73660000
053210758,MAXBENEFITPERIOD_BASIS,UNKNOWN,SSFRA OR SSNRA
053210758,ENDDATECALCTYPE,5599000,78527005.0
053210757,INTEGRATIONTYPE,73632000,73660000
053210757,MAXBENEFITPERIOD_BASIS,UNKNOWN,SSFRA OR SSNRA
053210757,ENDDATECALCTYPE,5599000,78527005.0
053210756,INTEGRATIONTYPE,73632000,73660000
053210756,MAXBENEFITPERIOD_BASIS,UNKNOWN,SSFRA OR SSNRA
053210756,ENDDATECALCTYPE,5599000,78527005.0
053210755,INTEGRATIONTYPE,73632000,73660000
053210755,MAXBENEFITPERIOD_BASIS,UNKNOWN,SSFRA OR SSNRA
053210755,ENDDATECALCTYPE,5599000,78527005.0
053210754,INTEGRATIONTYPE,73632000,73660000
053210754,MAXBENEFITPERIOD_BASIS,UNKNOWN,SSFRA OR SSNRA
053210754,ENDDATECALCTYPE,5599000,78527005.0
053210753,INTEGRATIONTYPE,73632000,73660000
053210753,MAXBENEFITPERIOD_BASIS,UNKNOWN,SSFRA OR SSNRA
053210753,ENDDATECALCTYPE,5599000,78527005.0
053210753,ALTERNATE_WAITINGPERIOD_BASIS,5568001,0
053210753,ALTERNATE_WAITINGPERIOD_UNITS,60,0
053210752,INTEGRATIONTYPE,73632000,73660000
053210752,MAXBENEFITPERIOD_BASIS,UNKNOWN,SSFRA OR SSNRA
053210752,ENDDATECALCTYPE,5599000,78527005.0
053210752,ALTERNATE_WAITINGPERIOD_BASIS,5568003,0
053210752,ALTERNATE_WAITINGPERIOD_UNITS,6,0
053210751,INTEGRATIONTYPE,73632000,73660000
053210751,MAXBENEFITPERIOD_BASIS,UNKNOWN,SSFRA OR SSNRA
053210751,ENDDATECALCTYPE,5599000,78527005.0
053210750,INTEGRATIONTYPE,73632000,73660000
053210750,MAXBENEFITPERIOD_BASIS,UNKNOWN,SSFRA OR SSNRA
053210750,ENDDATECALCTYPE,5599000,78527005.0
053210749,INTEGRATIONTYPE,73632000,73660000
053210749,MAXBENEFITPERIOD_BASIS,UNKNOWN,SSFRA OR SSNRA
053210749,ENDDATECALCTYPE,5599000,78527005.0
053210748,INTEGRATIONTYPE,73632000,73660000
053210748,MAXBENEFITPERIOD_BASIS,UNKNOWN,6565T70A
053210748,ENDDATECALCTYPE,5599007,78527010.0
053210747,INTEGRATIONTYPE,73632000,73660000
053210747,MAXBENEFITPERIOD_BASIS,UNKNOWN,2 YEAR DURATION TO AGE 70
053210747,ENDDATECALCTYPE,5599002,78527000.0
053210746,INTEGRATIONTYPE,73632000,73660000
053210746,MAXBENEFITPERIOD_BASIS,UNKNOWN,5 YR/SSFRA OR 5 YR/SSNRA
053210746,ENDDATECALCTYPE,5599003,78527002.0
053210745,INTEGRATIONTYPE,73632000,73660000
053210745,MAXBENEFITPERIOD_BASIS,UNKNOWN,SSFRA OR SSNRA
053210745,ENDDATECALCTYPE,5599000,78527005.0
053210743,INTEGRATIONTYPE,73632000,73660000
053210743,MAXBENEFITPERIOD_BASIS,UNKNOWN,2 YEAR DURATION TO AGE 70
053210743,ENDDATECALCTYPE,5599002,78527000.0
053210742,INTEGRATIONTYPE,73632000,73660000
053210742,MAXBENEFITPERIOD_BASIS,UNKNOWN,5 YR/SSFRA OR 5 YR/SSNRA
053210742,ENDDATECALCTYPE,5599003,78527002.0
053210742,ALTERNATE_WAITINGPERIOD_BASIS,5568001,0
053210742,ALTERNATE_WAITINGPERIOD_UNITS,30,0
053210741,INTEGRATIONTYPE,73632000,73660000
053210741,MAXBENEFITPERIOD_BASIS,UNKNOWN,5 YR/SSFRA OR 5 YR/SSNRA
053210741,ENDDATECALCTYPE,5599003,78527002.0
053210740,INTEGRATIONTYPE,73632000,73660000
053210740,MAXBENEFITPERIOD_BASIS,UNKNOWN,SSFRA OR SSNRA
053210740,ENDDATECALCTYPE,5599000,78527005.0
053210739,INTEGRATIONTYPE,73632000,73660000
053210739,MAXBENEFITPERIOD_BASIS,UNKNOWN,SSFRA OR SSNRA
053210739,ENDDATECALCTYPE,5599000,78527005.0
053210738,INTEGRATIONTYPE,73632000,73660000
053210738,MAXBENEFITPERIOD_BASIS,UNKNOWN,SSFRA OR SSNRA
053210738,ENDDATECALCTYPE,5599000,78527005.0
053210737,MAXBENEFITPERIOD_BASIS,UNKNOWN,5 YR/SSFRA OR 5 YR/SSNRA
053210737,ENDDATECALCTYPE,5599003,78527002.0
053210736,INTEGRATIONTYPE,73632000,73660000
053210736,MAXBENEFITPERIOD_BASIS,UNKNOWN,5 YR/SSFRA OR 5 YR/SSNRA
053210736,ENDDATECALCTYPE,5599003,78527002.0
053210735,INTEGRATIONTYPE,73632000,73660000
053210735,MAXBENEFITPERIOD_BASIS,UNKNOWN,SSFRA OR SSNRA
053210735,ENDDATECALCTYPE,5599000,78527005.0
053210734,INTEGRATIONTYPE,73632000,73660000
053210734,MAXBENEFITPERIOD_BASIS,UNKNOWN,SSFRA OR SSNRA
053210734,ENDDATECALCTYPE,5599000,78527005.0
053210734,ALTERNATE_WAITINGPERIOD_BASIS,5568001,0
053210734,ALTERNATE_WAITINGPERIOD_UNITS,365,0
053210733,MAXBENEFITPERIOD_BASIS,UNKNOWN,5 YR/SSFRA OR 5 YR/SSNRA
053210733,ENDDATECALCTYPE,5599003,78527002.0
053210732,INTEGRATIONTYPE,73632000,73660000
053210732,MAXBENEFITPERIOD_BASIS,UNKNOWN,SSFRA OR SSNRA
053210732,ENDDATECALCTYPE,5599000,78527005.0
053210732,ALTERNATE_WAITINGPERIOD_BASIS,5568001,0
053210732,ALTERNATE_WAITINGPERIOD_UNITS,365,0
053210731,INTEGRATIONTYPE,73632000,73660000
053210731,MAXBENEFITPERIOD_BASIS,UNKNOWN,SSFRA OR SSNRA
053210731,ENDDATECALCTYPE,5599000,78527005.0
053210730,INTEGRATIONTYPE,73632000,73660000
053210730,MAXBENEFITPERIOD_BASIS,UNKNOWN,SSFRA OR SSNRA
053210730,ENDDATECALCTYPE,5599000,78527005.0
053210729,INTEGRATIONTYPE,73632000,73660000
053210729,MAXBENEFITPERIOD_BASIS,UNKNOWN,2 YEAR DURATION TO AGE 70
053210729,ENDDATECALCTYPE,5599002,78527000.0
053210728,INTEGRATIONTYPE,73632000,73660000
053210728,MAXBENEFITPERIOD_BASIS,UNKNOWN,SSFRA OR SSNRA
053210728,ENDDATECALCTYPE,5599000,78527005.0
053210727,INTEGRATIONTYPE,73632000,73660000
053210727,MAXBENEFITPERIOD_BASIS,UNKNOWN,5 YR/SSFRA OR 5 YR/SSNRA
053210727,ENDDATECALCTYPE,5599003,78527002.0
053210726,INTEGRATIONTYPE,73632000,73660000
053210726,MAXBENEFITPERIOD_BASIS,UNKNOWN,SSFRA OR SSNRA
053210726,ENDDATECALCTYPE,5599000,78527005.0
053210725,INTEGRATIONTYPE,73632000,73660000
053210725,MAXBENEFITPERIOD_BASIS,UNKNOWN,SSFRA OR SSNRA
053210725,ENDDATECALCTYPE,5599000,78527005.0
053210725,ALTERNATE_WAITINGPERIOD_BASIS,0,5568001.0
053210725,ALTERNATE_WAITINGPERIOD_UNITS,0,30.0
053210724,INTEGRATIONTYPE,73632000,73660000
053210724,MAXBENEFITPERIOD_BASIS,UNKNOWN,SSFRA OR SSNRA
053210724,ENDDATECALCTYPE,5599000,78527005.0
053210723,INTEGRATIONTYPE,73632000,73660000
053210723,MAXBENEFITPERIOD_BASIS,UNKNOWN,SSFRA OR SSNRA
053210723,ENDDATECALCTYPE,5599000,78527005.0
053210722,MAXBENEFITPERIOD_BASIS,UNKNOWN,3 YEAR DURATION TO AGE 70
053210722,ENDDATECALCTYPE,5599001,78527001.0
053210721,INTEGRATIONTYPE,73632000,73660000
053210721,MAXBENEFITPERIOD_BASIS,UNKNOWN,SSFRA OR SSNRA
053210721,ENDDATECALCTYPE,5599000,78527005.0
053210721,ALTERNATE_WAITINGPERIOD_BASIS,5568001,0
053210721,ALTERNATE_WAITINGPERIOD_UNITS,30,0
053210720,MAXBENEFITPERIOD_BASIS,UNKNOWN,5 YR/SSFRA OR 5 YR/SSNRA
053210720,ENDDATECALCTYPE,5599003,78527002.0
053210719,INTEGRATIONTYPE,73632000,73660000
053210719,MAXBENEFITPERIOD_BASIS,UNKNOWN,2 YEAR DURATION TO AGE 70
053210719,ENDDATECALCTYPE,5599002,78527000.0
053210718,INTEGRATIONTYPE,73632000,73660000
053210718,MAXBENEFITPERIOD_BASIS,UNKNOWN,SSFRA OR SSNRA
053210718,ENDDATECALCTYPE,5599000,78527005.0
053210717,INTEGRATIONTYPE,73632000,73660000
053210717,MAXBENEFITPERIOD_BASIS,UNKNOWN,2 YEAR DURATION TO AGE 70
053210717,ENDDATECALCTYPE,5599002,78527000.0
053210716,INTEGRATIONTYPE,73632000,73660000
053210716,MAXBENEFITPERIOD_BASIS,UNKNOWN,SSFRA OR SSNRA
053210716,ENDDATECALCTYPE,5599000,78527005.0
053210715,MAXBENEFITPERIOD_BASIS,UNKNOWN,5 YR/SSFRA OR 5 YR/SSNRA
053210715,ENDDATECALCTYPE,5599003,78527002.0
053210714,INTEGRATIONTYPE,73632000,73660000
053210714,MAXBENEFITPERIOD_BASIS,UNKNOWN,SSFRA OR SSNRA
053210714,ENDDATECALCTYPE,5599000,78527005.0
053210713,MAXBENEFITPERIOD_BASIS,UNKNOWN,5 YR/SSFRA OR 5 YR/SSNRA
053210713,ENDDATECALCTYPE,5599003,78527002.0
053210712,INTEGRATIONTYPE,73632000,73660000
053210712,MAXBENEFITPERIOD_BASIS,UNKNOWN,SSFRA OR SSNRA
053210712,ENDDATECALCTYPE,5599000,78527005.0
053210711,INTEGRATIONTYPE,73632000,73660000
053210711,MAXBENEFITPERIOD_BASIS,UNKNOWN,SSFRA OR SSNRA
053210711,ENDDATECALCTYPE,5599000,78527005.0
053210710,INTEGRATIONTYPE,73632000,73660000
053210710,MAXBENEFITPERIOD_BASIS,UNKNOWN,SSFRA OR SSNRA
053210710,ENDDATECALCTYPE,5599000,78527005.0
053210709,INTEGRATIONTYPE,73632000,73660000
053210709,MAXBENEFITPERIOD_BASIS,UNKNOWN,SSFRA OR SSNRA
053210709,ENDDATECALCTYPE,5599000,78527005.0
053210709,ALTERNATE_WAITINGPERIOD_BASIS,5568003,0
053210709,ALTERNATE_WAITINGPERIOD_UNITS,6,0
053210708,INTEGRATIONTYPE,73632000,73660000
053210708,MAXBENEFITPERIOD_BASIS,UNKNOWN,SSFRA OR SSNRA
053210708,ENDDATECALCTYPE,5599000,78527005.0
053210707,INTEGRATIONTYPE,73632000,73660000
053210707,MAXBENEFITPERIOD_BASIS,UNKNOWN,SSFRA OR SSNRA
053210707,ENDDATECALCTYPE,5599000,78527005.0
053210706,INTEGRATIONTYPE,73632000,73660000
053210706,MAXBENEFITPERIOD_BASIS,UNKNOWN,SSFRA OR SSNRA
053210706,ENDDATECALCTYPE,5599000,78527005.0
053210705,INTEGRATIONTYPE,73632000,73660000
053210705,MAXBENEFITPERIOD_BASIS,UNKNOWN,5 YR/SSFRA OR 5 YR/SSNRA
053210705,ENDDATECALCTYPE,5599003,78527002.0
053210704,INTEGRATIONTYPE,73632000,73660000
053210704,MAXBENEFITPERIOD_BASIS,UNKNOWN,5 YR/SSFRA OR 5 YR/SSNRA
053210704,ENDDATECALCTYPE,5599003,78527002.0
053210703,INTEGRATIONTYPE,73632000,73660000
053210703,MAXBENEFITPERIOD_BASIS,UNKNOWN,5 YR/SSFRA OR 5 YR/SSNRA
053210703,ENDDATECALCTYPE,5599003,78527002.0
053210702,INTEGRATIONTYPE,73632000,73660000
053210702,MAXBENEFITPERIOD_BASIS,UNKNOWN,SSFRA OR SSNRA
053210702,ENDDATECALCTYPE,5599000,78527005.0
053210701,INTEGRATIONTYPE,73632000,73660000
053210701,MAXBENEFITPERIOD_BASIS,UNKNOWN,SSFRA OR SSNRA
053210701,ENDDATECALCTYPE,5599000,78527005.0
053210700,INTEGRATIONTYPE,73632000,73660000
053210700,MAXBENEFITPERIOD_BASIS,UNKNOWN,SSFRA OR SSNRA
053210700,ENDDATECALCTYPE,5599000,78527005.0
053210699,INTEGRATIONTYPE,73632000,73660000
053210699,MAXBENEFITPERIOD_BASIS,UNKNOWN,SSFRA OR SSNRA
053210699,ENDDATECALCTYPE,5599000,78527005.0
053210698,INTEGRATIONTYPE,73632000,73660000
053210698,MAXBENEFITPERIOD_BASIS,UNKNOWN,SSFRA OR SSNRA
053210698,ENDDATECALCTYPE,5599000,78527005.0
