CaseNo,ColumnName,FinVal,ArenaVal
00532020003859,MAXBENEFITPERIOD_BASIS,UNKNOWN,WEEKS
00532020003859,MAXBENEFITPERIOD_UNITS,0,52.0
00532020003858,INTEGRATIONTYPE,73632000,73660000
00532020003857,INTEGRATIONTYPE,73632000,73660000
00532020003856,MAXBENEFITPERIOD_BASIS,UNKNOWN,WEEKS
00532020003856,MAXBENEFITPERIOD_UNITS,0,11.0
00532020003855,INTEGRATIONTYPE,73632000,73660000
00532020003853,ALTERNATE_WAITINGPERIOD_BASIS,5568001,0
00532020003853,ALTERNATE_WAITINGPERIOD_UNITS,90,0
00532020003852,INTEGRATIONTYPE,73632000,73660000
00532020003850,INTEGRATIONTYPE,73632000,73660000
00532020003850,MAXBENEFITPERIOD_BASIS,UNKNOWN,WEEKS
00532020003850,MAXBENEFITPERIOD_UNITS,0,17.0
00532020003848,INTEGRATIONTYPE,73632000,73660000
00532020003845,INTEGRATIONTYPE,73632000,73660000
00532020003844,MAXBENEFITPERIOD_BASIS,UNKNOWN,WEEKS
00532020003844,MAXBENEFITPERIOD_UNITS,0,13.0
00532020003842,INTEGRATIONTYPE,73632000,73660000
00532020003841,ALTERNATE_WAITINGPERIOD_BASIS,5568001,0
00532020003841,ALTERNATE_WAITINGPERIOD_UNITS,30,0
00532020003840,INTEGRATIONTYPE,73632000,73660000
00532020003838,MAXBENEFITPERIOD_BASIS,UNKNOWN,WEEKS
00532020003838,MAXBENEFITPERIOD_UNITS,0,24.0
00532020003837,INTEGRATIONTYPE,73632000,73660000
00532020003836,INTEGRATIONTYPE,73632000,73660000
00532020003835,INTEGRATIONTYPE,73632000,73660000
00532020003834,INTEGRATIONTYPE,73632000,73660000
00532020003834,MAXBENEFITPERIOD_BASIS,UNKNOWN,WEEKS
00532020003834,MAXBENEFITPERIOD_UNITS,0,52.0
00532020003833,MAXBENEFITPERIOD_BASIS,UNKNOWN,WEEKS
00532020003833,MAXBENEFITPERIOD_UNITS,0,25.0
00532020003833,ALTERNATE_WAITINGPERIOD_BASIS,5568001,5568003.0
00532020003833,ALTERNATE_WAITINGPERIOD_UNITS,90,4.0
00532020003832,MAXBENEFITPERIOD_BASIS,UNKNOWN,WEEKS
00532020003832,MAXBENEFITPERIOD_UNITS,0,52.0
00532020003828,INTEGRATIONTYPE,73632000,73660000
00532020003828,MAXBENEFITPERIOD_BASIS,UNKNOWN,WEEKS
00532020003828,MAXBENEFITPERIOD_UNITS,0,52.0
00532020003827,INTEGRATIONTYPE,73632000,73660000
00532020003826,MAXBENEFITPERIOD_BASIS,UNKNOWN,WEEKS
00532020003826,MAXBENEFITPERIOD_UNITS,0,11.0
00532020003826,ALTERNATE_WAITINGPERIOD_UNITS,60,90.0
00532020003825,INTEGRATIONTYPE,73632000,73660000
00532020003823,INTEGRATIONTYPE,73632000,73660000
00532020003823,MAXBENEFITPERIOD_BASIS,UNKNOWN,WEEKS
00532020003823,MAXBENEFITPERIOD_UNITS,0,11.0
00532020003822,INTEGRATIONTYPE,73632000,73660000
00532020003822,ALTERNATE_WAITINGPERIOD_BASIS,5568001,0
00532020003822,ALTERNATE_WAITINGPERIOD_UNITS,30,0
00532020003821,MAXBENEFITPERIOD_BASIS,UNKNOWN,WEEKS
00532020003821,MAXBENEFITPERIOD_UNITS,0,13.0
00532020003821,ALTERNATE_WAITINGPERIOD_BASIS,5568003,0
00532020003821,ALTERNATE_WAITINGPERIOD_UNITS,4,0
00532020003819,INTEGRATIONTYPE,73632000,73660000
00532020003819,MAXBENEFITPERIOD_BASIS,UNKNOWN,WEEKS
00532020003819,MAXBENEFITPERIOD_UNITS,0,52.0
00532020003818,INTEGRATIONTYPE,73632000,73660000
00532020003815,INTEGRATIONTYPE,73632000,73660000
00532020003815,MAXBENEFITPERIOD_BASIS,UNKNOWN,WEEKS
00532020003815,MAXBENEFITPERIOD_UNITS,0,24.0
00532020003813,INTEGRATIONTYPE,73632000,73660000
00532020003812,ALTERNATE_WAITINGPERIOD_BASIS,5568001,0
00532020003812,ALTERNATE_WAITINGPERIOD_UNITS,30,0
00532020003811,ALTERNATE_WAITINGPERIOD_BASIS,0,5568001.0
00532020003811,ALTERNATE_WAITINGPERIOD_UNITS,0,30.0
00532020003808,INTEGRATIONTYPE,73632000,73660000
00532020003805,ALTERNATE_WAITINGPERIOD_BASIS,5568001,0
00532020003805,ALTERNATE_WAITINGPERIOD_UNITS,60,0
00532020003804,INTEGRATIONTYPE,73632000,73660000
00532020003804,MAXBENEFITPERIOD_BASIS,UNKNOWN,WEEKS
00532020003804,MAXBENEFITPERIOD_UNITS,0,52.0
00532020003803,INTEGRATIONTYPE,73632000,73660000
00532020003800,INTEGRATIONTYPE,73632000,73660000
00532020003799,MAXBENEFITPERIOD_BASIS,UNKNOWN,WEEKS
00532020003799,MAXBENEFITPERIOD_UNITS,0,11.0
00532020003798,INTEGRATIONTYPE,73632000,73660000
00532020003797,INTEGRATIONTYPE,73632000,73660000
00532020003797,MAXBENEFITPERIOD_BASIS,UNKNOWN,WEEKS
00532020003797,MAXBENEFITPERIOD_UNITS,0,9.0
00532020003796,MAXBENEFITPERIOD_BASIS,UNKNOWN,WEEKS
00532020003796,MAXBENEFITPERIOD_UNITS,0,11.0
00532020003795,INTEGRATIONTYPE,73632000,73660000
00532020003793,INTEGRATIONTYPE,73632000,73660000
00532020003790,INTEGRATIONTYPE,73632000,73660000
00532020003780,INTEGRATIONTYPE,73632000,73660000
00532020003777,ALTERNATE_WAITINGPERIOD_UNITS,60,90.0
00532020003770,INTEGRATIONTYPE,73632000,73660000
00532020003767,INTEGRATIONTYPE,73632000,73660000
00532020003766,INTEGRATIONTYPE,73632000,73660000
00532020003765,ALTERNATE_WAITINGPERIOD_UNITS,90,60.0
00532020003763,ALTERNATE_WAITINGPERIOD_BASIS,5568001,0
00532020003763,ALTERNATE_WAITINGPERIOD_UNITS,60,0
00532020003762,ALTERNATE_WAITINGPERIOD_BASIS,5568001,0
00532020003762,ALTERNATE_WAITINGPERIOD_UNITS,60,0
00532020003761,INTEGRATIONTYPE,73632000,73660000
00532020003760,ALTERNATE_WAITINGPERIOD_BASIS,5568001,0
00532020003760,ALTERNATE_WAITINGPERIOD_UNITS,90,0
00532020003758,ALTERNATE_WAITINGPERIOD_UNITS,60,90.0
00532020003756,INTEGRATIONTYPE,73632000,73660000
00532020003753,INTEGRATIONTYPE,73632000,73660000
00532020003752,INTEGRATIONTYPE,73632000,73660000
00532020003750,INTEGRATIONTYPE,73632000,73660000
00532020003749,ALTERNATE_WAITINGPERIOD_UNITS,90,60.0
00532020003748,INTEGRATIONTYPE,73632000,73660000
00532020003747,ALTERNATE_WAITINGPERIOD_BASIS,5568001,0
00532020003747,ALTERNATE_WAITINGPERIOD_UNITS,60,0
00532020003746,ALTERNATE_WAITINGPERIOD_UNITS,90,60.0
00532020003745,INTEGRATIONTYPE,73632000,73660000
00532020003744,INTEGRATIONTYPE,73632000,73660000
00532020003743,ALTERNATE_WAITINGPERIOD_BASIS,0,5568001.0
00532020003743,ALTERNATE_WAITINGPERIOD_UNITS,0,30.0
00532020003742,ALTERNATE_WAITINGPERIOD_BASIS,5568001,0
00532020003742,ALTERNATE_WAITINGPERIOD_UNITS,60,0
00532020003741,INTEGRATIONTYPE,73632000,73660000
00532020003738,ALTERNATE_WAITINGPERIOD_BASIS,5568001,0
00532020003738,ALTERNATE_WAITINGPERIOD_UNITS,30,0
00532020003737,ALTERNATE_WAITINGPERIOD_UNITS,60,90.0
00532020003736,INTEGRATIONTYPE,73632000,73660000
00532020003734,INTEGRATIONTYPE,73632000,73660000
00532020003734,MAXBENEFITPERIOD_BASIS,UNKNOWN,WEEKS
00532020003734,MAXBENEFITPERIOD_UNITS,0,22.0
00532020003731,INTEGRATIONTYPE,73632000,73660000
00532020003731,MAXBENEFITPERIOD_BASIS,UNKNOWN,WEEKS
00532020003731,MAXBENEFITPERIOD_UNITS,0,24.0
00532020003730,MAXBENEFITPERIOD_BASIS,UNKNOWN,WEEKS
00532020003730,MAXBENEFITPERIOD_UNITS,0,11.0
00532020003727,MAXBENEFITPERIOD_BASIS,UNKNOWN,WEEKS
00532020003727,MAXBENEFITPERIOD_UNITS,0,12.0
00532020003725,INTEGRATIONTYPE,73632000,73660000
00532020003725,ALTERNATE_WAITINGPERIOD_BASIS,5568001,0
00532020003725,ALTERNATE_WAITINGPERIOD_UNITS,60,0
00532020003723,MAXBENEFITPERIOD_BASIS,UNKNOWN,WEEKS
00532020003723,MAXBENEFITPERIOD_UNITS,0,24.0
00532020003721,INTEGRATIONTYPE,73632000,73660000
00532020003720,ALTERNATE_WAITINGPERIOD_UNITS,30,90.0
00532020003719,INTEGRATIONTYPE,73632000,73660000
00532020003715,ALTERNATE_WAITINGPERIOD_UNITS,0,30.0
00532020003714,ALTERNATE_WAITINGPERIOD_BASIS,0,5568001.0
00532020003714,ALTERNATE_WAITINGPERIOD_UNITS,0,30.0
00532020003713,INTEGRATIONTYPE,73632000,73660000
00532020003713,MAXBENEFITPERIOD_BASIS,UNKNOWN,WEEKS
00532020003713,MAXBENEFITPERIOD_UNITS,0,11.0
00532020003712,INTEGRATIONTYPE,73632000,73660000
00532020003711,INTEGRATIONTYPE,73632000,73660000
00532020003710,INTEGRATIONTYPE,73632000,73660000
00532020003709,MAXBENEFITPERIOD_BASIS,UNKNOWN,WEEKS
00532020003709,MAXBENEFITPERIOD_UNITS,0,24.0
00532020003708,INTEGRATIONTYPE,73632000,73660000
00532020003707,MAXBENEFITPERIOD_BASIS,UNKNOWN,WEEKS
00532020003707,MAXBENEFITPERIOD_UNITS,0,52.0
00532020003706,ALTERNATE_WAITINGPERIOD_BASIS,5568001,0
00532020003706,ALTERNATE_WAITINGPERIOD_UNITS,30,0
00532020003703,INTEGRATIONTYPE,73632000,73660000
00532020003703,MAXBENEFITPERIOD_BASIS,UNKNOWN,WEEKS
00532020003703,MAXBENEFITPERIOD_UNITS,0,47.0
00532020003702,MAXBENEFITPERIOD_BASIS,UNKNOWN,WEEKS
00532020003702,MAXBENEFITPERIOD_UNITS,0,26.0
00532020003702,ALTERNATE_WAITINGPERIOD_BASIS,5568001,0
00532020003702,ALTERNATE_WAITINGPERIOD_UNITS,30,0
00532020003701,INTEGRATIONTYPE,73632000,73660000
00532020003699,MAXBENEFITPERIOD_BASIS,UNKNOWN,WEEKS
00532020003699,MAXBENEFITPERIOD_UNITS,0,26.0
00532020003699,ALTERNATE_WAITINGPERIOD_BASIS,5568001,0
00532020003699,ALTERNATE_WAITINGPERIOD_UNITS,90,0
00532020003695,INTEGRATIONTYPE,73632000,73660000
00532020003694,INTEGRATIONTYPE,73632000,73660000
00532020003693,ALTERNATE_WAITINGPERIOD_BASIS,5568003,0
00532020003693,ALTERNATE_WAITINGPERIOD_UNITS,6,0
00532020003691,INTEGRATIONTYPE,73632000,73660000
00532020003690,ALTERNATE_WAITINGPERIOD_BASIS,5568003,0
00532020003690,ALTERNATE_WAITINGPERIOD_UNITS,4,0
00532020003687,INTEGRATIONTYPE,73632000,73660000
00532020003686,ALTERNATE_WAITINGPERIOD_BASIS,0,5568001.0
00532020003686,ALTERNATE_WAITINGPERIOD_UNITS,0,30.0
00532020003683,INTEGRATIONTYPE,73632000,73660000
00532020003683,ALTERNATE_WAITINGPERIOD_BASIS,5568001,0
00532020003683,ALTERNATE_WAITINGPERIOD_UNITS,90,0
00532020003680,INTEGRATIONTYPE,73632000,73660000
00532020003679,INTEGRATIONTYPE,73632000,73660000
00532020003678,INTEGRATIONTYPE,73632000,73660000
00532020003678,MAXBENEFITPERIOD_BASIS,UNKNOWN,WEEKS
00532020003678,MAXBENEFITPERIOD_UNITS,0,9.0
00532020003677,INTEGRATIONTYPE,73632000,73660000
00532020003676,INTEGRATIONTYPE,73632000,73660000
00532020003674,INTEGRATIONTYPE,73632000,73660000
00532020003674,MAXBENEFITPERIOD_BASIS,UNKNOWN,WEEKS
00532020003674,MAXBENEFITPERIOD_UNITS,0,24.0
00532020003672,MAXBENEFITPERIOD_BASIS,UNKNOWN,WEEKS
00532020003672,MAXBENEFITPERIOD_UNITS,0,52.0
00532020003671,INTEGRATIONTYPE,73632000,73660000
00532020003670,INTEGRATIONTYPE,73632000,73660000
00532020003668,INTEGRATIONTYPE,73632000,73660000
00532020003667,ALTERNATE_WAITINGPERIOD_BASIS,5568003,0
00532020003667,ALTERNATE_WAITINGPERIOD_UNITS,4,0
00532020003666,ALTERNATE_WAITINGPERIOD_BASIS,0,5568001.0
00532020003666,ALTERNATE_WAITINGPERIOD_UNITS,0,30.0
00532020003662,INTEGRATIONTYPE,73632000,73660000
00532020003661,INTEGRATIONTYPE,73632000,73660000
00532020003660,INTEGRATIONTYPE,73632000,73660000
00532020003656,INTEGRATIONTYPE,73632000,73660000
00532020003654,MAXBENEFITPERIOD_BASIS,UNKNOWN,WEEKS
00532020003654,MAXBENEFITPERIOD_UNITS,0,13.0
00532020003654,ALTERNATE_WAITINGPERIOD_BASIS,5568003,0
00532020003654,ALTERNATE_WAITINGPERIOD_UNITS,4,0
00532020003653,ALTERNATE_WAITINGPERIOD_BASIS,5568001,0
00532020003653,ALTERNATE_WAITINGPERIOD_UNITS,60,0
00532020003652,INTEGRATIONTYPE,73632000,73660000
00532020003652,MAXBENEFITPERIOD_BASIS,UNKNOWN,WEEKS
00532020003652,MAXBENEFITPERIOD_UNITS,0,26.0
00532020003649,ALTERNATE_WAITINGPERIOD_BASIS,5568001,0
00532020003649,ALTERNATE_WAITINGPERIOD_UNITS,90,0
00532020003647,INTEGRATIONTYPE,73632000,73660000
00532020003646,MAXBENEFITPERIOD_BASIS,UNKNOWN,WEEKS
00532020003646,MAXBENEFITPERIOD_UNITS,0,13.0
00532020003645,INTEGRATIONTYPE,73632000,73660000
00532020003645,MAXBENEFITPERIOD_BASIS,UNKNOWN,WEEKS
00532020003645,MAXBENEFITPERIOD_UNITS,0,52.0
00532020003643,INTEGRATIONTYPE,73632000,73660000
00532020003643,MAXBENEFITPERIOD_BASIS,UNKNOWN,WEEKS
00532020003643,MAXBENEFITPERIOD_UNITS,0,12.0
00532020003642,MAXBENEFITPERIOD_BASIS,UNKNOWN,WEEKS
00532020003642,MAXBENEFITPERIOD_UNITS,0,52.0
00532020003641,MAXBENEFITPERIOD_BASIS,UNKNOWN,WEEKS
00532020003641,MAXBENEFITPERIOD_UNITS,0,52.0
00532020003641,ALTERNATE_WAITINGPERIOD_BASIS,5568001,0
00532020003641,ALTERNATE_WAITINGPERIOD_UNITS,120,0
00532020003640,INTEGRATIONTYPE,73632000,73660000
00532020003640,MAXBENEFITPERIOD_BASIS,UNKNOWN,WEEKS
00532020003640,MAXBENEFITPERIOD_UNITS,0,9.0
00532020003639,MAXBENEFITPERIOD_BASIS,UNKNOWN,WEEKS
00532020003639,MAXBENEFITPERIOD_UNITS,0,13.0
00532020003638,INTEGRATIONTYPE,73632000,73660000
00532020003635,ALTERNATE_WAITINGPERIOD_UNITS,0,90.0
00532020003634,INTEGRATIONTYPE,73632000,73660000
00532020003632,INTEGRATIONTYPE,73632000,73660000
00532020003631,ALTERNATE_WAITINGPERIOD_BASIS,5568003,0
00532020003631,ALTERNATE_WAITINGPERIOD_UNITS,4,0
00532020003630,MAXBENEFITPERIOD_BASIS,UNKNOWN,WEEKS
00532020003630,MAXBENEFITPERIOD_UNITS,0,13.0
00532020003629,ALTERNATE_WAITINGPERIOD_BASIS,5568001,0
00532020003629,ALTERNATE_WAITINGPERIOD_UNITS,90,0
00532020003624,ALTERNATE_WAITINGPERIOD_BASIS,5568003,0
00532020003624,ALTERNATE_WAITINGPERIOD_UNITS,6,0
00532020003623,ALTERNATE_WAITINGPERIOD_BASIS,5568001,0
00532020003623,ALTERNATE_WAITINGPERIOD_UNITS,30,0
00532020003618,INTEGRATIONTYPE,73632000,73660000
00532020003617,ALTERNATE_WAITINGPERIOD_BASIS,5568003,0
00532020003617,ALTERNATE_WAITINGPERIOD_UNITS,1,0
00532020003616,INTEGRATIONTYPE,73632000,73660000
00532020003615,INTEGRATIONTYPE,73632000,73660000
00532020003614,MAXBENEFITPERIOD_BASIS,UNKNOWN,WEEKS
00532020003614,MAXBENEFITPERIOD_UNITS,0,13.0
00532020003612,INTEGRATIONTYPE,73632000,73660000
00532020003612,MAXBENEFITPERIOD_BASIS,UNKNOWN,WEEKS
00532020003612,MAXBENEFITPERIOD_UNITS,0,24.0
00532020003611,INTEGRATIONTYPE,73632000,73660000
00532020003609,MAXBENEFITPERIOD_BASIS,UNKNOWN,WEEKS
00532020003609,MAXBENEFITPERIOD_UNITS,0,52.0
00532020003609,ALTERNATE_WAITINGPERIOD_BASIS,5568001,0
00532020003609,ALTERNATE_WAITINGPERIOD_UNITS,30,0
00532020003606,INTEGRATIONTYPE,73632000,73660000
00532020003606,MAXBENEFITPERIOD_BASIS,UNKNOWN,WEEKS
00532020003606,MAXBENEFITPERIOD_UNITS,0,52.0
00532020003605,INTEGRATIONTYPE,73632000,73660000
00532020003601,MAXBENEFITPERIOD_BASIS,UNKNOWN,WEEKS
00532020003601,MAXBENEFITPERIOD_UNITS,0,26.0
00532020003598,INTEGRATIONTYPE,73632000,73660000
00532020003597,MAXBENEFITPERIOD_BASIS,UNKNOWN,WEEKS
00532020003597,MAXBENEFITPERIOD_UNITS,0,12.0
00532020003595,INTEGRATIONTYPE,73632000,73660000
00532020003593,INTEGRATIONTYPE,73632000,73660000
00532020003593,ALTERNATE_WAITINGPERIOD_BASIS,5568001,5568003.0
00532020003593,ALTERNATE_WAITINGPERIOD_UNITS,60,3.0
00532020003589,ALTERNATE_WAITINGPERIOD_BASIS,5568001,0
00532020003589,ALTERNATE_WAITINGPERIOD_UNITS,60,0
00532020003588,INTEGRATIONTYPE,73632000,73660000
00532020003587,ALTERNATE_WAITINGPERIOD_BASIS,0,5568001.0
00532020003587,ALTERNATE_WAITINGPERIOD_UNITS,0,30.0
00532020003586,INTEGRATIONTYPE,73632000,73660000
00532020003584,MAXBENEFITPERIOD_BASIS,UNKNOWN,WEEKS
00532020003584,MAXBENEFITPERIOD_UNITS,0,11.0
00532020003583,MAXBENEFITPERIOD_BASIS,UNKNOWN,WEEKS
00532020003583,MAXBENEFITPERIOD_UNITS,0,25.0
00532020003583,ALTERNATE_WAITINGPERIOD_BASIS,5568001,0
00532020003583,ALTERNATE_WAITINGPERIOD_UNITS,60,0
00532020003582,ALTERNATE_WAITINGPERIOD_BASIS,0,5568001.0
00532020003582,ALTERNATE_WAITINGPERIOD_UNITS,0,30.0
00532020003578,ALTERNATE_WAITINGPERIOD_BASIS,5568001,0
00532020003578,ALTERNATE_WAITINGPERIOD_UNITS,60,0
00532020003577,INTEGRATIONTYPE,73632000,73660000
00532020003575,ALTERNATE_WAITINGPERIOD_BASIS,0,5568001.0
00532020003575,ALTERNATE_WAITINGPERIOD_UNITS,0,30.0
00532020003574,INTEGRATIONTYPE,73632000,73660000
00532020003572,INTEGRATIONTYPE,73632000,73660000
00532020003572,MAXBENEFITPERIOD_BASIS,UNKNOWN,WEEKS
00532020003572,MAXBENEFITPERIOD_UNITS,0,11.0
00532020003567,INTEGRATIONTYPE,73632000,73660000
00532020003565,INTEGRATIONTYPE,73632000,73660000
00532020003564,INTEGRATIONTYPE,73632000,73660000
00532020003559,INTEGRATIONTYPE,73632000,73660000
00532020003557,MAXBENEFITPERIOD_BASIS,UNKNOWN,WEEKS
00532020003557,MAXBENEFITPERIOD_UNITS,0,12.0
00532020003556,INTEGRATIONTYPE,73632000,73660000
00532020003553,MAXBENEFITPERIOD_BASIS,UNKNOWN,WEEKS
00532020003553,MAXBENEFITPERIOD_UNITS,0,52.0
00532020003551,ALTERNATE_WAITINGPERIOD_BASIS,5568001,0
00532020003551,ALTERNATE_WAITINGPERIOD_UNITS,30,0
00532020003550,INTEGRATIONTYPE,73632000,73660000
00532020003549,INTEGRATIONTYPE,73632000,73660000
00532020003547,INTEGRATIONTYPE,73632000,73660000
00532020003547,MAXBENEFITPERIOD_BASIS,UNKNOWN,WEEKS
00532020003547,MAXBENEFITPERIOD_UNITS,0,12.0
00532020003544,ALTERNATE_WAITINGPERIOD_BASIS,5568003,0
00532020003544,ALTERNATE_WAITINGPERIOD_UNITS,1,0
00532020003542,ALTERNATE_WAITINGPERIOD_BASIS,0,5568001.0
00532020003542,ALTERNATE_WAITINGPERIOD_UNITS,0,30.0
00532020003541,ALTERNATE_WAITINGPERIOD_BASIS,5568001,0
00532020003541,ALTERNATE_WAITINGPERIOD_UNITS,60,0
00532020003540,ALTERNATE_WAITINGPERIOD_BASIS,5568001,0
00532020003540,ALTERNATE_WAITINGPERIOD_UNITS,30,0
00532020003538,INTEGRATIONTYPE,73632000,73660000
00532020003538,MAXBENEFITPERIOD_BASIS,UNKNOWN,WEEKS
00532020003538,MAXBENEFITPERIOD_UNITS,0,13.0
00532020003535,INTEGRATIONTYPE,73632000,73660000
00532020003535,MAXBENEFITPERIOD_BASIS,UNKNOWN,WEEKS
00532020003535,MAXBENEFITPERIOD_UNITS,0,52.0
00532020003534,INTEGRATIONTYPE,73632000,73660000
00532020003534,MAXBENEFITPERIOD_BASIS,UNKNOWN,WEEKS
00532020003534,MAXBENEFITPERIOD_UNITS,0,26.0
00532020003533,ALTERNATE_WAITINGPERIOD_BASIS,5568001,0
00532020003533,ALTERNATE_WAITINGPERIOD_UNITS,60,0
00532020003532,INTEGRATIONTYPE,73632000,73660000
00532020003531,MAXBENEFITPERIOD_BASIS,UNKNOWN,WEEKS
00532020003531,MAXBENEFITPERIOD_UNITS,0,26.0
00532020003528,INTEGRATIONTYPE,73632000,73660000
00532020003526,INTEGRATIONTYPE,73632000,73660000
00532020003524,INTEGRATIONTYPE,73632000,73660000
00532020003523,INTEGRATIONTYPE,73632000,73660000
00532020003523,MAXBENEFITPERIOD_BASIS,UNKNOWN,WEEKS
00532020003523,MAXBENEFITPERIOD_UNITS,0,104.0
00532020003519,INTEGRATIONTYPE,73632000,73660000
00532020003519,ALTERNATE_WAITINGPERIOD_BASIS,5568001,0
00532020003519,ALTERNATE_WAITINGPERIOD_UNITS,90,0
00532020003517,MAXBENEFITPERIOD_BASIS,UNKNOWN,WEEKS
00532020003517,MAXBENEFITPERIOD_UNITS,0,9.0
00532020003516,INTEGRATIONTYPE,73632000,73660000
00532020003513,MAXBENEFITPERIOD_BASIS,UNKNOWN,WEEKS
00532020003513,MAXBENEFITPERIOD_UNITS,0,26.0
00532020003512,INTEGRATIONTYPE,73632000,73660000
00532020003509,INTEGRATIONTYPE,73632000,73660000
00532020003508,MAXBENEFITPERIOD_BASIS,UNKNOWN,WEEKS
00532020003508,MAXBENEFITPERIOD_UNITS,0,13.0
00532020003507,INTEGRATIONTYPE,73632000,73660000
00532020003506,MAXBENEFITPERIOD_BASIS,UNKNOWN,WEEKS
00532020003506,MAXBENEFITPERIOD_UNITS,0,24.0
00532020003505,MAXBENEFITPERIOD_BASIS,UNKNOWN,WEEKS
00532020003505,MAXBENEFITPERIOD_UNITS,0,26.0
00532020003505,ALTERNATE_WAITINGPERIOD_BASIS,5568003,0
00532020003505,ALTERNATE_WAITINGPERIOD_UNITS,6,0
00532020003504,INTEGRATIONTYPE,73632000,73660000
00532020003504,ALTERNATE_WAITINGPERIOD_BASIS,5568001,0
00532020003504,ALTERNATE_WAITINGPERIOD_UNITS,30,0
00532020003503,MAXBENEFITPERIOD_BASIS,UNKNOWN,WEEKS
00532020003503,MAXBENEFITPERIOD_UNITS,0,13.0
00532020003502,INTEGRATIONTYPE,73632000,73660000
00532020003501,MAXBENEFITPERIOD_BASIS,UNKNOWN,WEEKS
00532020003501,MAXBENEFITPERIOD_UNITS,0,13.0
00532020003499,INTEGRATIONTYPE,73632000,73660000
00532020003499,ALTERNATE_WAITINGPERIOD_BASIS,5568001,0
00532020003499,ALTERNATE_WAITINGPERIOD_UNITS,30,0
00532020003497,MAXBENEFITPERIOD_BASIS,UNKNOWN,WEEKS
00532020003497,MAXBENEFITPERIOD_UNITS,0,9.0
00532020003496,INTEGRATIONTYPE,73632000,73660000
00532020003495,INTEGRATIONTYPE,73632000,73660000
00532020003495,ALTERNATE_WAITINGPERIOD_BASIS,5568001,0
00532020003495,ALTERNATE_WAITINGPERIOD_UNITS,30,0
00532020003494,MAXBENEFITPERIOD_BASIS,UNKNOWN,WEEKS
00532020003494,MAXBENEFITPERIOD_UNITS,0,12.0
00532020003492,INTEGRATIONTYPE,73632000,73660000
00532020003490,INTEGRATIONTYPE,73632000,73660000
00532020003490,MAXBENEFITPERIOD_BASIS,UNKNOWN,WEEKS
00532020003490,MAXBENEFITPERIOD_UNITS,0,12.0
00532020003489,INTEGRATIONTYPE,73632000,73660000
00532020003487,INTEGRATIONTYPE,73632000,73660000
00532020003487,MAXBENEFITPERIOD_BASIS,UNKNOWN,WEEKS
00532020003487,MAXBENEFITPERIOD_UNITS,0,51.0
00532020003483,ALTERNATE_WAITINGPERIOD_BASIS,0,5568001.0
00532020003483,ALTERNATE_WAITINGPERIOD_UNITS,0,30.0
00532020003481,INTEGRATIONTYPE,73632000,73660000
00532020003480,INTEGRATIONTYPE,73632000,73660000
00532020003478,ALTERNATE_WAITINGPERIOD_BASIS,5568003,0
00532020003478,ALTERNATE_WAITINGPERIOD_UNITS,1,0
00532020003477,INTEGRATIONTYPE,73632000,73660000
00532020003475,INTEGRATIONTYPE,73632000,73660000
00532020003474,INTEGRATIONTYPE,73632000,73660000
00532020003471,MAXBENEFITPERIOD_BASIS,UNKNOWN,WEEKS
00532020003471,MAXBENEFITPERIOD_UNITS,0,11.0
00532020003469,INTEGRATIONTYPE,73632000,73660000
00532020003469,MAXBENEFITPERIOD_BASIS,UNKNOWN,WEEKS
00532020003469,MAXBENEFITPERIOD_UNITS,0,25.0
00532020003468,MAXBENEFITPERIOD_BASIS,UNKNOWN,WEEKS
00532020003468,MAXBENEFITPERIOD_UNITS,0,25.0
00532020003467,INTEGRATIONTYPE,73632000,73660000
00532020003466,INTEGRATIONTYPE,73632000,73660000
00532020003465,MAXBENEFITPERIOD_BASIS,UNKNOWN,WEEKS
00532020003465,MAXBENEFITPERIOD_UNITS,0,13.0
00532020003464,ALTERNATE_WAITINGPERIOD_BASIS,5568001,0
00532020003464,ALTERNATE_WAITINGPERIOD_UNITS,90,0
00532020003463,INTEGRATIONTYPE,73632000,73660000
00532020003459,MAXBENEFITPERIOD_BASIS,UNKNOWN,WEEKS
00532020003459,MAXBENEFITPERIOD_UNITS,0,13.0
00532020003458,ALTERNATE_WAITINGPERIOD_BASIS,0,5568001.0
00532020003458,ALTERNATE_WAITINGPERIOD_UNITS,0,30.0
00532020003457,INTEGRATIONTYPE,73632000,73660000
00532020003455,INTEGRATIONTYPE,73632000,73660000
00532020003454,MAXBENEFITPERIOD_BASIS,UNKNOWN,WEEKS
00532020003454,MAXBENEFITPERIOD_UNITS,0,11.0
00532020003452,INTEGRATIONTYPE,73632000,73660000
00532020003452,ALTERNATE_WAITINGPERIOD_UNITS,60,90.0
00532020003451,ALTERNATE_WAITINGPERIOD_BASIS,5568001,0
00532020003451,ALTERNATE_WAITINGPERIOD_UNITS,30,0
00532020003449,INTEGRATIONTYPE,73632000,73660000
00532020003449,MAXBENEFITPERIOD_BASIS,UNKNOWN,WEEKS
00532020003449,MAXBENEFITPERIOD_UNITS,0,11.0
00532020003447,INTEGRATIONTYPE,73632000,73660000
00532020003445,INTEGRATIONTYPE,73632000,73660000
00532020003442,ALTERNATE_WAITINGPERIOD_BASIS,5568001,0
00532020003442,ALTERNATE_WAITINGPERIOD_UNITS,90,0
00532020003441,ALTERNATE_WAITINGPERIOD_BASIS,5568001,0
00532020003441,ALTERNATE_WAITINGPERIOD_UNITS,30,0
00532020003439,ALTERNATE_WAITINGPERIOD_BASIS,5568001,0
00532020003439,ALTERNATE_WAITINGPERIOD_UNITS,30,0
00532020003437,INTEGRATIONTYPE,73632000,73660000
00532020003435,INTEGRATIONTYPE,73632000,73660000
00532020003435,MAXBENEFITPERIOD_BASIS,UNKNOWN,WEEKS
00532020003435,MAXBENEFITPERIOD_UNITS,0,11.0
00532020003431,ALTERNATE_WAITINGPERIOD_BASIS,5568001,0
00532020003431,ALTERNATE_WAITINGPERIOD_UNITS,30,0
00532020003430,INTEGRATIONTYPE,73632000,73660000
00532020003430,ALTERNATE_WAITINGPERIOD_BASIS,5568001,0
00532020003430,ALTERNATE_WAITINGPERIOD_UNITS,30,0
00532020003429,ALTERNATE_WAITINGPERIOD_BASIS,5568003,0
00532020003429,ALTERNATE_WAITINGPERIOD_UNITS,6,0
00532020003428,INTEGRATIONTYPE,73632000,73660000
00532020003425,MAXBENEFITPERIOD_BASIS,UNKNOWN,WEEKS
00532020003425,MAXBENEFITPERIOD_UNITS,0,12.0
00532020003425,ALTERNATE_WAITINGPERIOD_BASIS,5568001,0
00532020003425,ALTERNATE_WAITINGPERIOD_UNITS,60,0
00532020003423,INTEGRATIONTYPE,73632000,73660000
00532020003423,MAXBENEFITPERIOD_BASIS,UNKNOWN,WEEKS
00532020003423,MAXBENEFITPERIOD_UNITS,0,24.0
00532020003422,INTEGRATIONTYPE,73632000,73660000
00532020003419,MAXBENEFITPERIOD_BASIS,UNKNOWN,WEEKS
00532020003419,MAXBENEFITPERIOD_UNITS,0,13.0
00532020003418,ALTERNATE_WAITINGPERIOD_BASIS,5568001,0
00532020003418,ALTERNATE_WAITINGPERIOD_UNITS,60,0
00532020003417,ALTERNATE_WAITINGPERIOD_BASIS,5568001,0
00532020003417,ALTERNATE_WAITINGPERIOD_UNITS,60,0
00532020003416,ALTERNATE_WAITINGPERIOD_BASIS,5568001,0
00532020003416,ALTERNATE_WAITINGPERIOD_UNITS,60,0
00532020003415,INTEGRATIONTYPE,73632000,73660000
00532020003414,INTEGRATIONTYPE,73632000,73660000
00532020003413,INTEGRATIONTYPE,73632000,73660000
00532020003412,MAXBENEFITPERIOD_BASIS,UNKNOWN,WEEKS
00532020003412,MAXBENEFITPERIOD_UNITS,0,24.0
00532020003405,INTEGRATIONTYPE,73632000,73660000
00532020003401,INTEGRATIONTYPE,73632000,73660000
00532020003400,INTEGRATIONTYPE,73632000,73660000
00532020003400,MAXBENEFITPERIOD_BASIS,UNKNOWN,WEEKS
00532020003400,MAXBENEFITPERIOD_UNITS,0,16.0
00532020003397,INTEGRATIONTYPE,73632000,73660000
00532020003397,MAXBENEFITPERIOD_BASIS,UNKNOWN,WEEKS
00532020003397,MAXBENEFITPERIOD_UNITS,0,25.0
00532020003396,INTEGRATIONTYPE,73632000,73660000
00532020003394,INTEGRATIONTYPE,73632000,73660000
00532020003394,MAXBENEFITPERIOD_BASIS,UNKNOWN,WEEKS
00532020003394,MAXBENEFITPERIOD_UNITS,0,104.0
00532020003391,ALTERNATE_WAITINGPERIOD_UNITS,30,90.0
00532020003389,MAXBENEFITPERIOD_BASIS,UNKNOWN,WEEKS
00532020003389,MAXBENEFITPERIOD_UNITS,0,26.0
00532020003389,ALTERNATE_WAITINGPERIOD_BASIS,5568001,0
00532020003389,ALTERNATE_WAITINGPERIOD_UNITS,60,0
00532020003386,INTEGRATIONTYPE,73632000,73660000
00532020003386,MAXBENEFITPERIOD_BASIS,UNKNOWN,WEEKS
00532020003386,MAXBENEFITPERIOD_UNITS,0,47.0
00532020003385,INTEGRATIONTYPE,73632000,73660000
00532020003384,INTEGRATIONTYPE,73632000,73660000
00532020003383,INTEGRATIONTYPE,73632000,73660000
00532020003382,MAXBENEFITPERIOD_BASIS,UNKNOWN,WEEKS
00532020003382,MAXBENEFITPERIOD_UNITS,0,26.0
00532020003379,INTEGRATIONTYPE,73632000,73660000
00532020003378,MAXBENEFITPERIOD_BASIS,UNKNOWN,WEEKS
00532020003378,MAXBENEFITPERIOD_UNITS,0,13.0
00532020003377,ALTERNATE_WAITINGPERIOD_BASIS,5568001,0
00532020003377,ALTERNATE_WAITINGPERIOD_UNITS,30,0
00532020003376,MAXBENEFITPERIOD_BASIS,UNKNOWN,WEEKS
00532020003376,MAXBENEFITPERIOD_UNITS,0,26.0
00532020003376,ALTERNATE_WAITINGPERIOD_BASIS,5568001,0
00532020003376,ALTERNATE_WAITINGPERIOD_UNITS,30,0
00532020003375,ALTERNATE_WAITINGPERIOD_BASIS,5568001,0
00532020003375,ALTERNATE_WAITINGPERIOD_UNITS,60,0
00532020003374,ALTERNATE_WAITINGPERIOD_BASIS,5568001,0
00532020003374,ALTERNATE_WAITINGPERIOD_UNITS,30,0
00532020003373,INTEGRATIONTYPE,73632000,73660000
00532020003371,INTEGRATIONTYPE,73632000,73660000
00532020003371,MAXBENEFITPERIOD_BASIS,UNKNOWN,WEEKS
00532020003371,MAXBENEFITPERIOD_UNITS,0,52.0
00532020003370,ALTERNATE_WAITINGPERIOD_BASIS,5568001,0
00532020003370,ALTERNATE_WAITINGPERIOD_UNITS,30,0
00532020003369,INTEGRATIONTYPE,73632000,73660000
00532020003369,MAXBENEFITPERIOD_BASIS,UNKNOWN,WEEKS
00532020003369,MAXBENEFITPERIOD_UNITS,0,12.0
00532020003368,INTEGRATIONTYPE,73632000,73660000
00532020003365,ALTERNATE_WAITINGPERIOD_BASIS,5568001,0
00532020003365,ALTERNATE_WAITINGPERIOD_UNITS,90,0
00532020003364,MAXBENEFITPERIOD_BASIS,UNKNOWN,WEEKS
00532020003364,MAXBENEFITPERIOD_UNITS,0,13.0
00532020003363,MAXBENEFITPERIOD_BASIS,UNKNOWN,WEEKS
00532020003363,MAXBENEFITPERIOD_UNITS,0,13.0
00532020003362,ALTERNATE_WAITINGPERIOD_BASIS,5568001,0
00532020003362,ALTERNATE_WAITINGPERIOD_UNITS,60,0
00532020003361,INTEGRATIONTYPE,73632000,73660000
00532020003358,INTEGRATIONTYPE,73632000,73660000
00532020003356,MAXBENEFITPERIOD_BASIS,UNKNOWN,WEEKS
00532020003356,MAXBENEFITPERIOD_UNITS,0,13.0
00532020003354,MAXBENEFITPERIOD_BASIS,UNKNOWN,WEEKS
00532020003354,MAXBENEFITPERIOD_UNITS,0,26.0
00532020003352,MAXBENEFITPERIOD_BASIS,UNKNOWN,WEEKS
00532020003352,MAXBENEFITPERIOD_UNITS,0,13.0
00532020003351,INTEGRATIONTYPE,73632000,73660000
00532020003347,INTEGRATIONTYPE,73632000,73660000
00532020003346,INTEGRATIONTYPE,73632000,73660000
00532020003346,MAXBENEFITPERIOD_BASIS,UNKNOWN,WEEKS
00532020003346,MAXBENEFITPERIOD_UNITS,0,11.0
00532020003345,ALTERNATE_WAITINGPERIOD_BASIS,5568001,0
00532020003345,ALTERNATE_WAITINGPERIOD_UNITS,30,0
00532020003344,MAXBENEFITPERIOD_BASIS,UNKNOWN,WEEKS
00532020003344,MAXBENEFITPERIOD_UNITS,0,13.0
00532020003343,INTEGRATIONTYPE,73632000,73660000
00532020003341,INTEGRATIONTYPE,73632000,73660000
00532020003339,ALTERNATE_WAITINGPERIOD_UNITS,30,90.0
00532020003338,ALTERNATE_WAITINGPERIOD_BASIS,5568001,0
00532020003338,ALTERNATE_WAITINGPERIOD_UNITS,30,0
00532020003337,MAXBENEFITPERIOD_BASIS,UNKNOWN,WEEKS
00532020003337,MAXBENEFITPERIOD_UNITS,0,22.0
00532020003336,INTEGRATIONTYPE,73632000,73660000
00532020003335,MAXBENEFITPERIOD_BASIS,UNKNOWN,WEEKS
00532020003335,MAXBENEFITPERIOD_UNITS,0,11.0
00532020003332,INTEGRATIONTYPE,73632000,73660000
00532020003331,MAXBENEFITPERIOD_BASIS,UNKNOWN,WEEKS
00532020003331,MAXBENEFITPERIOD_UNITS,0,13.0
00532020003330,INTEGRATIONTYPE,73632000,73660000
00532020003329,INTEGRATIONTYPE,73632000,73660000
00532020003327,MAXBENEFITPERIOD_BASIS,UNKNOWN,WEEKS
00532020003327,MAXBENEFITPERIOD_UNITS,0,11.0
00532020003326,ALTERNATE_WAITINGPERIOD_BASIS,5568001,0
00532020003326,ALTERNATE_WAITINGPERIOD_UNITS,90,0
00532020003325,INTEGRATIONTYPE,73632000,73660000
00532020003323,ALTERNATE_WAITINGPERIOD_BASIS,0,5568001.0
00532020003323,ALTERNATE_WAITINGPERIOD_UNITS,0,30.0
00532020003322,INTEGRATIONTYPE,73632000,73660000
00532020003321,INTEGRATIONTYPE,73632000,73660000
00532020003319,ALTERNATE_WAITINGPERIOD_BASIS,5568003,0
00532020003319,ALTERNATE_WAITINGPERIOD_UNITS,12,0
00532020003318,MAXBENEFITPERIOD_BASIS,UNKNOWN,WEEKS
00532020003318,MAXBENEFITPERIOD_UNITS,0,24.0
00532020003318,ALTERNATE_WAITINGPERIOD_BASIS,5568001,0
00532020003318,ALTERNATE_WAITINGPERIOD_UNITS,60,0
00532020003314,INTEGRATIONTYPE,73632000,73660000
00532020003313,INTEGRATIONTYPE,73632000,73660000
00532020003311,INTEGRATIONTYPE,73632000,73660000
00532020003307,INTEGRATIONTYPE,73632000,73660000
00532020003306,INTEGRATIONTYPE,73632000,73660000
00532020003305,INTEGRATIONTYPE,73632000,73660000
00532020003304,INTEGRATIONTYPE,73632000,73660000
00532020003304,MAXBENEFITPERIOD_BASIS,UNKNOWN,WEEKS
00532020003304,MAXBENEFITPERIOD_UNITS,0,12.0
00532020003302,INTEGRATIONTYPE,73632000,73660000
00532020003302,MAXBENEFITPERIOD_BASIS,UNKNOWN,WEEKS
00532020003302,MAXBENEFITPERIOD_UNITS,0,26.0
00532020003300,INTEGRATIONTYPE,73632000,73660000
00532020003298,INTEGRATIONTYPE,73632000,73660000
00532020003298,MAXBENEFITPERIOD_BASIS,UNKNOWN,WEEKS
00532020003298,MAXBENEFITPERIOD_UNITS,0,12.0
00532020003297,MAXBENEFITPERIOD_BASIS,UNKNOWN,WEEKS
00532020003297,MAXBENEFITPERIOD_UNITS,0,13.0
00532020003293,ALTERNATE_WAITINGPERIOD_BASIS,0,5568001.0
00532020003293,ALTERNATE_WAITINGPERIOD_UNITS,0,30.0
00532020003289,INTEGRATIONTYPE,73632000,73660000
00532020003288,INTEGRATIONTYPE,73632000,73660000
00532020003287,INTEGRATIONTYPE,73632000,73660000
00532020003285,INTEGRATIONTYPE,73632000,73660000
00532020003284,MAXBENEFITPERIOD_BASIS,UNKNOWN,WEEKS
00532020003284,MAXBENEFITPERIOD_UNITS,0,13.0
00532020003283,INTEGRATIONTYPE,73632000,73660000
00532020003282,INTEGRATIONTYPE,73632000,73660000
00532020003282,MAXBENEFITPERIOD_BASIS,UNKNOWN,WEEKS
00532020003282,MAXBENEFITPERIOD_UNITS,0,11.0
00532020003281,MAXBENEFITPERIOD_BASIS,UNKNOWN,WEEKS
00532020003281,MAXBENEFITPERIOD_UNITS,0,26.0
00532020003279,ALTERNATE_WAITINGPERIOD_UNITS,30,60.0
00532020003278,MAXBENEFITPERIOD_BASIS,UNKNOWN,WEEKS
00532020003278,MAXBENEFITPERIOD_UNITS,0,12.0
00532020003278,ALTERNATE_WAITINGPERIOD_UNITS,30,60.0
00532020003274,INTEGRATIONTYPE,73632000,73660000
00532020003273,INTEGRATIONTYPE,73632000,73660000
00532020003272,INTEGRATIONTYPE,73632000,73660000
00532020003272,MAXBENEFITPERIOD_BASIS,UNKNOWN,WEEKS
00532020003272,MAXBENEFITPERIOD_UNITS,0,104.0
00532020003269,INTEGRATIONTYPE,73632000,73660000
00532020003268,INTEGRATIONTYPE,73632000,73660000
00532020003268,MAXBENEFITPERIOD_BASIS,UNKNOWN,WEEKS
00532020003268,MAXBENEFITPERIOD_UNITS,0,11.0
00532020003267,INTEGRATIONTYPE,73632000,73660000
00532020003266,MAXBENEFITPERIOD_BASIS,UNKNOWN,WEEKS
00532020003266,MAXBENEFITPERIOD_UNITS,0,12.0
00532020003265,INTEGRATIONTYPE,73632000,73660000
00532020003264,INTEGRATIONTYPE,73632000,73660000
00532020003261,MAXBENEFITPERIOD_BASIS,UNKNOWN,WEEKS
00532020003261,MAXBENEFITPERIOD_UNITS,0,26.0
00532020003260,INTEGRATIONTYPE,73632000,73660000
00532020003259,MAXBENEFITPERIOD_BASIS,UNKNOWN,WEEKS
00532020003259,MAXBENEFITPERIOD_UNITS,0,13.0
00532020003257,ALTERNATE_WAITINGPERIOD_BASIS,5568001,0
00532020003257,ALTERNATE_WAITINGPERIOD_UNITS,60,0
00532020003255,ALTERNATE_WAITINGPERIOD_BASIS,5568001,0
00532020003255,ALTERNATE_WAITINGPERIOD_UNITS,60,0
00532020003254,MAXBENEFITPERIOD_BASIS,UNKNOWN,WEEKS
00532020003254,MAXBENEFITPERIOD_UNITS,0,25.0
00532020003254,ALTERNATE_WAITINGPERIOD_BASIS,0,5568001.0
00532020003254,ALTERNATE_WAITINGPERIOD_UNITS,0,30.0
00532020003253,INTEGRATIONTYPE,73632000,73660000
00532020003253,MAXBENEFITPERIOD_BASIS,UNKNOWN,WEEKS
00532020003253,MAXBENEFITPERIOD_UNITS,0,11.0
00532020003252,INTEGRATIONTYPE,73632000,73660000
00532020003251,ALTERNATE_WAITINGPERIOD_BASIS,5568001,0
00532020003251,ALTERNATE_WAITINGPERIOD_UNITS,30,0
00532020003246,INTEGRATIONTYPE,73632000,73660000
00532020003244,INTEGRATIONTYPE,73632000,73660000
00532020003244,ALTERNATE_WAITINGPERIOD_BASIS,5568001,0
00532020003244,ALTERNATE_WAITINGPERIOD_UNITS,30,0
00532020003243,ALTERNATE_WAITINGPERIOD_BASIS,5568001,0
00532020003243,ALTERNATE_WAITINGPERIOD_UNITS,30,0
00532020003242,MAXBENEFITPERIOD_BASIS,UNKNOWN,WEEKS
00532020003242,MAXBENEFITPERIOD_UNITS,0,11.0
00532020003239,INTEGRATIONTYPE,73632000,73660000
00532020003237,INTEGRATIONTYPE,73632000,73660000
00532020003236,INTEGRATIONTYPE,73632000,73660000
00532020003236,MAXBENEFITPERIOD_BASIS,UNKNOWN,WEEKS
00532020003236,MAXBENEFITPERIOD_UNITS,0,9.0
00532020003234,INTEGRATIONTYPE,73632000,73660000
00532020003233,INTEGRATIONTYPE,73632000,73660000
00532020003231,INTEGRATIONTYPE,73632000,73660000
00532020003230,ALTERNATE_WAITINGPERIOD_BASIS,5568001,0
00532020003230,ALTERNATE_WAITINGPERIOD_UNITS,90,0
00532020003227,INTEGRATIONTYPE,73632000,73660000
00532020003226,INTEGRATIONTYPE,73632000,73660000
00532020003225,INTEGRATIONTYPE,73632000,73660000
00532020003224,ALTERNATE_WAITINGPERIOD_UNITS,90,60.0
00532020003222,INTEGRATIONTYPE,73632000,73660000
00532020003220,INTEGRATIONTYPE,73632000,73660000
00532020003219,INTEGRATIONTYPE,73632000,73660000
00532020003217,ALTERNATE_WAITINGPERIOD_UNITS,30,60.0
00532020003216,INTEGRATIONTYPE,73632000,73660000
00532020003214,INTEGRATIONTYPE,73632000,73660000
00532020003214,MAXBENEFITPERIOD_BASIS,UNKNOWN,WEEKS
00532020003214,MAXBENEFITPERIOD_UNITS,0,12.0
00532020003213,INTEGRATIONTYPE,73632000,73660000
00532020003212,ALTERNATE_WAITINGPERIOD_BASIS,5568003,0
00532020003212,ALTERNATE_WAITINGPERIOD_UNITS,4,0
00532020003210,INTEGRATIONTYPE,73632000,73660000
00532020003209,INTEGRATIONTYPE,73632000,73660000
00532020003207,ALTERNATE_WAITINGPERIOD_UNITS,30,90.0
00532020003206,INTEGRATIONTYPE,73632000,73660000
00532020003206,ALTERNATE_WAITINGPERIOD_BASIS,5568001,0
00532020003206,ALTERNATE_WAITINGPERIOD_UNITS,30,0
00532020003204,INTEGRATIONTYPE,73632000,73660000
00532020003203,INTEGRATIONTYPE,73632000,73660000
00532020003201,ALTERNATE_WAITINGPERIOD_BASIS,5568001,0
00532020003201,ALTERNATE_WAITINGPERIOD_UNITS,90,0
00532020003200,ALTERNATE_WAITINGPERIOD_BASIS,5568001,0
00532020003200,ALTERNATE_WAITINGPERIOD_UNITS,30,0
00532020003196,MAXBENEFITPERIOD_BASIS,UNKNOWN,WEEKS
00532020003196,MAXBENEFITPERIOD_UNITS,0,26.0
00532020003196,ALTERNATE_WAITINGPERIOD_BASIS,5568001,0
00532020003196,ALTERNATE_WAITINGPERIOD_UNITS,90,0
00532020003194,INTEGRATIONTYPE,73632000,73660000
00532020003192,ALTERNATE_WAITINGPERIOD_BASIS,5568001,5568003.0
00532020003190,INTEGRATIONTYPE,73632000,73660000
00532020003188,INTEGRATIONTYPE,73632000,73660000
00532020003186,INTEGRATIONTYPE,73632000,73660000
00532020003185,INTEGRATIONTYPE,73632000,73660000
00532020003183,MAXBENEFITPERIOD_BASIS,UNKNOWN,WEEKS
00532020003183,MAXBENEFITPERIOD_UNITS,0,13.0
00532020003182,INTEGRATIONTYPE,73632000,73660000
00532020003181,MAXBENEFITPERIOD_BASIS,UNKNOWN,WEEKS
00532020003181,MAXBENEFITPERIOD_UNITS,0,25.0
00532020003181,ALTERNATE_WAITINGPERIOD_BASIS,0,5568001.0
00532020003181,ALTERNATE_WAITINGPERIOD_UNITS,0,30.0
00532020003180,INTEGRATIONTYPE,73632000,73660000
00532020003178,INTEGRATIONTYPE,73632000,73660000
00532020003177,ALTERNATE_WAITINGPERIOD_BASIS,5568001,0
00532020003177,ALTERNATE_WAITINGPERIOD_UNITS,60,0
00532020003176,INTEGRATIONTYPE,73632000,73660000
00532020003175,INTEGRATIONTYPE,73632000,73660000
00532020003174,INTEGRATIONTYPE,73632000,73660000
00532020003173,ALTERNATE_WAITINGPERIOD_BASIS,5568001,0
00532020003173,ALTERNATE_WAITINGPERIOD_UNITS,60,0
00532020003172,INTEGRATIONTYPE,73632000,73660000
00532020003170,INTEGRATIONTYPE,73632000,73660000
00532020003169,ALTERNATE_WAITINGPERIOD_BASIS,0,5568001.0
00532020003169,ALTERNATE_WAITINGPERIOD_UNITS,0,30.0
00532020003167,INTEGRATIONTYPE,73632000,73660000
00532020003166,INTEGRATIONTYPE,73632000,73660000
00532020003165,ALTERNATE_WAITINGPERIOD_BASIS,0,5568001.0
00532020003165,ALTERNATE_WAITINGPERIOD_UNITS,0,30.0
00532020003163,ALTERNATE_WAITINGPERIOD_BASIS,5568001,0
00532020003163,ALTERNATE_WAITINGPERIOD_UNITS,90,0
00532020003162,ALTERNATE_WAITINGPERIOD_BASIS,5568003,0
00532020003162,ALTERNATE_WAITINGPERIOD_UNITS,6,0
00532020003158,ALTERNATE_WAITINGPERIOD_BASIS,0,5568001.0
00532020003158,ALTERNATE_WAITINGPERIOD_UNITS,0,30.0
00532020003157,ALTERNATE_WAITINGPERIOD_BASIS,5568003,0
00532020003157,ALTERNATE_WAITINGPERIOD_UNITS,4,0
00532020003155,INTEGRATIONTYPE,73632000,73660000
00532020003154,INTEGRATIONTYPE,73632000,73660000
00532020003154,MAXBENEFITPERIOD_BASIS,UNKNOWN,WEEKS
00532020003154,MAXBENEFITPERIOD_UNITS,0,24.0
00532020003153,INTEGRATIONTYPE,73632000,73660000
00532020003151,INTEGRATIONTYPE,73632000,73660000
00532020003151,ALTERNATE_WAITINGPERIOD_BASIS,5568001,5568003.0
00532020003151,ALTERNATE_WAITINGPERIOD_UNITS,60,3.0
00532020003148,MAXBENEFITPERIOD_BASIS,UNKNOWN,WEEKS
00532020003148,MAXBENEFITPERIOD_UNITS,0,11.0
00532020003147,INTEGRATIONTYPE,73632000,73660000
00532020003145,INTEGRATIONTYPE,73632000,73660000
00532020003144,INTEGRATIONTYPE,73632000,73660000
00532020003143,INTEGRATIONTYPE,73632000,73660000
00532020003142,INTEGRATIONTYPE,73632000,73660000
00532020003141,INTEGRATIONTYPE,73632000,73660000
00532020003140,INTEGRATIONTYPE,73632000,73660000
00532020003139,INTEGRATIONTYPE,73632000,73660000
00532020003137,ALTERNATE_WAITINGPERIOD_BASIS,0,5568001.0
00532020003137,ALTERNATE_WAITINGPERIOD_UNITS,0,30.0
00532020003136,ALTERNATE_WAITINGPERIOD_BASIS,0,5568001.0
00532020003136,ALTERNATE_WAITINGPERIOD_UNITS,0,30.0
00532020003134,INTEGRATIONTYPE,73632000,73660000
00532020003133,INTEGRATIONTYPE,73632000,73660000
00532020003132,INTEGRATIONTYPE,73632000,73660000
00532020003129,INTEGRATIONTYPE,73632000,73660000
00532020003127,INTEGRATIONTYPE,73632000,73660000
00532020003125,INTEGRATIONTYPE,73632000,73660000
00532020003124,INTEGRATIONTYPE,73632000,73660000
00532020003124,MAXBENEFITPERIOD_BASIS,UNKNOWN,WEEKS
00532020003124,MAXBENEFITPERIOD_UNITS,0,26.0
00532020003123,INTEGRATIONTYPE,73632000,73660000
00532020003123,MAXBENEFITPERIOD_BASIS,UNKNOWN,WEEKS
00532020003123,MAXBENEFITPERIOD_UNITS,0,24.0
00532020003121,MAXBENEFITPERIOD_BASIS,UNKNOWN,WEEKS
00532020003121,MAXBENEFITPERIOD_UNITS,0,13.0
00532020003119,INTEGRATIONTYPE,73632000,73660000
00532020003118,MAXBENEFITPERIOD_BASIS,UNKNOWN,WEEKS
00532020003118,MAXBENEFITPERIOD_UNITS,0,13.0
00532020003117,INTEGRATIONTYPE,73632000,73660000
00532020003116,INTEGRATIONTYPE,73632000,73660000
00532020003113,INTEGRATIONTYPE,73632000,73660000
00532020003113,MAXBENEFITPERIOD_BASIS,UNKNOWN,WEEKS
00532020003113,MAXBENEFITPERIOD_UNITS,0,12.0
00532020003112,INTEGRATIONTYPE,73632000,73660000
00532020003111,INTEGRATIONTYPE,73632000,73660000
00532020003109,ALTERNATE_WAITINGPERIOD_BASIS,5568003,0
00532020003109,ALTERNATE_WAITINGPERIOD_UNITS,3,0
00532020003108,INTEGRATIONTYPE,73632000,73660000
00532020003107,INTEGRATIONTYPE,73632000,73660000
00532020003105,INTEGRATIONTYPE,73632000,73660000
00532020003104,INTEGRATIONTYPE,73632000,73660000
00532020003101,MAXBENEFITPERIOD_BASIS,UNKNOWN,WEEKS
00532020003101,MAXBENEFITPERIOD_UNITS,0,13.0
00532020003100,INTEGRATIONTYPE,73632000,73660000
00532020003099,INTEGRATIONTYPE,73632000,73660000
00532020003098,INTEGRATIONTYPE,73632000,73660000
00532020003096,INTEGRATIONTYPE,73632000,73660000
00532020003094,INTEGRATIONTYPE,73632000,73660000
00532020003093,ALTERNATE_WAITINGPERIOD_BASIS,5568001,0
00532020003093,ALTERNATE_WAITINGPERIOD_UNITS,30,0
00532020003091,MAXBENEFITPERIOD_BASIS,UNKNOWN,WEEKS
00532020003091,MAXBENEFITPERIOD_UNITS,0,11.0
00532020003087,INTEGRATIONTYPE,73632000,73660000
00532020003086,INTEGRATIONTYPE,73632000,73660000
00532020003085,ALTERNATE_WAITINGPERIOD_UNITS,60,30.0
00532020003084,MAXBENEFITPERIOD_BASIS,UNKNOWN,WEEKS
00532020003084,MAXBENEFITPERIOD_UNITS,0,9.0
00532020003083,ALTERNATE_WAITINGPERIOD_BASIS,5568001,0
00532020003083,ALTERNATE_WAITINGPERIOD_UNITS,30,0
00532020003082,INTEGRATIONTYPE,73632000,73660000
00532020003078,ALTERNATE_WAITINGPERIOD_UNITS,30,60.0
00532020003076,ALTERNATE_WAITINGPERIOD_BASIS,5568003,0
00532020003076,ALTERNATE_WAITINGPERIOD_UNITS,1,0
00532020003075,MAXBENEFITPERIOD_BASIS,UNKNOWN,WEEKS
00532020003075,MAXBENEFITPERIOD_UNITS,0,26.0
00532020003074,MAXBENEFITPERIOD_BASIS,UNKNOWN,WEEKS
00532020003074,MAXBENEFITPERIOD_UNITS,0,13.0
00532020003072,MAXBENEFITPERIOD_BASIS,UNKNOWN,WEEKS
00532020003072,MAXBENEFITPERIOD_UNITS,0,13.0
00532020003072,ALTERNATE_WAITINGPERIOD_BASIS,5568001,0
00532020003072,ALTERNATE_WAITINGPERIOD_UNITS,60,0
00532020003071,MAXBENEFITPERIOD_BASIS,UNKNOWN,WEEKS
00532020003071,MAXBENEFITPERIOD_UNITS,0,13.0
00532020003069,INTEGRATIONTYPE,73632000,73660000
00532020003068,INTEGRATIONTYPE,73632000,73660000
00532020003066,INTEGRATIONTYPE,73632000,73660000
00532020003066,MAXBENEFITPERIOD_BASIS,UNKNOWN,WEEKS
00532020003066,MAXBENEFITPERIOD_UNITS,0,51.0
00532020003065,INTEGRATIONTYPE,73632000,73660000
00532020003064,INTEGRATIONTYPE,73632000,73660000
00532020003059,ALTERNATE_WAITINGPERIOD_UNITS,30,90.0
00532020003058,MAXBENEFITPERIOD_BASIS,UNKNOWN,WEEKS
00532020003058,MAXBENEFITPERIOD_UNITS,0,25.0
00532020003057,INTEGRATIONTYPE,73632000,73660000
00532020003056,INTEGRATIONTYPE,73632000,73660000
00532020003056,MAXBENEFITPERIOD_BASIS,UNKNOWN,WEEKS
00532020003056,MAXBENEFITPERIOD_UNITS,0,13.0
00532020003055,INTEGRATIONTYPE,73632000,73660000
00532020003053,ALTERNATE_WAITINGPERIOD_BASIS,5568001,0
00532020003053,ALTERNATE_WAITINGPERIOD_UNITS,90,0
00532020003052,INTEGRATIONTYPE,73632000,73660000
00532020003052,MAXBENEFITPERIOD_BASIS,UNKNOWN,WEEKS
00532020003052,MAXBENEFITPERIOD_UNITS,0,51.0
00532020003049,INTEGRATIONTYPE,73632000,73660000
00532020003048,INTEGRATIONTYPE,73632000,73660000
00532020003048,MAXBENEFITPERIOD_BASIS,UNKNOWN,WEEKS
00532020003048,MAXBENEFITPERIOD_UNITS,0,12.0
00532020003046,INTEGRATIONTYPE,73632000,73660000
00532020003046,MAXBENEFITPERIOD_BASIS,UNKNOWN,WEEKS
00532020003046,MAXBENEFITPERIOD_UNITS,0,25.0
00532020003045,INTEGRATIONTYPE,73632000,73660000
00532020003041,ALTERNATE_WAITINGPERIOD_BASIS,5568003,0
00532020003041,ALTERNATE_WAITINGPERIOD_UNITS,6,0
00532020003040,ALTERNATE_WAITINGPERIOD_UNITS,60,90.0
00532020003039,ALTERNATE_WAITINGPERIOD_BASIS,5568001,0
00532020003039,ALTERNATE_WAITINGPERIOD_UNITS,30,0
00532020003037,INTEGRATIONTYPE,73632000,73660000
00532020003036,INTEGRATIONTYPE,73632000,73660000
00532020003035,INTEGRATIONTYPE,73632000,73660000
00532020003035,MAXBENEFITPERIOD_BASIS,UNKNOWN,WEEKS
00532020003035,MAXBENEFITPERIOD_UNITS,0,25.0
00532020003034,MAXBENEFITPERIOD_BASIS,UNKNOWN,WEEKS
00532020003034,MAXBENEFITPERIOD_UNITS,0,52.0
00532020003032,MAXBENEFITPERIOD_BASIS,UNKNOWN,WEEKS
00532020003032,MAXBENEFITPERIOD_UNITS,0,12.0
00532020003029,MAXBENEFITPERIOD_BASIS,UNKNOWN,WEEKS
00532020003029,MAXBENEFITPERIOD_UNITS,0,13.0
00532020003028,MAXBENEFITPERIOD_BASIS,UNKNOWN,WEEKS
00532020003028,MAXBENEFITPERIOD_UNITS,0,13.0
00532020003028,ALTERNATE_WAITINGPERIOD_BASIS,0,5568001.0
00532020003028,ALTERNATE_WAITINGPERIOD_UNITS,0,30.0
00532020003026,ALTERNATE_WAITINGPERIOD_BASIS,5568001,0
00532020003026,ALTERNATE_WAITINGPERIOD_UNITS,90,0
00532020003025,INTEGRATIONTYPE,73632000,73660000
00532020003025,MAXBENEFITPERIOD_BASIS,UNKNOWN,WEEKS
00532020003025,MAXBENEFITPERIOD_UNITS,0,12.0
00532020003024,INTEGRATIONTYPE,73632000,73660000
00532020003023,ALTERNATE_WAITINGPERIOD_BASIS,5568001,5568003.0
00532020003023,ALTERNATE_WAITINGPERIOD_UNITS,90,4.0
00532020003022,INTEGRATIONTYPE,73632000,73660000
00532020003021,INTEGRATIONTYPE,73632000,73660000
00532020003019,ALTERNATE_WAITINGPERIOD_BASIS,0,5568001.0
00532020003019,ALTERNATE_WAITINGPERIOD_UNITS,0,30.0
00532020003017,INTEGRATIONTYPE,73632000,73660000
00532020003014,INTEGRATIONTYPE,73632000,73660000
00532020003012,INTEGRATIONTYPE,73632000,73660000
00532020003009,MAXBENEFITPERIOD_BASIS,UNKNOWN,WEEKS
00532020003009,MAXBENEFITPERIOD_UNITS,0,13.0
00532020003008,INTEGRATIONTYPE,73632000,73660000
00532020003005,INTEGRATIONTYPE,73632000,73660000
00532020003002,INTEGRATIONTYPE,73632000,73660000
00532020003001,ALTERNATE_WAITINGPERIOD_BASIS,5568001,0
00532020003001,ALTERNATE_WAITINGPERIOD_UNITS,60,0
00532020002999,MAXBENEFITPERIOD_BASIS,UNKNOWN,WEEKS
00532020002999,MAXBENEFITPERIOD_UNITS,0,13.0
00532020002998,ALTERNATE_WAITINGPERIOD_BASIS,5568003,0
00532020002998,ALTERNATE_WAITINGPERIOD_UNITS,4,0
00532020002997,INTEGRATIONTYPE,73632000,73660000
00532020002996,INTEGRATIONTYPE,73632000,73660000
00532020002995,INTEGRATIONTYPE,73632000,73660000
00532020002993,INTEGRATIONTYPE,73632000,73660000
00532020002992,MAXBENEFITPERIOD_BASIS,UNKNOWN,WEEKS
00532020002992,MAXBENEFITPERIOD_UNITS,0,52.0
00532020002988,INTEGRATIONTYPE,73632000,73660000
00532020002988,MAXBENEFITPERIOD_BASIS,UNKNOWN,WEEKS
00532020002988,MAXBENEFITPERIOD_UNITS,0,13.0
00532020002985,ALTERNATE_WAITINGPERIOD_BASIS,5568001,0
00532020002985,ALTERNATE_WAITINGPERIOD_UNITS,90,0
00532020002984,MAXBENEFITPERIOD_BASIS,UNKNOWN,WEEKS
00532020002984,MAXBENEFITPERIOD_UNITS,0,11.0
00532020002984,ALTERNATE_WAITINGPERIOD_BASIS,5568001,0
00532020002984,ALTERNATE_WAITINGPERIOD_UNITS,90,0
00532020002981,MAXBENEFITPERIOD_BASIS,UNKNOWN,WEEKS
00532020002981,MAXBENEFITPERIOD_UNITS,0,13.0
00532020002979,INTEGRATIONTYPE,73632000,73660000
00532020002978,INTEGRATIONTYPE,73632000,73660000
00532020002978,MAXBENEFITPERIOD_BASIS,UNKNOWN,WEEKS
00532020002978,MAXBENEFITPERIOD_UNITS,0,11.0
00532020002977,ALTERNATE_WAITINGPERIOD_BASIS,5568001,0
00532020002977,ALTERNATE_WAITINGPERIOD_UNITS,90,0
00532020002976,MAXBENEFITPERIOD_BASIS,UNKNOWN,WEEKS
00532020002976,MAXBENEFITPERIOD_UNITS,0,11.0
00532020002975,ALTERNATE_WAITINGPERIOD_BASIS,5568001,0
00532020002975,ALTERNATE_WAITINGPERIOD_UNITS,90,0
00532020002974,ALTERNATE_WAITINGPERIOD_BASIS,5568003,0
00532020002974,ALTERNATE_WAITINGPERIOD_UNITS,4,0
00532020002973,MAXBENEFITPERIOD_BASIS,UNKNOWN,WEEKS
00532020002973,MAXBENEFITPERIOD_UNITS,0,12.0
00532020002971,INTEGRATIONTYPE,73632000,73660000
00532020002971,MAXBENEFITPERIOD_BASIS,UNKNOWN,WEEKS
00532020002971,MAXBENEFITPERIOD_UNITS,0,12.0
00532020002970,INTEGRATIONTYPE,73632000,73660000
00532020002969,ALTERNATE_WAITINGPERIOD_BASIS,5568001,0
00532020002969,ALTERNATE_WAITINGPERIOD_UNITS,30,0
00532020002968,ALTERNATE_WAITINGPERIOD_BASIS,5568003,0
00532020002968,ALTERNATE_WAITINGPERIOD_UNITS,3,0
00532020002965,INTEGRATIONTYPE,73632000,73660000
00532020002964,INTEGRATIONTYPE,73632000,73660000
00532020002963,INTEGRATIONTYPE,73632000,73660000
00532020002961,INTEGRATIONTYPE,73632000,73660000
00532020002957,ALTERNATE_WAITINGPERIOD_UNITS,0,30.0
00532020002955,MAXBENEFITPERIOD_BASIS,UNKNOWN,WEEKS
00532020002955,MAXBENEFITPERIOD_UNITS,0,13.0
00532020002954,INTEGRATIONTYPE,73632000,73660000
00532020002953,MAXBENEFITPERIOD_BASIS,UNKNOWN,WEEKS
00532020002953,MAXBENEFITPERIOD_UNITS,0,13.0
00532020002952,INTEGRATIONTYPE,73632000,73660000
00532020002952,MAXBENEFITPERIOD_BASIS,UNKNOWN,WEEKS
00532020002952,MAXBENEFITPERIOD_UNITS,0,12.0
00532020002950,INTEGRATIONTYPE,73632000,73660000
00532020002950,MAXBENEFITPERIOD_BASIS,UNKNOWN,WEEKS
00532020002950,MAXBENEFITPERIOD_UNITS,0,12.0
00532020002948,INTEGRATIONTYPE,73632000,73660000
00532020002947,INTEGRATIONTYPE,73632000,73660000
00532020002946,INTEGRATIONTYPE,73632000,73660000
00532020002942,INTEGRATIONTYPE,73632000,73660000
00532020002941,ALTERNATE_WAITINGPERIOD_BASIS,5568001,0
00532020002941,ALTERNATE_WAITINGPERIOD_UNITS,120,0
00532020002940,INTEGRATIONTYPE,73632000,73660000
00532020002938,MAXBENEFITPERIOD_BASIS,UNKNOWN,WEEKS
00532020002938,MAXBENEFITPERIOD_UNITS,0,13.0
00532020002937,MAXBENEFITPERIOD_BASIS,UNKNOWN,WEEKS
00532020002937,MAXBENEFITPERIOD_UNITS,0,11.0
00532020002936,ALTERNATE_WAITINGPERIOD_BASIS,0,5568001.0
00532020002936,ALTERNATE_WAITINGPERIOD_UNITS,0,30.0
00532020002934,INTEGRATIONTYPE,73632000,73660000
00532020002932,INTEGRATIONTYPE,73632000,73660000
00532020002930,INTEGRATIONTYPE,73632000,73660000
00532020002929,INTEGRATIONTYPE,73632000,73660000
00532020002929,ALTERNATE_WAITINGPERIOD_BASIS,5568001,0
00532020002929,ALTERNATE_WAITINGPERIOD_UNITS,30,0
00532020002928,INTEGRATIONTYPE,73632000,73660000
00532020002927,INTEGRATIONTYPE,73632000,73660000
00532020002924,ALTERNATE_WAITINGPERIOD_BASIS,0,5568001.0
00532020002924,ALTERNATE_WAITINGPERIOD_UNITS,0,30.0
00532020002922,MAXBENEFITPERIOD_BASIS,UNKNOWN,WEEKS
00532020002922,MAXBENEFITPERIOD_UNITS,0,11.0
00532020002921,INTEGRATIONTYPE,73632000,73660000
00532020002919,ALTERNATE_WAITINGPERIOD_BASIS,5568003,0
00532020002919,ALTERNATE_WAITINGPERIOD_UNITS,4,0
00532020002917,INTEGRATIONTYPE,73632000,73660000
00532020002917,ALTERNATE_WAITINGPERIOD_BASIS,5568001,0
00532020002917,ALTERNATE_WAITINGPERIOD_UNITS,30,0
00532020002916,INTEGRATIONTYPE,73632000,73660000
00532020002914,ALTERNATE_WAITINGPERIOD_BASIS,5568001,0
00532020002914,ALTERNATE_WAITINGPERIOD_UNITS,60,0
00532020002913,ALTERNATE_WAITINGPERIOD_BASIS,5568003,0
00532020002913,ALTERNATE_WAITINGPERIOD_UNITS,4,0
00532020002912,INTEGRATIONTYPE,73632000,73660000
00532020002911,INTEGRATIONTYPE,73632000,73660000
00532020002910,MAXBENEFITPERIOD_BASIS,UNKNOWN,WEEKS
00532020002910,MAXBENEFITPERIOD_UNITS,0,52.0
00532020002908,MAXBENEFITPERIOD_BASIS,UNKNOWN,WEEKS
00532020002908,MAXBENEFITPERIOD_UNITS,0,13.0
00532020002907,ALTERNATE_WAITINGPERIOD_BASIS,5568001,0
00532020002907,ALTERNATE_WAITINGPERIOD_UNITS,60,0
00532020002906,ALTERNATE_WAITINGPERIOD_BASIS,5568001,0
00532020002906,ALTERNATE_WAITINGPERIOD_UNITS,60,0
00532020002905,INTEGRATIONTYPE,73632000,73660000
00532020002903,ALTERNATE_WAITINGPERIOD_BASIS,5568001,0
00532020002903,ALTERNATE_WAITINGPERIOD_UNITS,30,0
00532020002902,MAXBENEFITPERIOD_BASIS,UNKNOWN,WEEKS
00532020002902,MAXBENEFITPERIOD_UNITS,0,13.0
00532020002901,INTEGRATIONTYPE,73632000,73660000
00532020002899,ALTERNATE_WAITINGPERIOD_BASIS,5568003,0
00532020002899,ALTERNATE_WAITINGPERIOD_UNITS,4,0
00532020002897,INTEGRATIONTYPE,73632000,73660000
00532020002895,ALTERNATE_WAITINGPERIOD_UNITS,30,60.0
00532020002893,ALTERNATE_WAITINGPERIOD_BASIS,5568001,0
00532020002893,ALTERNATE_WAITINGPERIOD_UNITS,30,0
00532020002892,INTEGRATIONTYPE,73632000,73660000
00532020002890,INTEGRATIONTYPE,73632000,73660000
00532020002888,INTEGRATIONTYPE,73632000,73660000
00532020002888,MAXBENEFITPERIOD_BASIS,UNKNOWN,WEEKS
00532020002888,MAXBENEFITPERIOD_UNITS,0,24.0
00532020002887,MAXBENEFITPERIOD_BASIS,UNKNOWN,WEEKS
00532020002887,MAXBENEFITPERIOD_UNITS,0,13.0
00532020002887,ALTERNATE_WAITINGPERIOD_UNITS,60,90.0
00532020002881,INTEGRATIONTYPE,73632000,73660000
00532020002880,INTEGRATIONTYPE,73632000,73660000
00532020002878,INTEGRATIONTYPE,73632000,73660000
00532020002878,MAXBENEFITPERIOD_BASIS,UNKNOWN,WEEKS
00532020002878,MAXBENEFITPERIOD_UNITS,0,24.0
00532020002875,INTEGRATIONTYPE,73632000,73660000
00532020002873,INTEGRATIONTYPE,73632000,73660000
00532020002873,MAXBENEFITPERIOD_BASIS,UNKNOWN,WEEKS
00532020002873,MAXBENEFITPERIOD_UNITS,0,9.0
00532020002872,INTEGRATIONTYPE,73632000,73660000
00532020002869,ALTERNATE_WAITINGPERIOD_BASIS,0,5568001.0
00532020002869,ALTERNATE_WAITINGPERIOD_UNITS,0,30.0
00532020002867,ALTERNATE_WAITINGPERIOD_BASIS,0,5568001.0
00532020002867,ALTERNATE_WAITINGPERIOD_UNITS,0,30.0
00532020002864,ALTERNATE_WAITINGPERIOD_BASIS,5568001,0
00532020002864,ALTERNATE_WAITINGPERIOD_UNITS,30,0
00532020002863,MAXBENEFITPERIOD_BASIS,UNKNOWN,WEEKS
00532020002863,MAXBENEFITPERIOD_UNITS,0,11.0
00532020002861,INTEGRATIONTYPE,73632000,73660000
00532020002860,INTEGRATIONTYPE,73632000,73660000
00532020002859,MAXBENEFITPERIOD_BASIS,UNKNOWN,WEEKS
00532020002859,MAXBENEFITPERIOD_UNITS,0,13.0
00532020002857,INTEGRATIONTYPE,73632000,73660000
00532020002855,MAXBENEFITPERIOD_BASIS,UNKNOWN,MONTHS
00532020002855,MAXBENEFITPERIOD_UNITS,0,12.0
00532020002855,ALTERNATE_WAITINGPERIOD_UNITS,28,30.0
00532020002854,INTEGRATIONTYPE,73632000,73660000
00532020002849,INTEGRATIONTYPE,73632000,73660000
00532020002848,INTEGRATIONTYPE,73632000,73660000
00532020002847,INTEGRATIONTYPE,73632000,73660000
00532020002845,INTEGRATIONTYPE,73632000,73660000
00532020002843,INTEGRATIONTYPE,73632000,73660000
00532020002843,MAXBENEFITPERIOD_BASIS,UNKNOWN,WEEKS
00532020002843,MAXBENEFITPERIOD_UNITS,0,24.0
00532020002842,INTEGRATIONTYPE,73632000,73660000
00532020002837,MAXBENEFITPERIOD_BASIS,UNKNOWN,WEEKS
00532020002837,MAXBENEFITPERIOD_UNITS,0,12.0
00532020002837,ALTERNATE_WAITINGPERIOD_BASIS,5568001,0
00532020002837,ALTERNATE_WAITINGPERIOD_UNITS,60,0
00532020002836,INTEGRATIONTYPE,73632000,73660000
00532020002835,ALTERNATE_WAITINGPERIOD_BASIS,5568001,0
00532020002835,ALTERNATE_WAITINGPERIOD_UNITS,90,0
00532020002834,INTEGRATIONTYPE,73632000,73660000
00532020002833,INTEGRATIONTYPE,73632000,73660000
00532020002833,MAXBENEFITPERIOD_BASIS,UNKNOWN,WEEKS
00532020002833,MAXBENEFITPERIOD_UNITS,0,13.0
00532020002831,INTEGRATIONTYPE,73632000,73660000
00532020002829,INTEGRATIONTYPE,73632000,73660000
00532020002828,INTEGRATIONTYPE,73632000,73660000
00532020002828,MAXBENEFITPERIOD_BASIS,UNKNOWN,WEEKS
00532020002828,MAXBENEFITPERIOD_UNITS,0,11.0
00532020002827,INTEGRATIONTYPE,73632000,73660000
00532020002827,MAXBENEFITPERIOD_BASIS,UNKNOWN,WEEKS
00532020002827,MAXBENEFITPERIOD_UNITS,0,12.0
00532020002826,INTEGRATIONTYPE,73632000,73660000
00532020002825,ALTERNATE_WAITINGPERIOD_BASIS,0,5568001.0
00532020002825,ALTERNATE_WAITINGPERIOD_UNITS,0,30.0
00532020002823,INTEGRATIONTYPE,73632000,73660000
00532020002822,INTEGRATIONTYPE,73632000,73660000
00532020002821,ALTERNATE_WAITINGPERIOD_BASIS,5568001,0
00532020002821,ALTERNATE_WAITINGPERIOD_UNITS,60,0
00532020002820,MAXBENEFITPERIOD_BASIS,UNKNOWN,WEEKS
00532020002820,MAXBENEFITPERIOD_UNITS,0,13.0
00532020002813,MAXBENEFITPERIOD_BASIS,UNKNOWN,WEEKS
00532020002813,MAXBENEFITPERIOD_UNITS,0,26.0
00532020002813,ALTERNATE_WAITINGPERIOD_BASIS,5568001,0
00532020002813,ALTERNATE_WAITINGPERIOD_UNITS,120,0
00532020002812,MAXBENEFITPERIOD_BASIS,UNKNOWN,WEEKS
00532020002812,MAXBENEFITPERIOD_UNITS,0,52.0
00532020002809,INTEGRATIONTYPE,73632000,73660000
00532020002809,MAXBENEFITPERIOD_BASIS,UNKNOWN,WEEKS
00532020002809,MAXBENEFITPERIOD_UNITS,0,12.0
00532020002808,INTEGRATIONTYPE,73632000,73660000
00532020002807,INTEGRATIONTYPE,73632000,73660000
00532020002806,MAXBENEFITPERIOD_BASIS,UNKNOWN,WEEKS
00532020002806,MAXBENEFITPERIOD_UNITS,0,13.0
00532020002805,INTEGRATIONTYPE,73632000,73660000
00532020002804,INTEGRATIONTYPE,73632000,73660000
00532020002803,INTEGRATIONTYPE,73632000,73660000
00532020002801,MAXBENEFITPERIOD_BASIS,UNKNOWN,WEEKS
00532020002801,MAXBENEFITPERIOD_UNITS,0,13.0
00532020002801,ALTERNATE_WAITINGPERIOD_BASIS,5568003,0
00532020002801,ALTERNATE_WAITINGPERIOD_UNITS,4,0
00532020002798,MAXBENEFITPERIOD_BASIS,UNKNOWN,WEEKS
00532020002798,MAXBENEFITPERIOD_UNITS,0,13.0
00532020002798,ALTERNATE_WAITINGPERIOD_UNITS,60,90.0
00532020002797,INTEGRATIONTYPE,73632000,73660000
00532020002797,MAXBENEFITPERIOD_BASIS,UNKNOWN,WEEKS
00532020002797,MAXBENEFITPERIOD_UNITS,0,13.0
00532020002796,INTEGRATIONTYPE,73632000,73660000
00532020002794,MAXBENEFITPERIOD_BASIS,UNKNOWN,WEEKS
00532020002794,MAXBENEFITPERIOD_UNITS,0,52.0
00532020002794,ALTERNATE_WAITINGPERIOD_BASIS,5568001,0
00532020002794,ALTERNATE_WAITINGPERIOD_UNITS,60,0
00532020002792,INTEGRATIONTYPE,73632000,73660000
00532020002792,MAXBENEFITPERIOD_BASIS,UNKNOWN,WEEKS
00532020002792,MAXBENEFITPERIOD_UNITS,0,25.0
00532020002790,MAXBENEFITPERIOD_BASIS,UNKNOWN,WEEKS
00532020002790,MAXBENEFITPERIOD_UNITS,0,12.0
00532020002789,INTEGRATIONTYPE,73632000,73660000
00532020002784,INTEGRATIONTYPE,73632000,73660000
00532020002782,INTEGRATIONTYPE,73632000,73660000
00532020002781,INTEGRATIONTYPE,73632000,73660000
00532020002780,INTEGRATIONTYPE,73632000,73660000
00532020002779,INTEGRATIONTYPE,73632000,73660000
00532020002778,INTEGRATIONTYPE,73632000,73660000
00532020002776,INTEGRATIONTYPE,73632000,73660000
00532020002775,INTEGRATIONTYPE,73632000,73660000
00532020002772,ALTERNATE_WAITINGPERIOD_BASIS,5568001,0
00532020002772,ALTERNATE_WAITINGPERIOD_UNITS,90,0
00532020002770,ALTERNATE_WAITINGPERIOD_BASIS,5568001,0
00532020002770,ALTERNATE_WAITINGPERIOD_UNITS,90,0
00532020002769,MAXBENEFITPERIOD_BASIS,UNKNOWN,WEEKS
00532020002769,MAXBENEFITPERIOD_UNITS,0,11.0
00532020002767,INTEGRATIONTYPE,73632000,73660000
00532020002766,INTEGRATIONTYPE,73632000,73660000
00532020002766,ALTERNATE_WAITINGPERIOD_UNITS,31,90.0
00532020002765,ALTERNATE_WAITINGPERIOD_BASIS,5568001,0
00532020002765,ALTERNATE_WAITINGPERIOD_UNITS,90,0
00532020002764,INTEGRATIONTYPE,73632000,73660000
00532020002760,MAXBENEFITPERIOD_BASIS,UNKNOWN,WEEKS
00532020002760,MAXBENEFITPERIOD_UNITS,0,52.0
00532020002759,ALTERNATE_WAITINGPERIOD_BASIS,5568001,0
00532020002759,ALTERNATE_WAITINGPERIOD_UNITS,60,0
00532020002758,MAXBENEFITPERIOD_BASIS,UNKNOWN,WEEKS
00532020002758,MAXBENEFITPERIOD_UNITS,0,12.0
00532020002758,ALTERNATE_WAITINGPERIOD_UNITS,30,60.0
00532020002755,INTEGRATIONTYPE,73632000,73660000
00532020002753,MAXBENEFITPERIOD_BASIS,UNKNOWN,WEEKS
00532020002753,MAXBENEFITPERIOD_UNITS,0,25.0
00532020002752,MAXBENEFITPERIOD_BASIS,UNKNOWN,WEEKS
00532020002752,MAXBENEFITPERIOD_UNITS,0,13.0
00532020002751,MAXBENEFITPERIOD_BASIS,UNKNOWN,WEEKS
00532020002751,MAXBENEFITPERIOD_UNITS,0,12.0
00532020002750,INTEGRATIONTYPE,73632000,73660000
00532020002749,INTEGRATIONTYPE,73632000,73660000
00532020002748,INTEGRATIONTYPE,73632000,73660000
00532020002748,MAXBENEFITPERIOD_BASIS,UNKNOWN,WEEKS
00532020002748,MAXBENEFITPERIOD_UNITS,0,47.0
00532020002746,INTEGRATIONTYPE,73632000,73660000
00532020002746,MAXBENEFITPERIOD_BASIS,UNKNOWN,WEEKS
00532020002746,MAXBENEFITPERIOD_UNITS,0,13.0
00532020002742,ALTERNATE_WAITINGPERIOD_BASIS,5568001,0
00532020002742,ALTERNATE_WAITINGPERIOD_UNITS,30,0
00532020002741,INTEGRATIONTYPE,73632000.0,73660000.0
00532020002739,INTEGRATIONTYPE,73632000.0,73660000.0
