CaseNo,ColumnName,FinVal,ArenaVal
 00532016002676,ELIMINATIONPERIODBASIS,5568000,5568001
 00532016002676,ELIMINATIONPERIODTYPE,65376000,68960004
 00532016002676,HOSPITALIZATIONAPPIES,N,Y
 00532016002656,RECEIVEDDATE,06/02/2016,
 00532016002656,STATUSDATE,06/02/2016,07/27/2016
 00532016002651,ELIMINATIONPERIOD,0,7.0
 00532016002651,ELIMINATIONPERIODBASIS,5568000,5568001
 00532016002651,ELIMINATIONPERIODTYPE,65376000,68960004
 00532016002617,ELIMINATIONPERIODBASIS,5568000,5568001
 00532016002617,ELIMINATIONPERIODTYPE,65376000,68960004
 00532016002617,HOSPITALIZATIONAPPIES,N,Y
 00532016002616,ELIMINATIONPERIODBASIS,5568000,5568001
 00532016002616,ELIMINATIONPERIODTYPE,65376000,68960004
 00532016002616,HOSPITALIZATIONAPPIES,N,Y
 00532016002615,ELIMINATIONPERIODBASIS,5568000,5568001
 00532016002615,ELIMINATIONPERIODTYPE,65376000,68960004
 00532016002615,HOSPITALIZATIONAPPIES,N,Y
 00532016002610,ELIMINATIONPERIODBASIS,5568000,5568001
 00532016002610,ELIMINATIONPERIODTYPE,65376000,68960004
 00532016002610,HOSPITALIZATIONAPPIES,N,Y
 00532015000076,ELIMINATIONPERIOD,0,7.0
 00532015000076,ELIMINATIONPERIODBASIS,5568000,5568001
 00532015000076,ELIMINATIONPERIODTYPE,65376000,68960004
 00532015000067,RECEIVEDDATE,09/24/2015,
 00532015000067,STATUSDATE,09/24/2015,12/11/2015
