CaseNo,ColumnName,FinVal,ArenaVal
 00532015001061,FINISHDATE,,11/09/2015
 00532015001060,FINISHDATE,,10/19/2015
 00532015001058,FINISHDATE,,09/28/2015
 00532015001057,FINISHDATE,,09/24/2015
 00532015001056,FINISHDATE,,11/12/2015
 00532015001055,FINISHDATE,,09/25/2015
 00532015001054,FINISHDATE,,09/23/2015
 00532015001053,FINISHDATE,,11/16/2015
 00532015001052,FINISHDATE,,11/05/2015
 00532015001051,FINISHDATE,,10/06/2015
 00532015001050,FINISHDATE,,11/11/2015
 00532015001049,FINISHDATE,,10/26/2015
 00532015001048,FINISHDATE,,10/15/2015
 00532015001047,FINISHDATE,,10/06/2015
 00532015001046,FINISHDATE,,09/30/2015
 00532015001045,FINISHDATE,,09/25/2015
 00532015001044,BENEFITTERMDATE,,09/30/2015
 00532015001044,FINISHDATE,,09/22/2015
 00532015001043,FINISHDATE,,01/20/2016
 00532015001042,FINISHDATE,,12/14/2015
 00532015001041,FINISHDATE,,10/21/2015
 00532015001040,BENEFITTERMDATE,,07/24/2015
 00532015001040,EMPLOYEECONTRIBUTION,1,0
 00532015001040,FINISHDATE,,10/13/2015
 00532015001039,FINISHDATE,,10/21/2015
 00532015001038,FINISHDATE,,12/14/2015
 00532015001037,FINISHDATE,,10/23/2015
 00532015001036,FINISHDATE,,10/27/2015
 00532015001035,FINISHDATE,,12/14/2015
 00532015001034,FINISHDATE,,09/28/2015
 00532015001033,FINISHDATE,,09/25/2015
 00532015001032,FINISHDATE,,09/29/2015
 00532015001031,FINISHDATE,,09/29/2015
 00532015001030,FINISHDATE,,09/24/2015
 00532015001029,FINISHDATE,,09/24/2015
 00532015001028,FINISHDATE,,11/02/2015
 00532015001027,PARTIALDISABILITYENDDATE,,08/16/2015
 00532015001027,PARTIALDISABILITYSTARTDATE,,08/04/2015
 00532015001027,PARTIALDISABILITYEMPLOYER,70496000,70496006.0
 00532015001027,FINISHDATE,,10/05/2015
 00532015001025,FINISHDATE,,10/22/2015
 00532015001024,PARTIALDISABILITYENDDATE,,10/16/2015
 00532015001024,PARTIALDISABILITYSTARTDATE,,09/21/2015
 00532015001024,PARTIALDISABILITYEMPLOYER,70496000,70496006.0
 00532015001024,FINISHDATE,,12/22/2015
 00532015001023,FINISHDATE,,11/20/2015
 00532015001022,FINISHDATE,,01/05/2016
 00532015001021,FINISHDATE,,11/18/2015
 00532015001020,BENEFITTERMDATE,11/10/2015,11/26/2015
 00532015001020,FINISHDATE,,12/02/2015
 00532015001019,FINISHDATE,,09/30/2015
 00532015001018,FINISHDATE,,11/02/2015
 00532015001017,FINISHDATE,,12/10/2015
 00532015001016,FINISHDATE,,01/08/2016
 00532015001015,FINISHDATE,,11/02/2015
 00532015001014,FINISHDATE,,02/20/2017
 00532015001013,FINISHDATE,,11/11/2015
 00532015001012,FINISHDATE,,12/11/2015
 00532015001011,BENEFITTERMDATE,,08/27/2015
 00532015001011,EMPLOYEECONTRIBUTION,1,0
 00532015001011,FINISHDATE,,11/11/2015
 00532015001010,FINISHDATE,,09/24/2015
 00532015001009,FINISHDATE,,10/01/2015
 00532015001008,FINISHDATE,,10/28/2015
 00532015001007,PARTIALDISABILITYENDDATE,,11/16/2015
 00532015001007,PARTIALDISABILITYSTARTDATE,,11/09/2015
 00532015001007,PARTIALDISABILITYEMPLOYER,70496000,70496006.0
 00532015001007,FINISHDATE,,12/02/2015
 00532015001006,FINISHDATE,,11/10/2015
 00532015001005,FINISHDATE,,09/29/2015
 00532015001004,FINISHDATE,,09/23/2015
 00532015001003,FINISHDATE,,12/14/2015
 00532015001002,BENEFITTERMDATE,,12/08/2015
 00532015001002,FINISHDATE,,03/08/2016
 00532015001001,FINISHDATE,,11/20/2015
 00532015001000,FINISHDATE,,12/01/2015
 00532015000999,FINISHDATE,,01/11/2016
 00532015000998,FINISHDATE,,11/19/2015
 00532015000997,FINISHDATE,,09/25/2015
 00532015000996,FINISHDATE,,10/12/2015
 00532015000995,FINISHDATE,,11/24/2015
 00532015000994,ELIMINATIONPERIOD,0,7.0
 00532015000994,ELIMINATIONPERIODBASIS,5568000,5568001.0
 00532015000994,ELIMINATIONPERIODTYPE,65376000,68960004.0
 00532015000994,BENEFITTERMDATE,,09/17/2015
 00532015000994,EMPLOYEECONTRIBUTION,1,0
 00532015000994,FINISHDATE,,11/19/2015
 00532015000993,BENEFITTERMDATE,,10/18/2015
 00532015000993,FINISHDATE,,10/22/2015
 00532015000992,FINISHDATE,,10/13/2015
 00532015000991,FINISHDATE,,11/25/2015
 00532015000990,FINISHDATE,,12/15/2015
 00532015000988,FINISHDATE,,11/23/2015
 00532015000987,FINISHDATE,,12/15/2015
 00532015000986,FINISHDATE,,11/05/2015
 00532015000985,FINISHDATE,,12/09/2015
 00532015000984,FINISHDATE,,10/08/2015
 00532015000983,ELIMINATIONPERIODBASIS,5568000,5568001.0
 00532015000983,ELIMINATIONPERIODTYPE,65376000,68960004.0
 00532015000983,HOSPITALIZATIONAPPIES,N,Y
 00532015000983,FINISHDATE,,09/17/2015
 00532015000982,FINISHDATE,,11/09/2015
 00532015000981,FINISHDATE,,12/02/2015
 00532015000980,FINISHDATE,,09/17/2015
 00532015000979,FINISHDATE,,09/17/2015
 00532015000978,FINISHDATE,,09/17/2015
 00532015000977,PARTIALDISABILITYSTARTDATE,,11/16/2015
 00532015000977,PARTIALDISABILITYEMPLOYER,70496000,70496006.0
 00532015000977,FINISHDATE,,12/29/2015
 00532015000976,FINISHDATE,,10/23/2015
 00532015000975,BENEFITTERMDATE,,09/11/2015
 00532015000975,FINISHDATE,,11/19/2015
 00532015000974,FINISHDATE,,11/16/2015
 00532015000973,FINISHDATE,,09/18/2015
 00532015000972,FINISHDATE,,10/07/2015
 00532015000971,BENEFITTERMDATE,,01/07/2016
 00532015000971,FINISHDATE,,11/11/2015
 00532015000970,FINISHDATE,,10/09/2015
 00532015000969,FINISHDATE,,11/23/2015
 00532015000968,BENEFITTERMDATE,,09/09/2015
 00532015000968,FINISHDATE,,11/24/2015
 00532015000967,ELIMINATIONPERIODBASIS,5568000,5568001.0
 00532015000967,ELIMINATIONPERIODTYPE,65376000,68960004.0
 00532015000967,HOSPITALIZATIONAPPIES,N,Y
 00532015000967,FINISHDATE,,09/18/2015
 00532015000966,FINISHDATE,,09/18/2015
 00532015000965,FINISHDATE,,12/14/2015
 00532015000964,FINISHDATE,,11/24/2015
 00532015000963,FINISHDATE,,02/02/2016
 00532015000962,FINISHDATE,,12/17/2015
 00532015000961,ELIMINATIONPERIOD,0,7.0
 00532015000961,ELIMINATIONPERIODBASIS,5568000,5568001.0
 00532015000961,ELIMINATIONPERIODTYPE,65376000,68960004.0
 00532015000961,BENEFITTERMDATE,,08/11/2015
 00532015000961,EMPLOYEECONTRIBUTION,1,0
 00532015000961,FINISHDATE,,10/07/2015
 00532015000959,FINISHDATE,,12/18/2015
 00532015000958,FINISHDATE,,10/27/2015
 00532015000957,BENEFITTERMDATE,12/16/2015,12/28/2015
 00532015000957,FINISHDATE,,04/01/2016
 00532015000956,BENEFITTERMDATE,11/03/2015,11/10/2015
 00532015000956,FINISHDATE,,11/04/2015
 00532015000955,FINISHDATE,,10/01/2015
 00532015000954,FINISHDATE,,01/27/2016
 00532015000953,FINISHDATE,,12/15/2015
 00532015000952,FINISHDATE,,12/04/2015
 00532015000951,FINISHDATE,,09/24/2015
 00532015000950,FINISHDATE,,09/22/2015
 00532015000949,FINISHDATE,,10/23/2015
 00532015000948,FINISHDATE,,01/20/2016
 00532015000947,FINISHDATE,,09/23/2015
 00532015000946,BENEFITTERMDATE,,09/21/2015
 00532015000946,FINISHDATE,,09/17/2015
 00532015000945,ELIMINATIONPERIODBASIS,5568000,5568001.0
 00532015000945,ELIMINATIONPERIODTYPE,65376000,68960004.0
 00532015000945,HOSPITALIZATIONAPPIES,N,Y
 00532015000945,FINISHDATE,,11/16/2015
 00532015000944,FINISHDATE,,09/25/2015
 00532015000943,FINISHDATE,,09/21/2015
 00532015000942,FINISHDATE,,10/29/2015
 00532015000941,FINISHDATE,,11/18/2015
 00532015000940,FINISHDATE,,11/03/2015
 00532015000939,FINISHDATE,,12/09/2015
 00532015000938,FINISHDATE,,09/21/2015
 00532015000937,FINISHDATE,,11/13/2015
 00532015000936,FINISHDATE,,09/18/2015
 00532015000935,FINISHDATE,,09/16/2015
 00532015000934,FINISHDATE,,09/16/2015
 00532015000933,FINISHDATE,,10/26/2015
 00532015000932,FINISHDATE,,09/25/2015
 00532015000931,FINISHDATE,,09/15/2015
 00532015000930,FINISHDATE,,12/11/2015
 00532015000929,FINISHDATE,,02/22/2016
 00532015000928,FINISHDATE,,09/23/2015
 00532015000927,FINISHDATE,,10/06/2015
 00532015000926,FINISHDATE,,09/16/2015
 00532015000925,FINISHDATE,,10/07/2015
 00532015000924,FINISHDATE,,11/02/2015
 00532015000923,FINISHDATE,,09/24/2015
 00532015000922,FINISHDATE,,12/02/2015
 00532015000921,BENEFITTERMDATE,,11/22/2015
 00532015000921,FINISHDATE,,11/13/2015
 00532015000920,FINISHDATE,,11/16/2015
 00532015000919,FINISHDATE,,12/05/2015
 00532015000918,FINISHDATE,,11/03/2015
 00532015000917,FINISHDATE,,12/31/2015
 00532015000916,FINISHDATE,,01/29/2016
 00532015000915,FINISHDATE,,09/17/2015
 00532015000914,PARTIALDISABILITYENDDATE,,11/04/2015
 00532015000914,PARTIALDISABILITYSTARTDATE,,08/03/2015
 00532015000914,PARTIALDISABILITYEMPLOYER,70496000,70496006.0
 00532015000914,FINISHDATE,,11/10/2015
 00532015000913,FINISHDATE,,11/05/2015
 00532015000912,FINISHDATE,,10/05/2015
 00532015000911,FINISHDATE,,09/24/2015
 00532015000910,FINISHDATE,,09/15/2015
 00532015000909,FINISHDATE,,11/03/2015
 00532015000908,FINISHDATE,,09/14/2015
 00532015000907,FINISHDATE,,01/20/2016
 00532015000906,FINISHDATE,,09/15/2015
 00532015000905,PARTIALDISABILITYSTARTDATE,,11/30/2015
 00532015000905,PARTIALDISABILITYEMPLOYER,70496000,70496006.0
 00532015000905,FINISHDATE,,12/17/2015
 00532015000904,FINISHDATE,,10/21/2015
 00532015000903,FINISHDATE,,10/05/2015
 00532015000902,FINISHDATE,,09/28/2015
 00532015000901,FINISHDATE,,11/03/2015
 00532015000900,FINISHDATE,,10/26/2015
 00532015000899,FINISHDATE,,10/26/2015
 00532015000898,FINISHDATE,,01/13/2016
 00532015000897,FINISHDATE,,12/08/2015
 00532015000896,FINISHDATE,,10/06/2015
 00532015000895,FINISHDATE,,03/02/2016
 00532015000894,FINISHDATE,,09/22/2015
 00532015000893,FINISHDATE,,11/17/2015
 00532015000892,FINISHDATE,,10/21/2015
 00532015000890,FINISHDATE,,10/05/2015
 00532015000889,FINISHDATE,,09/21/2015
 00532015000888,FINISHDATE,,09/17/2015
 00532015000887,FINISHDATE,,09/14/2015
 00532015000886,FINISHDATE,,09/23/2015
 00532015000885,BENEFITTERMDATE,10/14/2015,11/12/2015
 00532015000885,FINISHDATE,,12/03/2015
 00532015000884,FINISHDATE,,10/21/2015
 00532015000883,FINISHDATE,,09/15/2015
 00532015000882,FINISHDATE,,10/12/2015
 00532015000881,FINISHDATE,,10/05/2015
 00532015000880,FINISHDATE,,10/06/2015
 00532015000879,FINISHDATE,,09/20/2015
 00532015000878,FINISHDATE,,11/10/2015
 00532015000877,FINISHDATE,,11/24/2015
 00532015000876,FINISHDATE,,02/25/2016
 00532015000875,BENEFITTERMDATE,,10/11/2015
 00532015000875,FINISHDATE,,10/06/2015
 00532015000874,FINISHDATE,,09/17/2015
 00532015000873,FINISHDATE,,09/28/2015
 00532015000872,FINISHDATE,,12/14/2015
 00532015000871,FINISHDATE,,09/22/2015
 00532015000870,FINISHDATE,,01/13/2016
 00532015000869,FINISHDATE,,09/22/2015
 00532015000868,FINISHDATE,,09/14/2015
 00532015000867,FINISHDATE,,10/06/2015
 00532015000866,FINISHDATE,,11/10/2015
 00532015000865,FINISHDATE,,09/21/2015
 00532015000864,FINISHDATE,,10/02/2015
 00532015000863,FINISHDATE,,01/09/2016
 00532015000862,FINISHDATE,,10/26/2015
 00532015000861,FINISHDATE,,10/20/2015
 00532015000860,FINISHDATE,,09/18/2015
 00532015000859,FINISHDATE,,09/30/2015
 00532015000858,FINISHDATE,,10/05/2015
 00532015000857,FINISHDATE,,11/30/2015
 00532015000856,FINISHDATE,,11/16/2015
 00532015000855,FINISHDATE,,09/22/2015
 00532015000854,ELIMINATIONPERIODBASIS,5568000,5568001.0
 00532015000854,ELIMINATIONPERIODTYPE,65376000,68960004.0
 00532015000854,HOSPITALIZATIONAPPIES,N,Y
 00532015000854,FINISHDATE,,10/21/2015
 00532015000853,FINISHDATE,,11/12/2015
 00532015000852,FINISHDATE,,12/07/2015
 00532015000851,FINISHDATE,,12/07/2015
 00532015000850,FINISHDATE,,11/13/2015
 00532015000849,FINISHDATE,,09/11/2015
 00532015000848,FINISHDATE,,01/22/2016
 00532015000847,PARTIALDISABILITYENDDATE,,10/02/2015
 00532015000847,PARTIALDISABILITYSTARTDATE,,09/19/2015
 00532015000847,PARTIALDISABILITYEMPLOYER,70496000,70524004.0
 00532015000847,FINISHDATE,,02/23/2016
 00532015000846,FINISHDATE,,09/15/2015
 00532015000845,FINISHDATE,,09/10/2015
 00532015000844,FINISHDATE,,11/11/2015
 00532015000843,FINISHDATE,,01/21/2016
 00532015000842,FINISHDATE,,09/28/2015
 00532015000841,BENEFITTERMDATE,,08/15/2015
 00532015000841,FINISHDATE,,12/07/2015
 00532015000840,FINISHDATE,,10/30/2015
 00532015000839,FINISHDATE,,12/10/2015
 00532015000838,FINISHDATE,,12/11/2015
 00532015000837,FINISHDATE,,09/25/2015
 00532015000836,BENEFITTERMDATE,,09/28/2015
 00532015000836,FINISHDATE,,09/30/2015
 00532015000835,ELIMINATIONPERIODBASIS,5568000,5568001.0
 00532015000835,ELIMINATIONPERIODTYPE,65376000,68960004.0
 00532015000835,BENEFITTERMDATE,11/17/2015,02/10/2016
 00532015000835,HOSPITALIZATIONAPPIES,N,Y
 00532015000835,FINISHDATE,,01/12/2016
 00532015000834,FINISHDATE,,09/10/2015
 00532015000833,FINISHDATE,,09/11/2015
 00532015000832,FINISHDATE,,10/19/2015
 00532015000831,FINISHDATE,,09/09/2015
 00532015000830,BENEFITTERMDATE,,08/07/2015
 00532015000830,FINISHDATE,,09/24/2015
 00532015000829,FINISHDATE,,10/02/2015
 00532015000828,FINISHDATE,,09/09/2015
 00532015000827,FINISHDATE,,02/02/2016
 00532015000826,FINISHDATE,,09/17/2015
 00532015000825,BENEFITTERMDATE,09/09/2015,09/21/2015
 00532015000825,FINISHDATE,,10/05/2015
 00532015000824,FINISHDATE,,10/05/2015
 00532015000823,FINISHDATE,,10/21/2015
 00532015000822,FINISHDATE,,11/10/2015
 00532015000821,ELIMINATIONPERIODBASIS,5568000,5568001.0
 00532015000821,ELIMINATIONPERIODTYPE,65376000,68960004.0
 00532015000821,HOSPITALIZATIONAPPIES,N,Y
 00532015000821,FINISHDATE,,11/30/2015
 00532015000820,FINISHDATE,,09/23/2015
 00532015000819,FINISHDATE,,09/30/2015
 00532015000818,FINISHDATE,,10/07/2015
 00532015000817,FINISHDATE,,10/13/2015
 00532015000816,FINISHDATE,,04/05/2016
 00532015000815,FINISHDATE,,12/18/2015
 00532015000814,FINISHDATE,,09/16/2015
 00532015000813,FINISHDATE,,09/10/2015
 00532015000812,FINISHDATE,,11/09/2015
 00532015000811,FINISHDATE,,12/05/2015
 00532015000810,FINISHDATE,,09/14/2015
 00532015000809,FINISHDATE,,11/20/2015
 00532015000807,FINISHDATE,,09/15/2015
 00532015000806,FINISHDATE,,09/10/2015
 00532015000805,FINISHDATE,,10/15/2015
 00532015000804,FINISHDATE,,10/01/2015
 00532015000803,FINISHDATE,,09/16/2015
 00532015000802,FINISHDATE,,09/11/2015
 00532015000801,FINISHDATE,,10/29/2015
 00532015000800,FINISHDATE,,09/10/2015
 00532015000799,PARTIALDISABILITYENDDATE,,09/30/2015
 00532015000799,PARTIALDISABILITYSTARTDATE,,09/16/2015
 00532015000799,PARTIALDISABILITYEMPLOYER,70496000,70496006.0
 00532015000799,FINISHDATE,,09/29/2015
 00532015000798,FINISHDATE,,09/24/2015
 00532015000797,FINISHDATE,,12/30/2015
