CaseNo,ColumnName,FinVal,ArenaVal
 00532015001325,RETURNTOWORKPARTTIMEDATE,,02/29/2016
 00532015001321,RETURNTOWORKPARTTIMEDATE,,10/28/2015
 00532015001304,RETURNTOWORKPARTTIMEDATE,,12/01/2015
 00532015001299,PDI_SALARY_FREQUENCY,,5152001
 00532015001293,RETURNTOWORKPARTTIMEDATE,,11/16/2015
 00532015001291,RETURNTOWORKPARTTIMEDATE,,10/26/2015
 00532015001282,RETURNTOWORKPARTTIMEDATE,,10/19/2015
 00532015001280,RETURNTOWORKPARTTIMEDATE,,11/23/2015
 00532015001278,RETURNTOWORKPARTTIMEDATE,,11/13/2015
 00532015001276,PDI_SALARY_FREQUENCY,,5152001
 00532015001267,RETURNTOWORKPARTTIMEDATE,,10/26/2015
 00532015001266,RETURNTOWORKPARTTIMEDATE,,10/12/2015
 00532015001264,RETURNTOWORKPARTTIMEDATE,,10/15/2015
 00532015001263,RETURNTOWORKPARTTIMEDATE,,11/23/2015
 00532015001260,RETURNTOWORKPARTTIMEDATE,,01/25/2016
 00532015001250,RETURNTOWORKPARTTIMEDATE,,10/05/2015
 00532015001249,RETURNTOWORKPARTTIMEDATE,,10/22/2015
 00532015001246,RETURNTOWORKPARTTIMEDATE,,12/01/2015
 00532015001245,RETURNTOWORKPARTTIMEDATE,,10/12/2015
 00532015001240,RETURNTOWORKPARTTIMEDATE,,10/20/2015
 00532015001133,PDI_SALARY_FREQUENCY,,5152001
 00532015001131,RETURNTOWORKPARTTIMEDATE,,09/28/2015
 00532015001124,RETURNTOWORKPARTTIMEDATE,,12/20/2015
 00532015001122,RETURNTOWORKPARTTIMEDATE,,11/16/2015
 00532015001105,RETURNTOWORKPARTTIMEDATE,,12/09/2015
 00532015001100,RETURNTOWORKPARTTIMEDATE,,10/27/2015
 00532015001096,RETURNTOWORKPARTTIMEDATE,,11/09/2015
 00532015001094,RETURNTOWORKPARTTIMEDATE,,09/14/2015
 00532015001091,RETURNTOWORKPARTTIMEDATE,,12/07/2015
 00532015001090,RETURNTOWORKPARTTIMEDATE,,09/23/2015
 00532015001078,RETURNTOWORKPARTTIMEDATE,,11/23/2015
 00532015001072,RETURNTOWORKPARTTIMEDATE,,09/08/2015
 00532015001069,RETURNTOWORKPARTTIMEDATE,,10/30/2015
 00532015001058,RETURNTOWORKPARTTIMEDATE,,08/24/2015
 00532015001057,RETURNTOWORKPARTTIMEDATE,,08/24/2015
 00532015001052,RETURNTOWORKPARTTIMEDATE,,11/02/2015
 00532015001041,RETURNTOWORKPARTTIMEDATE,,09/11/2015
 00532015001035,RETURNTOWORKPARTTIMEDATE,,10/20/2015
 00532015001034,RETURNTOWORKPARTTIMEDATE,,09/21/2015
 00532015001022,RETURNTOWORKPARTTIMEDATE,,11/23/2015
 00532015001018,RETURNTOWORKPARTTIMEDATE,,11/04/2015
 00532015001017,RETURNTOWORKPARTTIMEDATE,,12/07/2015
 00532015001016,RETURNTOWORKPARTTIMEDATE,,12/22/2015
 00532015001013,RETURNTOWORKPARTTIMEDATE,,11/09/2015
 00532015001011,PDI_SALARY_FREQUENCY,,5152001
 00532015001007,RETURNTOWORKPARTTIMEDATE,,11/09/2015
 00532015001001,RETURNTOWORKPARTTIMEDATE,,10/26/2015
 00532015001000,RETURNTOWORKPARTTIMEDATE,,11/30/2015
 00532015000998,RETURNTOWORKPARTTIMEDATE,,11/16/2015
 00532015000992,RETURNTOWORKPARTTIMEDATE,,10/12/2015
 00532015000985,RETURNTOWORKPARTTIMEDATE,,11/12/2015
 00532015000978,RETURNTOWORKPARTTIMEDATE,,09/08/2015
 00532015000977,RETURNTOWORKPARTTIMEDATE,,12/15/2015
 00532015000973,RETURNTOWORKPARTTIMEDATE,,09/08/2015
 00532015000964,RETURNTOWORKPARTTIMEDATE,,12/07/2015
 00532015000961,PDI_SALARY_FREQUENCY,,5152001
 00532015000959,RETURNTOWORKPARTTIMEDATE,,12/21/2015
 00532015000955,RETURNTOWORKPARTTIMEDATE,,09/28/2015
 00532015000950,RETURNTOWORKPARTTIMEDATE,,09/20/2015
 00532015000945,RETURNTOWORKPARTTIMEDATE,,08/17/2015
 00532015000939,RETURNTOWORKPARTTIMEDATE,,11/16/2015
 00532015000935,RETURNTOWORKPARTTIMEDATE,,09/08/2015
 00532015000924,RETURNTOWORKPARTTIMEDATE,,11/02/2015
 00532015000919,RETURNTOWORKPARTTIMEDATE,,11/23/2015
 00532015000906,RETURNTOWORKPARTTIMEDATE,,09/03/2015
 00532015000901,RETURNTOWORKPARTTIMEDATE,,11/02/2015
 00532015000894,RETURNTOWORKPARTTIMEDATE,,10/01/2015
 00532015000893,RETURNTOWORKPARTTIMEDATE,,11/16/2015
 00532015000885,RETURNTOWORKPARTTIMEDATE,,10/09/2015
 00532015000884,RETURNTOWORKPARTTIMEDATE,,09/28/2015
 00532015000861,RETURNTOWORKPARTTIMEDATE,,10/09/2015
 00532015000859,RETURNTOWORKPARTTIMEDATE,,09/28/2015
 00532015000857,RETURNTOWORKPARTTIMEDATE,,11/16/2015
 00532015000855,RETURNTOWORKPARTTIMEDATE,,09/21/2015
 00532015000834,RETURNTOWORKPARTTIMEDATE,,09/21/2015
 00532015000833,RETURNTOWORKPARTTIMEDATE,,09/08/2015
 00532015000720,RETURNTOWORKPARTTIMEDATE,,08/20/2015
 00532015000712,RETURNTOWORKPARTTIMEDATE,,08/24/2015
 00532015000710,RETURNTOWORKPARTTIMEDATE,,11/04/2015
 00532015000709,PDI_SALARY_FREQUENCY,,5152001
 00532015000707,RETURNTOWORKPARTTIMEDATE,,09/15/2015
 00532015000704,RETURNTOWORKPARTTIMEDATE,,08/03/2015
 00532015000701,PDI_SALARY_FREQUENCY,,5152001
 00532015000699,RETURNTOWORKPARTTIMEDATE,,09/08/2015
 00532015000697,RETURNTOWORKPARTTIMEDATE,,09/28/2015
 00532015000694,RETURNTOWORKPARTTIMEDATE,,09/23/2015
 00532015000689,RETURNTOWORKPARTTIMEDATE,,08/31/2015
 00532015000686,PDI_SALARY_FREQUENCY,,5152001
 00532015000682,RETURNTOWORKPARTTIMEDATE,,10/12/2015
 00532015000679,RETURNTOWORKPARTTIMEDATE,,08/17/2015
 00532015000676,RETURNTOWORKPARTTIMEDATE,,09/25/2015
 00532015000669,RETURNTOWORKPARTTIMEDATE,,10/22/2015
 00532015000660,RETURNTOWORKPARTTIMEDATE,,09/10/2015
 00532015000643,RETURNTOWORKPARTTIMEDATE,,08/03/2015
 00532015000636,RETURNTOWORKPARTTIMEDATE,,11/12/2015
 00532015000614,RETURNTOWORKPARTTIMEDATE,,12/08/2015
 00532015000613,RETURNTOWORKPARTTIMEDATE,,01/04/2016
 00532015000610,RETURNTOWORKPARTTIMEDATE,,08/31/2015
 00532015000607,RETURNTOWORKPARTTIMEDATE,,11/16/2015
 00532015000594,RETURNTOWORKPARTTIMEDATE,,11/18/2015
 00532015000587,RETURNTOWORKPARTTIMEDATE,,08/31/2015
 00532015000583,RETURNTOWORKPARTTIMEDATE,,10/05/2015
 00532015000578,RETURNTOWORKPARTTIMEDATE,,11/17/2015
 00532015000573,RETURNTOWORKPARTTIMEDATE,,10/05/2015
 00532015000557,RETURNTOWORKPARTTIMEDATE,,09/08/2015
 00532015000554,RETURNTOWORKPARTTIMEDATE,,12/07/2015
 00532015000532,RETURNTOWORKPARTTIMEDATE,,08/10/2015
 00532015000522,RETURNTOWORKPARTTIMEDATE,,09/10/2015
