CaseNo,ColumnName,FinVal,ArenaVal
00532019007751,AMOUNT,207.69,-254.31
00532019007751,NAME,GROSS BENEFIT,VOLUNTARY GROSS ADJ (NEG)
00532019007751,TYPE,Auto Gross Entitlement,Other
00532019007751,STARTDATE,07/05/2019,06/28/2019
00532019007748,NAME,VOLUNTARY GROSS ADJ (NEG),NON PAYABLE PERIOD DUE TO RECURRENT PROV
00532019007748,AMOUNT,-384.00,384.0
00532019007748,NAME,VOLUNTARY GROSS ADJ (NEG),GROSS BENEFIT
00532019007748,TYPE,Other,Auto Gross Entitlement
00532019007748,ENDDATE,11/06/2019,
00532019007748,STARTDATE,11/04/2019,10/28/2019
00532019007746,AMOUNT,334.62,-56.99
00532019007746,NAME,GROSS BENEFIT,VOLUNTARY GROSS ADJ (NEG)
00532019007746,TYPE,Auto Gross Entitlement,Other
00532019007746,STARTDATE,06/20/2019,06/13/2019
00532019007744,AMOUNT,300.00,-46.15
00532019007744,NAME,GROSS BENEFIT,VOLUNTARY GROSS ADJ (NEG)
00532019007744,TYPE,Auto Gross Entitlement,Other
00532019007744,STARTDATE,06/26/2019,06/19/2019
00532019007743,AMOUNT,750.00,-750.0
00532019007743,NAME,GROSS BENEFIT,SALARY CONTINUANCE
00532019007743,TYPE,Auto Gross Entitlement,Salary Continuance
00532019007743,ENDDATE,,07/15/2019
00532019007743,STARTDATE,07/09/2019,06/25/2019
00532019007741,AMOUNT,461.54,-0.46
00532019007741,NAME,GROSS BENEFIT,VOLUNTARY GROSS ADJ (NEG)
00532019007741,TYPE,Auto Gross Entitlement,Other
00532019007741,STARTDATE,07/19/2019,07/09/2019
00532019007736,AMOUNT,627.19,-627.19
00532019007736,NAME,GROSS BENEFIT,SALARY CONTINUANCE
00532019007736,TYPE,Auto Gross Entitlement,Salary Continuance
00532019007736,ENDDATE,,07/20/2019
00532019007736,STARTDATE,06/28/2019,06/14/2019
00532019007734,NAME,VOLUNTARY GROSS ADJ (NEG),PRE EX BENEFIT
00532019007734,AMOUNT,-304.68,101.56
00532019007734,NAME,VOLUNTARY GROSS ADJ (NEG),GROSS BENEFIT
00532019007734,TYPE,Other,Auto Gross Entitlement
00532019007730,AMOUNT,100.00,-219.2
00532019007730,NAME,GROSS BENEFIT,VOLUNTARY GROSS ADJ (NEG)
00532019007730,TYPE,Auto Gross Entitlement,Other
00532019007729,AMOUNT,392.31,-69.69
00532019007729,NAME,GROSS BENEFIT,VOLUNTARY GROSS ADJ (NEG)
00532019007729,TYPE,Auto Gross Entitlement,Other
00532019007729,STARTDATE,07/10/2019,07/03/2019
00532019007726,AMOUNT,400.00,-100.0
00532019007726,NAME,GROSS BENEFIT,VOLUNTARY GROSS ADJ (NEG)
00532019007726,TYPE,Auto Gross Entitlement,Other
00532019007721,AMOUNT,370.80,-618.0
00532019007721,NAME,GROSS BENEFIT,SALARY CONTINUANCE
00532019007721,TYPE,Auto Gross Entitlement,Salary Continuance
00532019007721,ENDDATE,,06/21/2019
00532019007721,STARTDATE,06/17/2019,06/10/2019
00532019007719,NAME,VOLUNTARY GROSS ADJ (NEG),NON PAYABLE PERIOD DUE TO RECURRENT PROV
00532019007719,AMOUNT,-373.24,373.24
00532019007719,NAME,VOLUNTARY GROSS ADJ (NEG),GROSS BENEFIT
00532019007719,TYPE,Other,Auto Gross Entitlement
00532019007719,ENDDATE,06/20/2019,
00532019007719,STARTDATE,06/15/2019,06/12/2019
00532019007709,AMOUNT,230.77,-68.79
00532019007709,NAME,GROSS BENEFIT,VOLUNTARY GROSS ADJ (NEG)
00532019007709,TYPE,Auto Gross Entitlement,Other
00532019007709,STARTDATE,07/24/2019,07/17/2019
00532019007702,AMOUNT,62.50,-231.23
00532019007702,NAME,GROSS BENEFIT,VOLUNTARY GROSS ADJ (NEG)
00532019007702,TYPE,Auto Gross Entitlement,Other
00532019007702,STARTDATE,08/13/2019,08/06/2019
00532019007702,AMOUNT,62.50,-168.27
00532019007702,NAME,GROSS BENEFIT,PRE EX BENEFIT
00532019007702,TYPE,Auto Gross Entitlement,Other
00532019007702,STARTDATE,08/13/2019,08/06/2019
00532019007697,AMOUNT,138.46,-323.54
00532019007697,NAME,GROSS BENEFIT,VOLUNTARY GROSS ADJ (NEG)
00532019007697,TYPE,Auto Gross Entitlement,Other
00532019007697,STARTDATE,09/04/2019,08/28/2019
00532019007694,AMOUNT,-558.77,614.07
00532019007694,NAME,,GROSS BENEFIT
00532019007694,TYPE,Partial Return To Work Offset,Auto Gross Entitlement
00532019007694,ENDDATE,10/03/2019,
00532019007694,STARTDATE,09/30/2019,07/03/2019
00532019007693,AMOUNT,62.50,-156.75
00532019007693,NAME,GROSS BENEFIT,VOLUNTARY GROSS ADJ (NEG)
00532019007693,TYPE,Auto Gross Entitlement,Other
00532019007693,STARTDATE,05/29/2019,05/22/2019
00532019007693,AMOUNT,62.50,-168.27
00532019007693,NAME,GROSS BENEFIT,PRE EX BENEFIT
00532019007693,TYPE,Auto Gross Entitlement,Other
00532019007693,STARTDATE,05/29/2019,05/22/2019
00532019007685,AMOUNT,700.00,-86.0
00532019007685,NAME,GROSS BENEFIT,VOLUNTARY GROSS ADJ (NEG)
00532019007685,TYPE,Auto Gross Entitlement,Other
00532019007685,STARTDATE,06/25/2019,06/18/2019
00532019007683,AMOUNT,230.77,-223.57
00532019007683,NAME,GROSS BENEFIT,VOLUNTARY GROSS ADJ (NEG)
00532019007683,TYPE,Auto Gross Entitlement,Other
00532019007683,STARTDATE,06/09/2019,06/02/2019
00532019007681,AMOUNT,580.52,-580.52
00532019007681,NAME,GROSS BENEFIT,SALARY CONTINUANCE
00532019007681,TYPE,Auto Gross Entitlement,Salary Continuance
00532019007681,ENDDATE,,06/30/2019
00532019007681,STARTDATE,06/30/2019,06/12/2019
00532019007680,AMOUNT,-20.79,342.0
00532019007680,NAME,,GROSS BENEFIT
00532019007680,TYPE,Health & Welfare Premium Deduction,Auto Gross Entitlement
00532019007680,NAME,,HEALTH & WELFARE PREMIUM DEDUCTION (NEGATIVE)
00532019007680,STARTDATE,06/28/2019,06/21/2019
00532019007679,AMOUNT,750.00,-1252.0
00532019007679,NAME,GROSS BENEFIT,STATE DISABILITY PLAN
00532019007679,TYPE,Auto Gross Entitlement,State Disability
00532019007679,STARTDATE,06/28/2019,06/13/2019
00532019007677,AMOUNT,200.00,-124.0
00532019007677,NAME,GROSS BENEFIT,VOLUNTARY GROSS ADJ (NEG)
00532019007677,TYPE,Auto Gross Entitlement,Other
00532019007677,STARTDATE,07/26/2019,07/19/2019
00532019007669,AMOUNT,-10.00,350.0
00532019007669,NAME,VOLUNTARY GROSS ADJ (NEG),GROSS BENEFIT
00532019007669,TYPE,Other,Auto Gross Entitlement
00532019007665,AMOUNT,82.38,-400.0
00532019007665,NAME,GROSS BENEFIT,VOLUNTARY GROSS ADJ (NEG)
00532019007665,TYPE,Auto Gross Entitlement,Other
00532019007665,STARTDATE,06/28/2019,06/21/2019
00532019007663,AMOUNT,-300.00,600.0
00532019007663,NAME,,GROSS BENEFIT
00532019007663,TYPE,Partial Return To Work Offset,Auto Gross Entitlement
00532019007663,ENDDATE,11/01/2019,
00532019007663,STARTDATE,10/17/2019,06/08/2019
00532019007663,AMOUNT,-300.00,-25.6
00532019007663,NAME,,VOLUNTARY GROSS ADJ (NEG)
00532019007663,TYPE,Partial Return To Work Offset,Other
00532019007663,ENDDATE,11/01/2019,
00532019007663,STARTDATE,10/17/2019,05/24/2019
00532019007661,AMOUNT,400.00,-100.0
00532019007661,NAME,GROSS BENEFIT,VOLUNTARY GROSS ADJ (NEG)
00532019007661,TYPE,Auto Gross Entitlement,Other
00532019007661,STARTDATE,05/20/2019,05/13/2019
00532019007658,AMOUNT,500.00,-75.68
00532019007658,NAME,GROSS BENEFIT,VOLUNTARY GROSS ADJ (NEG)
00532019007658,TYPE,Auto Gross Entitlement,Other
00532019007658,STARTDATE,06/22/2019,06/15/2019
00532019007657,AMOUNT,-55.22,230.77
00532019007657,NAME,VOLUNTARY GROSS ADJ (NEG),GROSS BENEFIT
00532019007657,TYPE,Other,Auto Gross Entitlement
00532019007653,AMOUNT,-231.23,230.77
00532019007653,NAME,VOLUNTARY GROSS ADJ (NEG),GROSS BENEFIT
00532019007653,TYPE,Other,Auto Gross Entitlement
00532019007652,AMOUNT,500.00,-80.83
00532019007652,NAME,GROSS BENEFIT,VOLUNTARY GROSS ADJ (NEG)
00532019007652,TYPE,Auto Gross Entitlement,Other
00532019007652,STARTDATE,06/10/2019,06/03/2019
00532019007650,AMOUNT,200.00,-241.0
00532019007650,NAME,GROSS BENEFIT,VOLUNTARY GROSS ADJ (NEG)
00532019007650,TYPE,Auto Gross Entitlement,Other
00532019007650,STARTDATE,05/29/2019,05/22/2019
00532019007649,AMOUNT,230.77,-435.93
00532019007649,NAME,GROSS BENEFIT,VOLUNTARY GROSS ADJ (NEG)
00532019007649,TYPE,Auto Gross Entitlement,Other
00532019007649,STARTDATE,07/09/2019,06/25/2019
00532019007648,AMOUNT,230.00,-21.52
00532019007648,NAME,GROSS BENEFIT,VOLUNTARY GROSS ADJ (NEG)
00532019007648,TYPE,Auto Gross Entitlement,Other
00532019007648,STARTDATE,06/20/2019,06/06/2019
00532019007647,AMOUNT,-487.23,346.15
00532019007647,NAME,VOLUNTARY GROSS ADJ (NEG),GROSS BENEFIT
00532019007647,TYPE,Other,Auto Gross Entitlement
00532019007644,AMOUNT,300.00,-27.6
00532019007644,NAME,GROSS BENEFIT,VOLUNTARY GROSS ADJ (NEG)
00532019007644,TYPE,Auto Gross Entitlement,Other
00532019007644,STARTDATE,07/06/2019,06/29/2019
00532019007643,AMOUNT,600.00,-21.45
00532019007643,NAME,GROSS BENEFIT,VOLUNTARY GROSS ADJ (NEG)
00532019007643,TYPE,Auto Gross Entitlement,Other
00532019007643,STARTDATE,06/28/2019,06/21/2019
00532019007639,AMOUNT,-231.23,230.77
00532019007639,NAME,VOLUNTARY GROSS ADJ (NEG),GROSS BENEFIT
00532019007639,TYPE,Other,Auto Gross Entitlement
00532019007638,AMOUNT,-271.35,230.77
00532019007638,NAME,VOLUNTARY GROSS ADJ (NEG),GROSS BENEFIT
00532019007638,TYPE,Other,Auto Gross Entitlement
00532019007633,AMOUNT,400.00,-64.16
00532019007633,NAME,GROSS BENEFIT,VOLUNTARY GROSS ADJ (NEG)
00532019007633,TYPE,Auto Gross Entitlement,Other
00532019007633,STARTDATE,07/15/2019,07/01/2019
00532019007628,AMOUNT,-876.56,200.0
00532019007628,NAME,SALARY CONTINUANCE,GROSS BENEFIT
00532019007628,TYPE,Salary Continuance,Auto Gross Entitlement
00532019007628,ENDDATE,06/29/2019,
00532019007628,STARTDATE,06/27/2019,05/31/2019
00532019007628,ENDDATE,06/29/2019,06/07/2019
00532019007628,STARTDATE,06/27/2019,05/17/2019
00532019007627,AMOUNT,230.77,-231.23
00532019007627,NAME,GROSS BENEFIT,VOLUNTARY GROSS ADJ (NEG)
00532019007627,TYPE,Auto Gross Entitlement,Other
00532019007627,STARTDATE,07/04/2019,06/27/2019
00532019007626,AMOUNT,438.46,-438.46
00532019007626,NAME,GROSS BENEFIT,SALARY CONTINUANCE
00532019007626,TYPE,Auto Gross Entitlement,Salary Continuance
00532019007626,ENDDATE,,09/04/2019
00532019007626,STARTDATE,08/15/2019,08/09/2019
00532019007624,AMOUNT,230.77,-231.23
00532019007624,NAME,GROSS BENEFIT,VOLUNTARY GROSS ADJ (NEG)
00532019007624,TYPE,Auto Gross Entitlement,Other
00532019007624,STARTDATE,07/04/2019,06/27/2019
00532019007623,AMOUNT,400.00,-60.21
00532019007623,NAME,GROSS BENEFIT,VOLUNTARY GROSS ADJ (NEG)
00532019007623,TYPE,Auto Gross Entitlement,Other
00532019007623,STARTDATE,06/30/2019,06/23/2019
00532019007621,AMOUNT,-17.33,330.0
00532019007621,NAME,,GROSS BENEFIT
00532019007621,TYPE,Health & Welfare Premium Deduction,Auto Gross Entitlement
00532019007621,NAME,,HEALTH & WELFARE PREMIUM DEDUCTION (NEGATIVE)
00532019007621,STARTDATE,07/08/2019,07/01/2019
00532019007620,AMOUNT,461.54,-9.3
00532019007620,NAME,GROSS BENEFIT,VOLUNTARY GROSS ADJ (NEG)
00532019007620,TYPE,Auto Gross Entitlement,Other
00532019007620,STARTDATE,06/12/2019,06/05/2019
00532019007617,AMOUNT,230.77,-231.23
00532019007617,NAME,GROSS BENEFIT,VOLUNTARY GROSS ADJ (NEG)
00532019007617,TYPE,Auto Gross Entitlement,Other
00532019007617,STARTDATE,06/20/2019,06/14/2019
00532019007616,AMOUNT,-572.78,572.78
00532019007616,NAME,OVERPAYMENT WITHHOLDING,GROSS BENEFIT
00532019007616,TYPE,Offset Recovery,Auto Gross Entitlement
00532019007616,ENDDATE,12/15/2019,
00532019007616,STARTDATE,10/18/2019,06/30/2019
00532019007615,AMOUNT,1130.77,-121.15
00532019007615,NAME,GROSS BENEFIT,VOLUNTARY GROSS ADJ (NEG)
00532019007615,TYPE,Auto Gross Entitlement,Other
00532019007615,STARTDATE,07/02/2019,06/25/2019
00532019007614,AMOUNT,69.23,-523.33
00532019007614,NAME,GROSS BENEFIT,VOLUNTARY GROSS ADJ (NEG)
00532019007614,TYPE,Auto Gross Entitlement,Other
00532019007614,STARTDATE,06/27/2019,06/13/2019
00532019007612,AMOUNT,230.77,-4.93
00532019007612,NAME,GROSS BENEFIT,VOLUNTARY GROSS ADJ (NEG)
00532019007612,TYPE,Auto Gross Entitlement,Other
00532019007612,STARTDATE,06/18/2019,06/11/2019
00532019007611,AMOUNT,99.07,-297.22
00532019007611,NAME,GROSS BENEFIT,PRE EX BENEFIT
00532019007611,TYPE,Auto Gross Entitlement,Other
00532019007611,STARTDATE,05/21/2019,05/14/2019
00532019007610,AMOUNT,-7.48,576.92
00532019007610,NAME,VOLUNTARY GROSS ADJ (NEG),GROSS BENEFIT
00532019007610,TYPE,Other,Auto Gross Entitlement
00532019007609,AMOUNT,200.00,-81.04
00532019007609,NAME,GROSS BENEFIT,VOLUNTARY GROSS ADJ (NEG)
00532019007609,TYPE,Auto Gross Entitlement,Other
00532019007609,STARTDATE,07/11/2019,06/27/2019
00532019007592,AMOUNT,207.69,-445.14
00532019007592,NAME,GROSS BENEFIT,VOLUNTARY GROSS ADJ (NEG)
00532019007592,TYPE,Auto Gross Entitlement,Other
00532019007592,STARTDATE,05/30/2019,05/23/2019
00532019007581,AMOUNT,-263.12,322.8
00532019007581,NAME,,GROSS BENEFIT
00532019007581,TYPE,Partial Return To Work Offset,Auto Gross Entitlement
00532019007581,ENDDATE,08/05/2019,
00532019007581,STARTDATE,07/29/2019,06/03/2019
00532019007580,AMOUNT,-160.62,400.02
00532019007580,NAME,,GROSS BENEFIT
00532019007580,TYPE,Partial Return To Work Offset,Auto Gross Entitlement
00532019007580,ENDDATE,10/28/2019,
00532019007580,STARTDATE,10/21/2019,07/23/2019
00532019007580,AMOUNT,-160.62,-400.02
00532019007580,NAME,,SALARY CONTINUANCE
00532019007580,TYPE,Partial Return To Work Offset,Salary Continuance
00532019007580,ENDDATE,10/28/2019,07/31/2019
00532019007580,STARTDATE,10/21/2019,07/16/2019
00532019007578,AMOUNT,346.15,-115.85
00532019007578,NAME,GROSS BENEFIT,VOLUNTARY GROSS ADJ (NEG)
00532019007578,TYPE,Auto Gross Entitlement,Other
00532019007578,STARTDATE,04/26/2019,04/19/2019
00532019007576,AMOUNT,369.23,-10.73
00532019007576,NAME,GROSS BENEFIT,VOLUNTARY GROSS ADJ (NEG)
00532019007576,TYPE,Auto Gross Entitlement,Other
00532019007576,STARTDATE,07/03/2019,06/26/2019
00532019007566,AMOUNT,-491.77,675.02
00532019007566,NAME,SSD (PRIMARY) AWARDED - PYMT REDUCED,GROSS BENEFIT
00532019007566,TYPE,Social Security - Primary Disability,Auto Gross Entitlement
00532019007566,STARTDATE,12/01/2019,07/01/2019
00532019007566,AMOUNT,-491.77,-675.02
00532019007566,NAME,SSD (PRIMARY) AWARDED - PYMT REDUCED,SICK LEAVE
00532019007566,TYPE,Social Security - Primary Disability,Sick Leave
00532019007566,ENDDATE,,08/16/2019
00532019007566,STARTDATE,12/01/2019,06/24/2019
00532019007561,AMOUNT,500.00,-49.92
00532019007561,NAME,GROSS BENEFIT,VOLUNTARY GROSS ADJ (NEG)
00532019007561,TYPE,Auto Gross Entitlement,Other
00532019007561,STARTDATE,06/19/2019,06/12/2019
00532019007559,AMOUNT,200.00,-100.0
00532019007559,NAME,GROSS BENEFIT,VOLUNTARY GROSS ADJ (NEG)
00532019007559,TYPE,Auto Gross Entitlement,Other
00532019007556,AMOUNT,346.15,-115.85
00532019007556,NAME,GROSS BENEFIT,VOLUNTARY GROSS ADJ (NEG)
00532019007556,TYPE,Auto Gross Entitlement,Other
00532019007556,STARTDATE,06/07/2019,05/31/2019
00532019007555,AMOUNT,369.23,-324.38
00532019007555,NAME,GROSS BENEFIT,VOLUNTARY GROSS ADJ (NEG)
00532019007555,TYPE,Auto Gross Entitlement,Other
00532019007555,STARTDATE,07/17/2019,07/10/2019
00532019007553,AMOUNT,-1.88,415.38
00532019007553,NAME,VOLUNTARY GROSS ADJ (NEG),GROSS BENEFIT
00532019007553,TYPE,Other,Auto Gross Entitlement
00532019007549,AMOUNT,-0.46,461.54
00532019007549,NAME,VOLUNTARY GROSS ADJ (NEG),GROSS BENEFIT
00532019007549,TYPE,Other,Auto Gross Entitlement
00532019007547,AMOUNT,403.85,-673.08
00532019007547,NAME,GROSS BENEFIT,SALARY CONTINUANCE
00532019007547,TYPE,Auto Gross Entitlement,Salary Continuance
00532019007547,ENDDATE,,06/26/2019
00532019007546,AMOUNT,-115.85,346.15
00532019007546,NAME,VOLUNTARY GROSS ADJ (NEG),GROSS BENEFIT
00532019007546,TYPE,Other,Auto Gross Entitlement
00532019007544,AMOUNT,-226.69,115.38
00532019007544,NAME,VOLUNTARY GROSS ADJ (NEG),GROSS BENEFIT
00532019007544,TYPE,Other,Auto Gross Entitlement
00532019007543,AMOUNT,161.54,-115.26
00532019007543,NAME,GROSS BENEFIT,VOLUNTARY GROSS ADJ (NEG)
00532019007543,TYPE,Auto Gross Entitlement,Other
00532019007543,STARTDATE,07/01/2019,06/24/2019
00532019007540,AMOUNT,-54.69,369.23
00532019007540,NAME,VOLUNTARY GROSS ADJ (NEG),GROSS BENEFIT
00532019007540,TYPE,Other,Auto Gross Entitlement
00532019007538,AMOUNT,-174.17,253.85
00532019007538,NAME,VOLUNTARY GROSS ADJ (NEG),GROSS BENEFIT
00532019007538,TYPE,Other,Auto Gross Entitlement
00532019007531,NAME,VOLUNTARY GROSS ADJ (NEG),NON PAYABLE PERIOD DUE TO RECURRENT PROV
00532019007531,AMOUNT,-1000.00,1000.0
00532019007531,NAME,VOLUNTARY GROSS ADJ (NEG),GROSS BENEFIT
00532019007531,TYPE,Other,Auto Gross Entitlement
00532019007531,ENDDATE,06/28/2019,
00532019007531,STARTDATE,06/26/2019,06/25/2019
00532019007526,AMOUNT,-99.57,230.77
00532019007526,NAME,VOLUNTARY GROSS ADJ (NEG),GROSS BENEFIT
00532019007526,TYPE,Other,Auto Gross Entitlement
00532019007525,AMOUNT,-197.60,115.38
00532019007525,NAME,VOLUNTARY GROSS ADJ (NEG),GROSS BENEFIT
00532019007525,TYPE,Other,Auto Gross Entitlement
00532019007520,AMOUNT,750.00,-43.16
00532019007520,NAME,GROSS BENEFIT,PRE EX BENEFIT
00532019007520,TYPE,Auto Gross Entitlement,Other
00532019007520,STARTDATE,06/30/2019,06/23/2019
00532019007516,AMOUNT,184.62,-59.71
00532019007516,NAME,GROSS BENEFIT,VOLUNTARY GROSS ADJ (NEG)
00532019007516,TYPE,Auto Gross Entitlement,Other
00532019007516,STARTDATE,04/11/2019,04/04/2019
00532019007514,AMOUNT,230.77,-231.23
00532019007514,NAME,GROSS BENEFIT,VOLUNTARY GROSS ADJ (NEG)
00532019007514,TYPE,Auto Gross Entitlement,Other
00532019007514,STARTDATE,06/21/2019,06/14/2019
00532019007511,AMOUNT,253.85,-68.15
00532019007511,NAME,GROSS BENEFIT,VOLUNTARY GROSS ADJ (NEG)
00532019007511,TYPE,Auto Gross Entitlement,Other
00532019007511,STARTDATE,05/18/2019,05/11/2019
00532019007505,AMOUNT,276.92,-185.08
00532019007505,NAME,GROSS BENEFIT,VOLUNTARY GROSS ADJ (NEG)
00532019007505,TYPE,Auto Gross Entitlement,Other
00532019007505,STARTDATE,07/10/2019,07/03/2019
00532019007504,AMOUNT,100.00,-267.2
00532019007504,NAME,GROSS BENEFIT,VOLUNTARY GROSS ADJ (NEG)
00532019007504,TYPE,Auto Gross Entitlement,Other
00532019007504,STARTDATE,06/17/2019,06/02/2019
00532019007495,AMOUNT,-39.92,600.0
00532019007495,NAME,VOLUNTARY GROSS ADJ (NEG),GROSS BENEFIT
00532019007495,TYPE,Other,Auto Gross Entitlement
00532019007493,AMOUNT,-231.46,461.54
00532019007493,NAME,VOLUNTARY GROSS ADJ (NEG),GROSS BENEFIT
00532019007493,TYPE,Other,Auto Gross Entitlement
00532019007492,AMOUNT,507.69,-150.22
00532019007492,NAME,GROSS BENEFIT,VOLUNTARY GROSS ADJ (NEG)
00532019007492,TYPE,Auto Gross Entitlement,Other
00532019007492,STARTDATE,07/16/2019,07/02/2019
00532019007491,AMOUNT,-115.85,346.15
00532019007491,NAME,VOLUNTARY GROSS ADJ (NEG),GROSS BENEFIT
00532019007491,TYPE,Other,Auto Gross Entitlement
00532019007490,AMOUNT,-101.29,346.15
00532019007490,NAME,VOLUNTARY GROSS ADJ (NEG),GROSS BENEFIT
00532019007490,TYPE,Other,Auto Gross Entitlement
00532019007483,AMOUNT,300.00,-283.56
00532019007483,NAME,GROSS BENEFIT,VOLUNTARY GROSS ADJ (NEG)
00532019007483,TYPE,Auto Gross Entitlement,Other
00532019007483,STARTDATE,06/20/2019,06/13/2019
00532019007481,AMOUNT,-0.46,461.54
00532019007481,NAME,VOLUNTARY GROSS ADJ (NEG),GROSS BENEFIT
00532019007481,TYPE,Other,Auto Gross Entitlement
00532019007472,AMOUNT,600.00,-633.0
00532019007472,NAME,GROSS BENEFIT,STATE DISABILITY PLAN
00532019007472,TYPE,Auto Gross Entitlement,State Disability
00532019007472,STARTDATE,06/21/2019,06/07/2019
00532019007471,AMOUNT,115.38,-346.62
00532019007471,NAME,GROSS BENEFIT,VOLUNTARY GROSS ADJ (NEG)
00532019007471,TYPE,Auto Gross Entitlement,Other
00532019007471,STARTDATE,06/18/2019,06/11/2019
00532019007468,AMOUNT,276.92,-185.08
00532019007468,NAME,GROSS BENEFIT,VOLUNTARY GROSS ADJ (NEG)
00532019007468,TYPE,Auto Gross Entitlement,Other
00532019007468,STARTDATE,07/01/2019,06/24/2019
00532019007467,AMOUNT,1038.46,-28.85
00532019007467,NAME,GROSS BENEFIT,VOLUNTARY GROSS ADJ (NEG)
00532019007467,TYPE,Auto Gross Entitlement,Other
00532019007467,STARTDATE,07/26/2019,07/19/2019
00532019007464,AMOUNT,-120.09,230.77
00532019007464,NAME,VOLUNTARY GROSS ADJ (NEG),GROSS BENEFIT
00532019007464,TYPE,Other,Auto Gross Entitlement
00532019007460,AMOUNT,-267.31,230.77
00532019007460,NAME,VOLUNTARY GROSS ADJ (NEG),GROSS BENEFIT
00532019007460,TYPE,Other,Auto Gross Entitlement
00532019007454,AMOUNT,346.15,-115.85
00532019007454,NAME,GROSS BENEFIT,VOLUNTARY GROSS ADJ (NEG)
00532019007454,TYPE,Auto Gross Entitlement,Other
00532019007454,STARTDATE,06/05/2019,05/29/2019
00532019007453,AMOUNT,-192.35,576.92
00532019007453,NAME,VOLUNTARY GROSS ADJ (NEG),GROSS BENEFIT
00532019007453,TYPE,Other,Auto Gross Entitlement
00532019007452,AMOUNT,400.00,-409.35
00532019007452,NAME,GROSS BENEFIT,VOLUNTARY GROSS ADJ (NEG)
00532019007452,TYPE,Auto Gross Entitlement,Other
00532019007452,STARTDATE,06/12/2019,05/27/2019
00532019007446,AMOUNT,125.00,-0.46
00532019007446,NAME,GROSS BENEFIT,VOLUNTARY GROSS ADJ (NEG)
00532019007446,TYPE,Auto Gross Entitlement,Other
00532019007446,STARTDATE,07/04/2019,06/27/2019
00532019007446,AMOUNT,125.00,-336.54
00532019007446,NAME,GROSS BENEFIT,PRE EX BENEFIT
00532019007446,TYPE,Auto Gross Entitlement,Other
00532019007446,STARTDATE,07/04/2019,06/27/2019
00532019007441,AMOUNT,-182.76,230.77
00532019007441,NAME,VOLUNTARY GROSS ADJ (NEG),GROSS BENEFIT
00532019007441,TYPE,Other,Auto Gross Entitlement
00532019007440,AMOUNT,500.00,-51.86
00532019007440,NAME,GROSS BENEFIT,VOLUNTARY GROSS ADJ (NEG)
00532019007440,TYPE,Auto Gross Entitlement,Other
00532019007440,STARTDATE,06/25/2019,06/10/2019
00532019007439,AMOUNT,-0.46,461.54
00532019007439,NAME,VOLUNTARY GROSS ADJ (NEG),GROSS BENEFIT
00532019007439,TYPE,Other,Auto Gross Entitlement
00532019007437,AMOUNT,-20.84,253.85
00532019007437,NAME,VOLUNTARY GROSS ADJ (NEG),GROSS BENEFIT
00532019007437,TYPE,Other,Auto Gross Entitlement
00532019007433,AMOUNT,600.00,-16.42
00532019007433,NAME,GROSS BENEFIT,VOLUNTARY GROSS ADJ (NEG)
00532019007433,TYPE,Auto Gross Entitlement,Other
00532019007433,STARTDATE,06/01/2019,05/02/2019
00532019007431,AMOUNT,500.00,-4.0
00532019007431,NAME,GROSS BENEFIT,VOLUNTARY GROSS ADJ (NEG)
00532019007431,TYPE,Auto Gross Entitlement,Other
00532019007431,STARTDATE,06/15/2019,06/01/2019
00532019007430,AMOUNT,510.00,-32.79
00532019007430,NAME,GROSS BENEFIT,VOLUNTARY GROSS ADJ (NEG)
00532019007430,TYPE,Auto Gross Entitlement,Other
00532019007430,STARTDATE,06/24/2019,06/21/2019
00532019007429,AMOUNT,550.00,-72.4
00532019007429,NAME,GROSS BENEFIT,VOLUNTARY GROSS ADJ (NEG)
00532019007429,TYPE,Auto Gross Entitlement,Other
00532019007429,STARTDATE,07/10/2019,06/10/2019
00532019007426,AMOUNT,-39.18,200.0
00532019007426,NAME,VOLUNTARY GROSS ADJ (NEG),GROSS BENEFIT
00532019007426,TYPE,Other,Auto Gross Entitlement
00532019007421,AMOUNT,230.77,-242.15
00532019007421,NAME,GROSS BENEFIT,VOLUNTARY GROSS ADJ (NEG)
00532019007421,TYPE,Auto Gross Entitlement,Other
00532019007421,STARTDATE,06/08/2019,06/01/2019
00532019007420,AMOUNT,936.78,-1561.3
00532019007420,NAME,GROSS BENEFIT,SALARY CONTINUANCE
00532019007420,TYPE,Auto Gross Entitlement,Salary Continuance
00532019007420,ENDDATE,,06/21/2019
00532019007420,STARTDATE,06/13/2019,06/10/2019
00532019007414,AMOUNT,250.00,-44.0
00532019007414,NAME,GROSS BENEFIT,VOLUNTARY GROSS ADJ (NEG)
00532019007414,TYPE,Auto Gross Entitlement,Other
00532019007414,STARTDATE,07/09/2019,07/02/2019
00532019007413,AMOUNT,600.00,-47.04
00532019007413,NAME,GROSS BENEFIT,VOLUNTARY GROSS ADJ (NEG)
00532019007413,TYPE,Auto Gross Entitlement,Other
00532019007413,STARTDATE,06/18/2019,06/11/2019
00532019007411,AMOUNT,230.77,-231.23
00532019007411,NAME,GROSS BENEFIT,VOLUNTARY GROSS ADJ (NEG)
00532019007411,TYPE,Auto Gross Entitlement,Other
00532019007411,STARTDATE,06/10/2019,06/03/2019
00532019007410,ENDDATE,06/18/2019,06/11/2019
00532019007410,STARTDATE,06/17/2019,06/10/2019
00532019007410,ENDDATE,06/18/2019,06/04/2019
00532019007410,STARTDATE,06/17/2019,06/03/2019
00532019007410,ENDDATE,06/18/2019,05/30/2019
00532019007410,STARTDATE,06/17/2019,05/29/2019
00532019007410,ENDDATE,06/18/2019,05/28/2019
00532019007410,STARTDATE,06/17/2019,05/27/2019
00532019007410,NAME,SALARY CONTINUANCE,NON PAYABLE PERIOD DUE TO RECURRENT PROV
00532019007410,TYPE,Salary Continuance,Other
00532019007410,ENDDATE,06/18/2019,05/22/2019
00532019007410,STARTDATE,06/17/2019,05/15/2019
00532019007410,AMOUNT,-303.84,303.84
00532019007410,NAME,SALARY CONTINUANCE,GROSS BENEFIT
00532019007410,TYPE,Salary Continuance,Auto Gross Entitlement
00532019007410,ENDDATE,06/18/2019,
00532019007410,STARTDATE,06/17/2019,05/14/2019
00532019007409,AMOUNT,230.77,-231.23
00532019007409,NAME,GROSS BENEFIT,VOLUNTARY GROSS ADJ (NEG)
00532019007409,TYPE,Auto Gross Entitlement,Other
00532019007409,STARTDATE,06/18/2019,06/11/2019
00532019007407,AMOUNT,-231.23,230.77
00532019007407,NAME,VOLUNTARY GROSS ADJ (NEG),GROSS BENEFIT
00532019007407,TYPE,Other,Auto Gross Entitlement
00532019007405,AMOUNT,392.31,-69.69
00532019007405,NAME,GROSS BENEFIT,VOLUNTARY GROSS ADJ (NEG)
00532019007405,TYPE,Auto Gross Entitlement,Other
00532019007405,STARTDATE,05/24/2019,05/17/2019
00532019007402,AMOUNT,410.00,-40.65
00532019007402,NAME,GROSS BENEFIT,VOLUNTARY GROSS ADJ (NEG)
00532019007402,TYPE,Auto Gross Entitlement,Other
00532019007402,STARTDATE,06/12/2019,06/05/2019
00532019007399,AMOUNT,-128.16,323.08
00532019007399,NAME,VOLUNTARY GROSS ADJ (NEG),GROSS BENEFIT
00532019007399,TYPE,Other,Auto Gross Entitlement
00532019007399,STARTDATE,07/02/2019,06/15/2019
00532019007396,AMOUNT,576.92,-26.55
00532019007396,NAME,GROSS BENEFIT,VOLUNTARY GROSS ADJ (NEG)
00532019007396,TYPE,Auto Gross Entitlement,Other
00532019007396,STARTDATE,07/23/2019,07/16/2019
00532019007395,AMOUNT,346.15,-103.52
00532019007395,NAME,GROSS BENEFIT,VOLUNTARY GROSS ADJ (NEG)
00532019007395,TYPE,Auto Gross Entitlement,Other
00532019007395,STARTDATE,06/19/2019,06/18/2019
00532019007389,NAME,VOLUNTARY GROSS ADJ (NEG),NON PAYABLE PERIOD DUE TO RECURRENT PROV
00532019007389,AMOUNT,-461.54,-231.46
00532019007389,ENDDATE,05/31/2019,
00532019007389,STARTDATE,05/15/2019,03/26/2019
00532019007389,AMOUNT,-461.54,461.54
00532019007389,NAME,VOLUNTARY GROSS ADJ (NEG),GROSS BENEFIT
00532019007389,TYPE,Other,Auto Gross Entitlement
00532019007389,ENDDATE,05/31/2019,
00532019007389,STARTDATE,05/15/2019,03/26/2019
00532019007388,AMOUNT,-297.00,297.0
00532019007388,NAME,,GROSS BENEFIT
00532019007388,TYPE,Sick Leave,Auto Gross Entitlement
00532019007388,ENDDATE,06/01/2019,
00532019007388,NAME,,SICK LEAVE
00532019007384,AMOUNT,200.00,-40.0
00532019007384,NAME,GROSS BENEFIT,VOLUNTARY GROSS ADJ (NEG)
00532019007384,TYPE,Auto Gross Entitlement,Other
00532019007384,STARTDATE,05/09/2019,04/25/2019
00532019007383,AMOUNT,-100.00,100.0
00532019007383,NAME,OVERPAYMENT WITHHOLDING,GROSS BENEFIT
00532019007383,TYPE,Offset Recovery,Auto Gross Entitlement
00532019007383,ENDDATE,05/20/2019,
00532019007383,STARTDATE,05/18/2019,04/17/2019
00532019007383,NAME,OVERPAYMENT WITHHOLDING,NON PAYABLE PERIOD DUE TO RECURRENT PROV
00532019007383,TYPE,Offset Recovery,Other
00532019007383,ENDDATE,05/20/2019,05/18/2019
00532019007383,STARTDATE,05/18/2019,03/18/2019
00532019007382,AMOUNT,470.00,-17.58
00532019007382,NAME,GROSS BENEFIT,VOLUNTARY GROSS ADJ (NEG)
00532019007382,TYPE,Auto Gross Entitlement,Other
00532019007382,STARTDATE,05/28/2019,05/21/2018
00532019007378,AMOUNT,-231.23,230.77
00532019007378,NAME,VOLUNTARY GROSS ADJ (NEG),GROSS BENEFIT
00532019007378,TYPE,Other,Auto Gross Entitlement
00532019007378,STARTDATE,06/25/2019,05/28/2019
00532019007375,AMOUNT,410.88,-684.8
00532019007375,NAME,GROSS BENEFIT,SALARY CONTINUANCE
00532019007375,TYPE,Auto Gross Entitlement,Salary Continuance
00532019007375,ENDDATE,,06/28/2019
00532019007368,AMOUNT,640.03,-640.03
00532019007368,NAME,GROSS BENEFIT,SALARY CONTINUANCE
00532019007368,TYPE,Auto Gross Entitlement,Salary Continuance
00532019007368,ENDDATE,,06/27/2019
00532019007366,AMOUNT,103.85,-319.25
00532019007366,NAME,GROSS BENEFIT,VOLUNTARY GROSS ADJ (NEG)
00532019007366,TYPE,Auto Gross Entitlement,Other
00532019007366,STARTDATE,06/17/2019,06/10/2019
00532019007365,AMOUNT,369.23,-241.05
00532019007365,NAME,GROSS BENEFIT,VOLUNTARY GROSS ADJ (NEG)
00532019007365,TYPE,Auto Gross Entitlement,Other
00532019007360,AMOUNT,392.31,-26.81
00532019007360,NAME,GROSS BENEFIT,VOLUNTARY GROSS ADJ (NEG)
00532019007360,TYPE,Auto Gross Entitlement,Other
00532019007359,AMOUNT,138.46,-307.11
00532019007359,NAME,GROSS BENEFIT,VOLUNTARY GROSS ADJ (NEG)
00532019007359,TYPE,Auto Gross Entitlement,Other
00532019007359,STARTDATE,02/05/2019,01/29/2019
00532019007357,AMOUNT,230.77,-221.54
00532019007357,NAME,GROSS BENEFIT,VOLUNTARY GROSS ADJ (NEG)
00532019007357,TYPE,Auto Gross Entitlement,Other
00532019007356,NAME,VOLUNTARY GROSS ADJ (NEG),NON PAYABLE PERIOD DUE TO RECURRENT PROV
00532019007356,AMOUNT,-416.54,416.54
00532019007356,NAME,VOLUNTARY GROSS ADJ (NEG),GROSS BENEFIT
00532019007356,TYPE,Other,Auto Gross Entitlement
00532019007356,ENDDATE,07/24/2019,
00532019007356,STARTDATE,07/15/2019,06/21/2019
00532019007348,AMOUNT,307.37,-307.37
00532019007348,NAME,GROSS BENEFIT,SALARY CONTINUANCE
00532019007348,TYPE,Auto Gross Entitlement,Salary Continuance
00532019007348,ENDDATE,,07/11/2019
00532019007348,STARTDATE,06/23/2019,06/09/2019
00532019007346,AMOUNT,1127.00,-1127.0
00532019007346,NAME,GROSS BENEFIT,SALARY CONTINUANCE
00532019007346,TYPE,Auto Gross Entitlement,Salary Continuance
00532019007346,ENDDATE,,07/01/2019
00532019007345,AMOUNT,-231.23,230.77
00532019007345,NAME,VOLUNTARY GROSS ADJ (NEG),GROSS BENEFIT
00532019007345,TYPE,Other,Auto Gross Entitlement
00532019007343,AMOUNT,588.07,-882.06
00532019007343,NAME,GROSS BENEFIT,SALARY CONTINUANCE
00532019007343,TYPE,Auto Gross Entitlement,Salary Continuance
00532019007343,ENDDATE,,05/22/2019
00532019007343,STARTDATE,05/05/2019,04/20/2019
00532019007339,AMOUNT,-0.46,461.54
00532019007339,NAME,VOLUNTARY GROSS ADJ (NEG),GROSS BENEFIT
00532019007339,TYPE,Other,Auto Gross Entitlement
00532019007336,AMOUNT,500.00,-163.99
00532019007336,NAME,GROSS BENEFIT,VOLUNTARY GROSS ADJ (NEG)
00532019007336,TYPE,Auto Gross Entitlement,Other
00532019007336,STARTDATE,08/22/2019,08/15/2019
00532019007335,AMOUNT,-59.55,400.0
00532019007335,NAME,VOLUNTARY GROSS ADJ (NEG),GROSS BENEFIT
00532019007335,TYPE,Other,Auto Gross Entitlement
00532019007333,AMOUNT,-9.11,392.31
00532019007333,NAME,VOLUNTARY GROSS ADJ (NEG),GROSS BENEFIT
00532019007333,TYPE,Other,Auto Gross Entitlement
00532019007331,AMOUNT,400.00,-100.0
00532019007331,NAME,GROSS BENEFIT,VOLUNTARY GROSS ADJ (NEG)
00532019007331,TYPE,Auto Gross Entitlement,Other
00532019007331,STARTDATE,06/17/2019,06/10/2019
00532019007328,AMOUNT,280.00,-435.4
00532019007328,NAME,GROSS BENEFIT,VOLUNTARY GROSS ADJ (NEG)
00532019007328,TYPE,Auto Gross Entitlement,Other
00532019007327,AMOUNT,300.00,-159.21
00532019007327,NAME,GROSS BENEFIT,VOLUNTARY GROSS ADJ (NEG)
00532019007327,TYPE,Auto Gross Entitlement,Other
00532019007327,STARTDATE,07/05/2019,06/05/2019
00532019007324,AMOUNT,346.15,-115.85
00532019007324,NAME,GROSS BENEFIT,VOLUNTARY GROSS ADJ (NEG)
00532019007324,TYPE,Auto Gross Entitlement,Other
00532019007324,STARTDATE,04/23/2019,04/16/2019
00532019007313,AMOUNT,400.00,-378.65
00532019007313,NAME,GROSS BENEFIT,VOLUNTARY GROSS ADJ (NEG)
00532019007313,TYPE,Auto Gross Entitlement,Other
00532019007311,AMOUNT,-40.97,574.61
00532019007311,NAME,,GROSS BENEFIT
00532019007311,TYPE,Health & Welfare Premium Deduction,Auto Gross Entitlement
00532019007311,NAME,,HEALTH & WELFARE PREMIUM DEDUCTION (NEGATIVE)
00532019007311,STARTDATE,06/26/2019,06/19/2019
00532019007307,AMOUNT,115.38,-137.06
00532019007307,NAME,GROSS BENEFIT,VOLUNTARY GROSS ADJ (NEG)
00532019007307,TYPE,Auto Gross Entitlement,Other
00532019007307,STARTDATE,05/18/2019,05/04/2019
00532019007302,AMOUNT,-231.23,230.77
00532019007302,NAME,VOLUNTARY GROSS ADJ (NEG),GROSS BENEFIT
00532019007302,TYPE,Other,Auto Gross Entitlement
00532019007301,AMOUNT,623.08,-7.44
00532019007301,NAME,GROSS BENEFIT,VOLUNTARY GROSS ADJ (NEG)
00532019007301,TYPE,Auto Gross Entitlement,Other
00532019007301,STARTDATE,06/04/2019,05/28/2019
00532019007300,AMOUNT,425.00,-50.2
00532019007300,NAME,GROSS BENEFIT,VOLUNTARY GROSS ADJ (NEG)
00532019007300,TYPE,Auto Gross Entitlement,Other
00532019007300,STARTDATE,06/21/2019,06/14/2019
00532019007299,AMOUNT,230.77,-20.75
00532019007299,NAME,GROSS BENEFIT,VOLUNTARY GROSS ADJ (NEG)
00532019007299,TYPE,Auto Gross Entitlement,Other
00532019007299,STARTDATE,06/17/2019,06/15/2019
00532019007297,AMOUNT,680.40,-680.4
00532019007297,NAME,GROSS BENEFIT,SALARY CONTINUANCE
00532019007297,TYPE,Auto Gross Entitlement,Salary Continuance
00532019007297,ENDDATE,,06/16/2019
00532019007296,AMOUNT,-324.23,-252.4
00532019007296,NAME,VOLUNTARY GROSS ADJ (NEG),PRE EX BENEFIT
00532019007296,AMOUNT,-324.23,93.75
00532019007296,NAME,VOLUNTARY GROSS ADJ (NEG),GROSS BENEFIT
00532019007296,TYPE,Other,Auto Gross Entitlement
00532019007292,AMOUNT,-276.92,-81.86
00532019007292,NAME,,VOLUNTARY GROSS ADJ (NEG)
00532019007292,TYPE,Partial Return To Work Offset,Other
00532019007292,ENDDATE,09/16/2019,
00532019007292,STARTDATE,09/09/2019,05/31/2019
00532019007292,AMOUNT,-276.92,553.85
00532019007292,NAME,,GROSS BENEFIT
00532019007292,TYPE,Partial Return To Work Offset,Auto Gross Entitlement
00532019007292,ENDDATE,09/16/2019,
00532019007292,STARTDATE,09/09/2019,05/31/2019
00532019007289,AMOUNT,923.08,-0.92
00532019007289,NAME,GROSS BENEFIT,VOLUNTARY GROSS ADJ (NEG)
00532019007289,TYPE,Auto Gross Entitlement,Other
00532019007289,STARTDATE,08/08/2019,07/09/2019
00532019007288,AMOUNT,-24.72,300.0
00532019007288,NAME,VOLUNTARY GROSS ADJ (NEG),GROSS BENEFIT
00532019007288,TYPE,Other,Auto Gross Entitlement
00532019007287,AMOUNT,-122.98,300.0
00532019007287,NAME,VOLUNTARY GROSS ADJ (NEG),GROSS BENEFIT
00532019007287,TYPE,Other,Auto Gross Entitlement
00532019007286,AMOUNT,576.92,-347.08
00532019007286,NAME,GROSS BENEFIT,VOLUNTARY GROSS ADJ (NEG)
00532019007286,TYPE,Auto Gross Entitlement,Other
00532019007286,STARTDATE,06/15/2019,06/01/2019
00532019007285,AMOUNT,-90.64,700.0
00532019007285,NAME,VOLUNTARY GROSS ADJ (NEG),GROSS BENEFIT
00532019007285,TYPE,Other,Auto Gross Entitlement
00532019007282,AMOUNT,300.00,-35.28
00532019007282,NAME,GROSS BENEFIT,VOLUNTARY GROSS ADJ (NEG)
00532019007282,TYPE,Auto Gross Entitlement,Other
00532019007282,STARTDATE,07/01/2019,06/24/2019
00532019007280,AMOUNT,-79.27,300.0
00532019007280,NAME,VOLUNTARY GROSS ADJ (NEG),GROSS BENEFIT
00532019007280,TYPE,Other,Auto Gross Entitlement
00532019007279,AMOUNT,634.62,-7.34
00532019007279,NAME,GROSS BENEFIT,VOLUNTARY GROSS ADJ (NEG)
00532019007279,TYPE,Auto Gross Entitlement,Other
00532019007279,STARTDATE,07/10/2019,07/03/2019
00532019007278,AMOUNT,-231.23,230.77
00532019007278,NAME,VOLUNTARY GROSS ADJ (NEG),GROSS BENEFIT
00532019007278,TYPE,Other,Auto Gross Entitlement
00532019007277,AMOUNT,461.54,-0.46
00532019007277,NAME,GROSS BENEFIT,VOLUNTARY GROSS ADJ (NEG)
00532019007277,TYPE,Auto Gross Entitlement,Other
00532019007277,STARTDATE,06/15/2019,06/05/2019
00532019007276,AMOUNT,470.60,-339.6
00532019007276,NAME,GROSS BENEFIT,SICK LEAVE
00532019007276,TYPE,Auto Gross Entitlement,Sick Leave
00532019007276,ENDDATE,,05/12/2019
00532019007276,STARTDATE,03/29/2019,03/15/2019
00532019007275,NAME,VOLUNTARY GROSS ADJ (NEG),NON PAYABLE PERIOD DUE TO RECURRENT PROV
00532019007275,NAME,VOLUNTARY GROSS ADJ (NEG),NON PAYABLE PERIOD DUE TO RECURRENT PROV
00532019007275,ENDDATE,07/11/2019,07/08/2019
00532019007275,STARTDATE,07/10/2019,06/28/2019
00532019007275,AMOUNT,-339.60,339.6
00532019007275,NAME,VOLUNTARY GROSS ADJ (NEG),GROSS BENEFIT
00532019007275,TYPE,Other,Auto Gross Entitlement
00532019007275,ENDDATE,07/11/2019,
00532019007275,STARTDATE,07/10/2019,06/17/2019
00532019007262,AMOUNT,576.92,-347.08
00532019007262,NAME,GROSS BENEFIT,VOLUNTARY GROSS ADJ (NEG)
00532019007262,TYPE,Auto Gross Entitlement,Other
00532019007262,STARTDATE,06/04/2019,05/05/2019
00532019007260,AMOUNT,-197.57,-350.0
00532019007260,NAME,OVERPAYMENT WITHHOLDING,SALARY CONTINUANCE
00532019007260,TYPE,Offset Recovery,Salary Continuance
00532019007260,STARTDATE,06/30/2019,06/26/2019
00532019007260,AMOUNT,-197.57,702.43
00532019007260,NAME,OVERPAYMENT WITHHOLDING,GROSS BENEFIT
00532019007260,TYPE,Offset Recovery,Auto Gross Entitlement
00532019007260,ENDDATE,07/09/2019,
00532019007260,STARTDATE,06/30/2019,06/08/2019
00532019007258,AMOUNT,-511.56,919.0
00532019007258,NAME,,GROSS BENEFIT
00532019007258,TYPE,Partial Return To Work Offset,Auto Gross Entitlement
00532019007258,ENDDATE,07/15/2019,
00532019007258,STARTDATE,07/08/2019,06/08/2019
00532019007257,AMOUNT,450.00,-6.0
00532019007257,NAME,GROSS BENEFIT,VOLUNTARY GROSS ADJ (NEG)
00532019007257,TYPE,Auto Gross Entitlement,Other
00532019007257,STARTDATE,06/19/2019,06/05/2019
00532019007254,AMOUNT,-11.88,456.0
00532019007254,NAME,,GROSS BENEFIT
00532019007254,TYPE,Health & Welfare Premium Deduction,Auto Gross Entitlement
00532019007254,NAME,,HEALTH & WELFARE PREMIUM DEDUCTION (NEGATIVE)
00532019007254,STARTDATE,06/10/2019,06/01/2019
00532019007253,AMOUNT,-37.79,500.0
00532019007253,NAME,VOLUNTARY GROSS ADJ (NEG),GROSS BENEFIT
00532019007253,TYPE,Other,Auto Gross Entitlement
00532019007251,AMOUNT,-62.19,500.0
00532019007251,NAME,VOLUNTARY GROSS ADJ (NEG),GROSS BENEFIT
00532019007251,TYPE,Other,Auto Gross Entitlement
00532019007250,AMOUNT,649.51,-974.21
00532019007250,NAME,GROSS BENEFIT,SALARY CONTINUANCE
00532019007250,TYPE,Auto Gross Entitlement,Salary Continuance
00532019007250,ENDDATE,,06/27/2019
00532019007250,STARTDATE,06/02/2019,05/31/2019
00532019007249,AMOUNT,-34.13,386.4
00532019007249,NAME,,GROSS BENEFIT
00532019007249,TYPE,Health & Welfare Premium Deduction,Auto Gross Entitlement
00532019007249,NAME,,HEALTH & WELFARE PREMIUM DEDUCTION (NEGATIVE)
00532019007249,STARTDATE,06/24/2019,06/17/2019
00532019007248,AMOUNT,133.96,-400.0
00532019007248,NAME,GROSS BENEFIT,VOLUNTARY GROSS ADJ (NEG)
00532019007248,TYPE,Auto Gross Entitlement,Other
00532019007248,STARTDATE,07/20/2019,07/13/2019
00532019007246,AMOUNT,-0.46,461.54
00532019007246,NAME,VOLUNTARY GROSS ADJ (NEG),GROSS BENEFIT
00532019007246,TYPE,Other,Auto Gross Entitlement
00532019007244,AMOUNT,-23.66,850.0
00532019007244,NAME,VOLUNTARY GROSS ADJ (NEG),GROSS BENEFIT
00532019007244,TYPE,Other,Auto Gross Entitlement
00532019007240,AMOUNT,100.00,-400.0
00532019007240,NAME,GROSS BENEFIT,VOLUNTARY GROSS ADJ (NEG)
00532019007240,TYPE,Auto Gross Entitlement,Other
00532019007240,STARTDATE,06/12/2019,06/05/2019
00532019007233,AMOUNT,650.00,-13.23
00532019007233,NAME,GROSS BENEFIT,VOLUNTARY GROSS ADJ (NEG)
00532019007233,TYPE,Auto Gross Entitlement,Other
00532019007233,STARTDATE,07/09/2019,06/25/2019
00532019007228,AMOUNT,230.77,-231.23
00532019007228,NAME,GROSS BENEFIT,VOLUNTARY GROSS ADJ (NEG)
00532019007228,TYPE,Auto Gross Entitlement,Other
00532019007225,AMOUNT,650.00,-70.0
00532019007225,NAME,GROSS BENEFIT,VOLUNTARY GROSS ADJ (NEG)
00532019007225,TYPE,Auto Gross Entitlement,Other
00532019007223,AMOUNT,-231.25,372.48
00532019007223,NAME,,GROSS BENEFIT
00532019007223,TYPE,Partial Return To Work Offset,Auto Gross Entitlement
00532019007223,ENDDATE,09/15/2019,
00532019007223,STARTDATE,09/08/2019,07/17/2019
00532019007221,AMOUNT,346.15,-115.85
00532019007221,NAME,GROSS BENEFIT,VOLUNTARY GROSS ADJ (NEG)
00532019007221,TYPE,Auto Gross Entitlement,Other
00532019007220,AMOUNT,230.77,-140.59
00532019007220,NAME,GROSS BENEFIT,VOLUNTARY GROSS ADJ (NEG)
00532019007220,TYPE,Auto Gross Entitlement,Other
00532019007220,STARTDATE,04/25/2019,04/18/2019
00532019007215,NAME,,SSER (PRIMARY)
00532019007215,AMOUNT,-300.00,300.0
00532019007215,NAME,,GROSS BENEFIT
00532019007215,TYPE,Social Security - Primary Retirement,Auto Gross Entitlement
00532019007214,AMOUNT,400.00,-32.98
00532019007214,NAME,GROSS BENEFIT,VOLUNTARY GROSS ADJ (NEG)
00532019007214,TYPE,Auto Gross Entitlement,Other
00532019007214,STARTDATE,06/19/2019,06/12/2019
00532019007212,AMOUNT,75.00,-225.0
00532019007212,NAME,GROSS BENEFIT,PRE EX BENEFIT
00532019007212,TYPE,Auto Gross Entitlement,Other
00532019007212,AMOUNT,75.00,-13.04
00532019007212,NAME,GROSS BENEFIT,VOLUNTARY GROSS ADJ (NEG)
00532019007212,TYPE,Auto Gross Entitlement,Other
00532019007212,STARTDATE,06/17/2019,06/10/2019
00532019007208,AMOUNT,-32.96,346.8
00532019007208,NAME,,GROSS BENEFIT
00532019007208,TYPE,Health & Welfare Premium Deduction,Auto Gross Entitlement
00532019007208,NAME,,HEALTH & WELFARE PREMIUM DEDUCTION (NEGATIVE)
00532019007208,STARTDATE,06/28/2019,06/20/2019
00532019007204,AMOUNT,161.54,-44.07
00532019007204,NAME,GROSS BENEFIT,VOLUNTARY GROSS ADJ (NEG)
00532019007204,TYPE,Auto Gross Entitlement,Other
00532019007204,STARTDATE,06/15/2019,06/08/2019
00532019007203,AMOUNT,692.31,-184.61
00532019007203,NAME,GROSS BENEFIT,VOLUNTARY GROSS ADJ (NEG)
00532019007203,TYPE,Auto Gross Entitlement,Other
00532019007203,STARTDATE,07/13/2019,06/13/2019
00532019007201,AMOUNT,461.54,-0.46
00532019007201,NAME,GROSS BENEFIT,VOLUNTARY GROSS ADJ (NEG)
00532019007201,TYPE,Auto Gross Entitlement,Other
00532019007201,STARTDATE,08/02/2019,07/26/2019
00532019007199,AMOUNT,400.00,-10.16
00532019007199,NAME,GROSS BENEFIT,VOLUNTARY GROSS ADJ (NEG)
00532019007199,TYPE,Auto Gross Entitlement,Other
00532019007199,STARTDATE,05/20/2019,05/03/2019
00532019007196,AMOUNT,461.54,-149.16
00532019007196,NAME,GROSS BENEFIT,VOLUNTARY GROSS ADJ (NEG)
00532019007196,TYPE,Auto Gross Entitlement,Other
00532019007196,STARTDATE,06/05/2019,05/22/2019
00532019007195,AMOUNT,438.46,-10.38
00532019007195,NAME,GROSS BENEFIT,VOLUNTARY GROSS ADJ (NEG)
00532019007195,TYPE,Auto Gross Entitlement,Other
00532019007195,STARTDATE,06/19/2019,06/12/2019
00532019007192,AMOUNT,230.77,-231.23
00532019007192,NAME,GROSS BENEFIT,VOLUNTARY GROSS ADJ (NEG)
00532019007192,TYPE,Auto Gross Entitlement,Other
00532019007192,STARTDATE,01/19/2018,01/12/2018
00532019007190,AMOUNT,230.77,-144.83
00532019007190,NAME,GROSS BENEFIT,VOLUNTARY GROSS ADJ (NEG)
00532019007190,TYPE,Auto Gross Entitlement,Other
00532019007182,AMOUNT,-115.85,346.15
00532019007182,NAME,VOLUNTARY GROSS ADJ (NEG),GROSS BENEFIT
00532019007182,TYPE,Other,Auto Gross Entitlement
00532019007177,AMOUNT,692.31,-0.69
00532019007177,NAME,GROSS BENEFIT,VOLUNTARY GROSS ADJ (NEG)
00532019007177,TYPE,Auto Gross Entitlement,Other
00532019007177,STARTDATE,06/04/2019,05/28/2019
00532019007173,AMOUNT,461.54,-0.46
00532019007173,NAME,GROSS BENEFIT,VOLUNTARY GROSS ADJ (NEG)
00532019007173,TYPE,Auto Gross Entitlement,Other
00532019007173,STARTDATE,05/22/2019,05/15/2019
00532019007172,AMOUNT,320.00,-9.32
00532019007172,NAME,GROSS BENEFIT,VOLUNTARY GROSS ADJ (NEG)
00532019007172,TYPE,Auto Gross Entitlement,Other
00532019007172,STARTDATE,05/27/2019,05/13/2019
00532019007170,AMOUNT,-28.20,378.0
00532019007170,NAME,,GROSS BENEFIT
00532019007170,TYPE,Health & Welfare Premium Deduction,Auto Gross Entitlement
00532019007170,NAME,,HEALTH & WELFARE PREMIUM DEDUCTION (NEGATIVE)
00532019007170,STARTDATE,07/17/2019,07/10/2019
00532019007158,AMOUNT,207.69,-254.31
00532019007158,NAME,GROSS BENEFIT,VOLUNTARY GROSS ADJ (NEG)
00532019007158,TYPE,Auto Gross Entitlement,Other
00532019007158,STARTDATE,08/30/2019,08/23/2019
00532019007156,AMOUNT,-17.30,300.0
00532019007156,NAME,VOLUNTARY GROSS ADJ (NEG),GROSS BENEFIT
00532019007156,TYPE,Other,Auto Gross Entitlement
00532019007141,AMOUNT,253.85,-269.97
00532019007141,NAME,GROSS BENEFIT,VOLUNTARY GROSS ADJ (NEG)
00532019007141,TYPE,Auto Gross Entitlement,Other
00532019007141,STARTDATE,06/25/2019,06/18/2019
00532019007134,AMOUNT,276.92,-20.92
00532019007134,NAME,GROSS BENEFIT,VOLUNTARY GROSS ADJ (NEG)
00532019007134,TYPE,Auto Gross Entitlement,Other
00532019007134,STARTDATE,06/17/2019,06/10/2019
00532019007132,AMOUNT,-256.46,576.92
00532019007132,NAME,VOLUNTARY GROSS ADJ (NEG),GROSS BENEFIT
00532019007132,TYPE,Other,Auto Gross Entitlement
00532019007131,AMOUNT,-95.43,456.0
00532019007131,NAME,,GROSS BENEFIT
00532019007131,TYPE,Health & Welfare Premium Deduction,Auto Gross Entitlement
00532019007131,NAME,,HEALTH & WELFARE PREMIUM DEDUCTION (NEGATIVE)
00532019007131,STARTDATE,06/21/2019,06/14/2019
00532019007119,AMOUNT,-179.58,230.77
00532019007119,NAME,VOLUNTARY GROSS ADJ (NEG),GROSS BENEFIT
00532019007119,TYPE,Other,Auto Gross Entitlement
00532019007115,AMOUNT,807.69,-116.31
00532019007115,NAME,GROSS BENEFIT,VOLUNTARY GROSS ADJ (NEG)
00532019007115,TYPE,Auto Gross Entitlement,Other
00532019007115,STARTDATE,06/12/2019,05/29/2019
00532019007114,AMOUNT,230.77,-261.25
00532019007114,NAME,GROSS BENEFIT,VOLUNTARY GROSS ADJ (NEG)
00532019007114,TYPE,Auto Gross Entitlement,Other
00532019007114,STARTDATE,05/31/2019,05/24/2019
00532019007113,AMOUNT,623.08,-17.7
00532019007113,NAME,GROSS BENEFIT,VOLUNTARY GROSS ADJ (NEG)
00532019007113,TYPE,Auto Gross Entitlement,Other
00532019007113,STARTDATE,06/27/2019,06/15/2019
00532019007112,AMOUNT,-346.62,115.38
00532019007112,NAME,VOLUNTARY GROSS ADJ (NEG),GROSS BENEFIT
00532019007112,TYPE,Other,Auto Gross Entitlement
00532019007110,NAME,VOLUNTARY GROSS ADJ (NEG),NON PAYABLE PERIOD DUE TO RECURRENT PROV
00532019007110,AMOUNT,-596.45,596.45
00532019007110,NAME,VOLUNTARY GROSS ADJ (NEG),GROSS BENEFIT
00532019007110,TYPE,Other,Auto Gross Entitlement
00532019007110,ENDDATE,05/04/2019,
00532019007110,STARTDATE,05/02/2019,03/25/2019
00532019007108,AMOUNT,-0.46,461.54
00532019007108,NAME,VOLUNTARY GROSS ADJ (NEG),GROSS BENEFIT
00532019007108,TYPE,Other,Auto Gross Entitlement
00532019007104,AMOUNT,323.08,-58.73
00532019007104,NAME,GROSS BENEFIT,VOLUNTARY GROSS ADJ (NEG)
00532019007104,TYPE,Auto Gross Entitlement,Other
00532019007104,STARTDATE,06/01/2019,05/25/2019
00532019007098,AMOUNT,-74.81,230.77
00532019007098,NAME,VOLUNTARY GROSS ADJ (NEG),GROSS BENEFIT
00532019007098,TYPE,Other,Auto Gross Entitlement
00532019007094,AMOUNT,-115.85,346.15
00532019007094,NAME,VOLUNTARY GROSS ADJ (NEG),GROSS BENEFIT
00532019007094,TYPE,Other,Auto Gross Entitlement
00532019007088,AMOUNT,230.77,-122.7
00532019007088,NAME,GROSS BENEFIT,VOLUNTARY GROSS ADJ (NEG)
00532019007088,TYPE,Auto Gross Entitlement,Other
00532019007088,STARTDATE,06/15/2019,06/08/2019
00532019007087,AMOUNT,-305.42,184.62
00532019007087,NAME,VOLUNTARY GROSS ADJ (NEG),GROSS BENEFIT
00532019007087,TYPE,Other,Auto Gross Entitlement
00532019007086,AMOUNT,500.00,-246.74
00532019007086,NAME,GROSS BENEFIT,VOLUNTARY GROSS ADJ (NEG)
00532019007086,TYPE,Auto Gross Entitlement,Other
00532019007086,STARTDATE,06/25/2019,06/11/2019
00532019007085,AMOUNT,-150.00,150.0
00532019007085,NAME,SALARY CONTINUANCE,GROSS BENEFIT
00532019007085,TYPE,Salary Continuance,Auto Gross Entitlement
00532019007085,ENDDATE,06/27/2019,
00532019007085,STARTDATE,06/23/2019,06/07/2019
00532019007075,AMOUNT,62.50,-231.23
00532019007075,NAME,GROSS BENEFIT,VOLUNTARY GROSS ADJ (NEG)
00532019007075,TYPE,Auto Gross Entitlement,Other
00532019007075,STARTDATE,06/21/2019,06/14/2019
00532019007075,AMOUNT,62.50,-168.27
00532019007075,NAME,GROSS BENEFIT,PRE EX BENEFIT
00532019007075,TYPE,Auto Gross Entitlement,Other
00532019007075,STARTDATE,06/21/2019,06/14/2019
00532019007070,AMOUNT,150.00,-615.6
00532019007070,NAME,GROSS BENEFIT,SALARY CONTINUANCE
00532019007070,TYPE,Auto Gross Entitlement,Salary Continuance
00532019007070,ENDDATE,,06/21/2019
00532019007070,STARTDATE,06/18/2019,06/11/2019
00532019007069,AMOUNT,438.46,-109.22
00532019007069,NAME,GROSS BENEFIT,VOLUNTARY GROSS ADJ (NEG)
00532019007069,TYPE,Auto Gross Entitlement,Other
00532019007068,AMOUNT,250.00,-108.92
00532019007068,NAME,GROSS BENEFIT,VOLUNTARY GROSS ADJ (NEG)
00532019007068,TYPE,Auto Gross Entitlement,Other
00532019007068,STARTDATE,09/26/2019,09/23/2019
00532019007059,AMOUNT,400.00,-54.39
00532019007059,NAME,GROSS BENEFIT,VOLUNTARY GROSS ADJ (NEG)
00532019007059,TYPE,Auto Gross Entitlement,Other
00532019007059,STARTDATE,06/26/2019,06/12/2019
00532019007056,NAME,VOLUNTARY GROSS ADJ (NEG),NON PAYABLE PERIOD DUE TO RECURRENT PROV
00532019007056,AMOUNT,-540.00,540.0
00532019007056,NAME,VOLUNTARY GROSS ADJ (NEG),GROSS BENEFIT
00532019007056,TYPE,Other,Auto Gross Entitlement
00532019007056,ENDDATE,08/21/2019,
00532019007056,STARTDATE,07/29/2019,06/12/2019
00532019007054,NAME,VOLUNTARY GROSS ADJ (NEG),NON PAYABLE PERIOD DUE TO RECURRENT PROV
00532019007054,AMOUNT,-378.00,378.0
00532019007054,NAME,VOLUNTARY GROSS ADJ (NEG),GROSS BENEFIT
00532019007054,TYPE,Other,Auto Gross Entitlement
00532019007054,ENDDATE,08/30/2019,
00532019007054,STARTDATE,08/12/2019,07/08/2019
00532015000090,AMOUNT,264.00,-440.0
00532015000090,NAME,GROSS BENEFIT,SALARY CONTINUANCE
00532015000090,TYPE,Auto Gross Entitlement,Salary Continuance
00532015000090,ENDDATE,,07/16/2015
00532015000084,AMOUNT,-10.38,289.2
00532015000084,NAME,,GROSS BENEFIT
00532015000084,TYPE,Health & Welfare Premium Deduction,Auto Gross Entitlement
00532015000084,NAME,,HEALTH & WELFARE PREMIUM DEDUCTION (NEGATIVE)
00532015000084,STARTDATE,07/10/2015,07/02/2015
00532015000080,AMOUNT,-10.37,415.2
00532015000080,NAME,,GROSS BENEFIT
00532015000080,TYPE,Health & Welfare Premium Deduction,Auto Gross Entitlement
00532015000080,NAME,,HEALTH & WELFARE PREMIUM DEDUCTION (NEGATIVE)
00532015000080,ENDDATE,,07/28/2015
00532015000071,AMOUNT,-10.38,289.2
00532015000071,NAME,,GROSS BENEFIT
00532015000071,TYPE,Health & Welfare Premium Deduction,Auto Gross Entitlement
00532015000071,NAME,,HEALTH & WELFARE PREMIUM DEDUCTION (NEGATIVE)
00532015000071,ENDDATE,,07/20/2015
00532015000068,NAME,,HEALTH & WELFARE PREMIUM DEDUCTION (NEGATIVE)
00532015000068,AMOUNT,-13.09,327.6
00532015000068,NAME,,GROSS BENEFIT
00532015000068,TYPE,Health & Welfare Premium Deduction,Auto Gross Entitlement
00532015000059,NAME,,HEALTH & WELFARE PREMIUM DEDUCTION (NEGATIVE)
00532015000059,AMOUNT,-10.38,447.6
00532015000059,NAME,,GROSS BENEFIT
00532015000059,TYPE,Health & Welfare Premium Deduction,Auto Gross Entitlement
00532015000058,NAME,,HEALTH & WELFARE PREMIUM DEDUCTION (NEGATIVE)
00532015000058,AMOUNT,-49.60,495.6
00532015000058,NAME,,GROSS BENEFIT
00532015000058,TYPE,Health & Welfare Premium Deduction,Auto Gross Entitlement
00532015000053,AMOUNT,725.00,-0.51
00532015000053,NAME,GROSS BENEFIT,PENNSYLVANIA UNEMPLOYMENT TAX
00532015000053,TYPE,Auto Gross Entitlement,Unemployment
00532015000053,ENDDATE,,09/16/2015
00532015000047,AMOUNT,460.02,-690.0
00532015000047,NAME,GROSS BENEFIT,SALARY CONTINUANCE
00532015000047,TYPE,Auto Gross Entitlement,Salary Continuance
00532015000047,ENDDATE,,08/25/2015
00532015000044,AMOUNT,288.00,-263.0
00532015000044,NAME,GROSS BENEFIT,SALARY CONTINUANCE
00532015000044,TYPE,Auto Gross Entitlement,Salary Continuance
00532015000044,ENDDATE,,07/15/2015
00532015000042,NAME,,PENNSYLVANIA UNEMPLOYMENT TAX
00532015000042,AMOUNT,-0.48,682.73
00532015000042,NAME,,GROSS BENEFIT
00532015000042,TYPE,Unemployment,Auto Gross Entitlement
00532015000008,AMOUNT,200.00,-175.0
00532015000008,NAME,GROSS BENEFIT,SALARY CONTINUANCE
00532015000008,TYPE,Auto Gross Entitlement,Salary Continuance
00532015000008,ENDDATE,,08/22/2015
