CaseNo,ColumnName,FinVal,ArenaVal
 00532015001311,ALTERNATE_WAITINGPERIOD_BASIS,0,5568001.0
 00532015001311,ALTERNATE_WAITINGPERIOD_UNITS,0,30.0
 00532015001310,ALTERNATE_WAITINGPERIOD_BASIS,0,5568001.0
 00532015001310,ALTERNATE_WAITINGPERIOD_UNITS,0,60.0
 00532015001309,ALTERNATE_WAITINGPERIOD_BASIS,0,5568001.0
 00532015001309,ALTERNATE_WAITINGPERIOD_UNITS,0,90.0
 00532015001308,ALTERNATE_WAITINGPERIOD_BASIS,0,5568001.0
 00532015001308,ALTERNATE_WAITINGPERIOD_UNITS,0,30.0
 00532015001306,ALTERNATE_WAITINGPERIOD_BASIS,0,5568001.0
 00532015001306,ALTERNATE_WAITINGPERIOD_UNITS,0,90.0
 00532015001304,ALTERNATE_WAITINGPERIOD_BASIS,0,5568001.0
 00532015001304,ALTERNATE_WAITINGPERIOD_UNITS,0,30.0
 00532015001302,ALTERNATE_WAITINGPERIOD_BASIS,0,5568003.0
 00532015001302,ALTERNATE_WAITINGPERIOD_UNITS,0,1.0
 00532015001301,ALTERNATE_WAITINGPERIOD_BASIS,0,5568001.0
 00532015001301,ALTERNATE_WAITINGPERIOD_UNITS,0,90.0
 00532015001300,ALTERNATE_WAITINGPERIOD_BASIS,0,5568001.0
 00532015001300,ALTERNATE_WAITINGPERIOD_UNITS,0,90.0
 00532015001299,ALTERNATE_WAITINGPERIOD_BASIS,0,5568001.0
 00532015001299,ALTERNATE_WAITINGPERIOD_UNITS,0,60.0
 00532015001298,ALTERNATE_WAITINGPERIOD_BASIS,0,5568001.0
 00532015001298,ALTERNATE_WAITINGPERIOD_UNITS,0,60.0
 00532015001296,ALTERNATE_WAITINGPERIOD_BASIS,0,5568001.0
 00532015001296,ALTERNATE_WAITINGPERIOD_UNITS,0,30.0
 00532015001295,ALTERNATE_WAITINGPERIOD_BASIS,0,5568001.0
 00532015001295,ALTERNATE_WAITINGPERIOD_UNITS,0,90.0
 00532015001294,ALTERNATE_WAITINGPERIOD_BASIS,0,5568001.0
 00532015001294,ALTERNATE_WAITINGPERIOD_UNITS,0,60.0
 00532015001293,ALTERNATE_WAITINGPERIOD_BASIS,0,5568001.0
 00532015001293,ALTERNATE_WAITINGPERIOD_UNITS,0,60.0
 00532015001292,ALTERNATE_WAITINGPERIOD_BASIS,0,5568001.0
 00532015001292,ALTERNATE_WAITINGPERIOD_UNITS,0,60.0
 00532015001290,ALTERNATE_WAITINGPERIOD_BASIS,0,5568001.0
 00532015001290,ALTERNATE_WAITINGPERIOD_UNITS,0,60.0
 00532015001286,ALTERNATE_WAITINGPERIOD_BASIS,0,5568001.0
 00532015001286,ALTERNATE_WAITINGPERIOD_UNITS,0,60.0
 00532015001285,ALTERNATE_WAITINGPERIOD_BASIS,0,5568001.0
 00532015001285,ALTERNATE_WAITINGPERIOD_UNITS,0,60.0
 00532015001284,ALTERNATE_WAITINGPERIOD_BASIS,0,5568001.0
 00532015001284,ALTERNATE_WAITINGPERIOD_UNITS,0,30.0
 00532015001283,ALTERNATE_WAITINGPERIOD_BASIS,0,5568001.0
 00532015001283,ALTERNATE_WAITINGPERIOD_UNITS,0,60.0
 00532015001279,ALTERNATE_WAITINGPERIOD_BASIS,0,5568001.0
 00532015001279,ALTERNATE_WAITINGPERIOD_UNITS,0,90.0
 00532015001277,ALTERNATE_WAITINGPERIOD_BASIS,0,5568001.0
 00532015001277,ALTERNATE_WAITINGPERIOD_UNITS,0,30.0
 00532015001276,ALTERNATE_WAITINGPERIOD_BASIS,0,5568001.0
 00532015001276,ALTERNATE_WAITINGPERIOD_UNITS,0,30.0
 00532015001275,ALTERNATE_WAITINGPERIOD_BASIS,0,5568001.0
 00532015001275,ALTERNATE_WAITINGPERIOD_UNITS,0,30.0
 00532015001272,ALTERNATE_WAITINGPERIOD_BASIS,0,5568003.0
 00532015001272,ALTERNATE_WAITINGPERIOD_UNITS,0,6.0
 00532015001271,ALTERNATE_WAITINGPERIOD_BASIS,0,5568001.0
 00532015001271,ALTERNATE_WAITINGPERIOD_UNITS,0,180.0
 00532015001270,ALTERNATE_WAITINGPERIOD_BASIS,0,5568001.0
 00532015001270,ALTERNATE_WAITINGPERIOD_UNITS,0,60.0
 00532015001269,ALTERNATE_WAITINGPERIOD_BASIS,0,5568001.0
 00532015001269,ALTERNATE_WAITINGPERIOD_UNITS,0,30.0
 00532015001268,ALTERNATE_WAITINGPERIOD_BASIS,0,5568001.0
 00532015001268,ALTERNATE_WAITINGPERIOD_UNITS,0,60.0
 00532015001267,ALTERNATE_WAITINGPERIOD_BASIS,0,5568001.0
 00532015001267,ALTERNATE_WAITINGPERIOD_UNITS,0,90.0
 00532015001266,ALTERNATE_WAITINGPERIOD_BASIS,0,5568001.0
 00532015001266,ALTERNATE_WAITINGPERIOD_UNITS,0,30.0
 00532015001265,ALTERNATE_WAITINGPERIOD_BASIS,0,5568001.0
 00532015001265,ALTERNATE_WAITINGPERIOD_UNITS,0,90.0
 00532015001264,ALTERNATE_WAITINGPERIOD_BASIS,0,5568003.0
 00532015001264,ALTERNATE_WAITINGPERIOD_UNITS,0,3.0
 00532015001263,ALTERNATE_WAITINGPERIOD_BASIS,0,5568001.0
 00532015001263,ALTERNATE_WAITINGPERIOD_UNITS,0,90.0
 00532015001261,ALTERNATE_WAITINGPERIOD_BASIS,0,5568001.0
 00532015001261,ALTERNATE_WAITINGPERIOD_UNITS,0,90.0
 00532015001258,ALTERNATE_WAITINGPERIOD_BASIS,0,5568001.0
 00532015001258,ALTERNATE_WAITINGPERIOD_UNITS,0,90.0
 00532015001257,ALTERNATE_WAITINGPERIOD_BASIS,0,5568001.0
 00532015001257,ALTERNATE_WAITINGPERIOD_UNITS,0,30.0
 00532015001255,ALTERNATE_WAITINGPERIOD_BASIS,0,5568001.0
 00532015001255,ALTERNATE_WAITINGPERIOD_UNITS,0,90.0
 00532015001254,ALTERNATE_WAITINGPERIOD_BASIS,0,5568001.0
 00532015001254,ALTERNATE_WAITINGPERIOD_UNITS,0,90.0
 00532015001253,ALTERNATE_WAITINGPERIOD_BASIS,0,5568001.0
 00532015001253,ALTERNATE_WAITINGPERIOD_UNITS,0,90.0
 00532015001252,ALTERNATE_WAITINGPERIOD_BASIS,0,5568001.0
 00532015001252,ALTERNATE_WAITINGPERIOD_UNITS,0,90.0
 00532015001251,ALTERNATE_WAITINGPERIOD_BASIS,0,5568001.0
 00532015001251,ALTERNATE_WAITINGPERIOD_UNITS,0,60.0
 00532015001250,ALTERNATE_WAITINGPERIOD_BASIS,0,5568001.0
 00532015001250,ALTERNATE_WAITINGPERIOD_UNITS,0,60.0
 00532015001248,ALTERNATE_WAITINGPERIOD_BASIS,0,5568001.0
 00532015001248,ALTERNATE_WAITINGPERIOD_UNITS,0,60.0
 00532015001247,ALTERNATE_WAITINGPERIOD_BASIS,0,5568001.0
 00532015001247,ALTERNATE_WAITINGPERIOD_UNITS,0,60.0
 00532015001246,ALTERNATE_WAITINGPERIOD_BASIS,0,5568001.0
 00532015001246,ALTERNATE_WAITINGPERIOD_UNITS,0,30.0
 00532015001244,ALTERNATE_WAITINGPERIOD_BASIS,0,5568001.0
 00532015001244,ALTERNATE_WAITINGPERIOD_UNITS,0,30.0
 00532015001243,ALTERNATE_WAITINGPERIOD_BASIS,0,5568001.0
 00532015001243,ALTERNATE_WAITINGPERIOD_UNITS,0,30.0
 00532015001242,ALTERNATE_WAITINGPERIOD_BASIS,0,5568001.0
 00532015001242,ALTERNATE_WAITINGPERIOD_UNITS,0,30.0
 00532015001240,ALTERNATE_WAITINGPERIOD_BASIS,0,5568001.0
 00532015001240,ALTERNATE_WAITINGPERIOD_UNITS,0,30.0
 00532015001239,ALTERNATE_WAITINGPERIOD_BASIS,0,5568001.0
 00532015001239,ALTERNATE_WAITINGPERIOD_UNITS,0,60.0
 00532015001238,ALTERNATE_WAITINGPERIOD_BASIS,0,5568001.0
 00532015001238,ALTERNATE_WAITINGPERIOD_UNITS,0,30.0
 00532015001235,ALTERNATE_WAITINGPERIOD_BASIS,0,5568001.0
 00532015001235,ALTERNATE_WAITINGPERIOD_UNITS,0,30.0
 00532015001232,ALTERNATE_WAITINGPERIOD_BASIS,0,5568001.0
 00532015001232,ALTERNATE_WAITINGPERIOD_UNITS,0,30.0
 00532015001231,ALTERNATE_WAITINGPERIOD_BASIS,0,5568001.0
 00532015001231,ALTERNATE_WAITINGPERIOD_UNITS,0,90.0
 00532015001230,ALTERNATE_WAITINGPERIOD_BASIS,0,5568001.0
 00532015001230,ALTERNATE_WAITINGPERIOD_UNITS,0,90.0
 00532015001229,ALTERNATE_WAITINGPERIOD_BASIS,0,5568003.0
 00532015001229,ALTERNATE_WAITINGPERIOD_UNITS,0,12.0
 00532015001228,ALTERNATE_WAITINGPERIOD_BASIS,0,5568001.0
 00532015001227,ALTERNATE_WAITINGPERIOD_BASIS,0,5568003.0
 00532015001227,ALTERNATE_WAITINGPERIOD_UNITS,0,3.0
 00532015001226,ALTERNATE_WAITINGPERIOD_BASIS,0,5568003.0
 00532015001226,ALTERNATE_WAITINGPERIOD_UNITS,0,4.0
 00532015001225,ALTERNATE_WAITINGPERIOD_BASIS,0,5568001.0
 00532015001225,ALTERNATE_WAITINGPERIOD_UNITS,0,60.0
 00532015001224,ALTERNATE_WAITINGPERIOD_BASIS,0,5568001.0
 00532015001224,ALTERNATE_WAITINGPERIOD_UNITS,0,30.0
 00532015001221,ALTERNATE_WAITINGPERIOD_BASIS,0,5568001.0
 00532015001221,ALTERNATE_WAITINGPERIOD_UNITS,0,30.0
 00532015001220,ALTERNATE_WAITINGPERIOD_BASIS,0,5568001.0
 00532015001220,ALTERNATE_WAITINGPERIOD_UNITS,0,30.0
 00532015001217,ALTERNATE_WAITINGPERIOD_BASIS,0,5568001.0
 00532015001217,ALTERNATE_WAITINGPERIOD_UNITS,0,60.0
 00532015001215,ALTERNATE_WAITINGPERIOD_BASIS,0,5568001.0
 00532015001215,ALTERNATE_WAITINGPERIOD_UNITS,0,30.0
 00532015001214,ALTERNATE_WAITINGPERIOD_BASIS,0,5568001.0
 00532015001214,ALTERNATE_WAITINGPERIOD_UNITS,0,90.0
 00532015001213,ALTERNATE_WAITINGPERIOD_BASIS,0,5568001.0
 00532015001213,ALTERNATE_WAITINGPERIOD_UNITS,0,30.0
 00532015001211,ALTERNATE_WAITINGPERIOD_BASIS,0,5568001.0
 00532015001211,ALTERNATE_WAITINGPERIOD_UNITS,0,60.0
 00532015001208,ALTERNATE_WAITINGPERIOD_BASIS,0,5568001.0
 00532015001208,ALTERNATE_WAITINGPERIOD_UNITS,0,30.0
 00532015001206,ALTERNATE_WAITINGPERIOD_BASIS,0,5568003.0
 00532015001206,ALTERNATE_WAITINGPERIOD_UNITS,0,3.0
 00532015001204,ALTERNATE_WAITINGPERIOD_BASIS,0,5568001.0
 00532015001204,ALTERNATE_WAITINGPERIOD_UNITS,0,60.0
 00532015001203,ALTERNATE_WAITINGPERIOD_BASIS,0,5568001.0
 00532015001203,ALTERNATE_WAITINGPERIOD_UNITS,0,60.0
 00532015001201,ALTERNATE_WAITINGPERIOD_BASIS,0,5568001.0
 00532015001201,ALTERNATE_WAITINGPERIOD_UNITS,0,90.0
 00532015001200,ALTERNATE_WAITINGPERIOD_BASIS,0,5568001.0
 00532015001200,ALTERNATE_WAITINGPERIOD_UNITS,0,90.0
 00532015001199,ALTERNATE_WAITINGPERIOD_BASIS,0,5568001.0
 00532015001199,ALTERNATE_WAITINGPERIOD_UNITS,0,180.0
 00532015001198,ALTERNATE_WAITINGPERIOD_BASIS,0,5568001.0
 00532015001198,ALTERNATE_WAITINGPERIOD_UNITS,0,60.0
 00532015001197,ALTERNATE_WAITINGPERIOD_BASIS,0,5568001.0
 00532015001197,ALTERNATE_WAITINGPERIOD_UNITS,0,90.0
 00532015001194,ALTERNATE_WAITINGPERIOD_BASIS,0,5568001.0
 00532015001194,ALTERNATE_WAITINGPERIOD_UNITS,0,30.0
 00532015001192,ALTERNATE_WAITINGPERIOD_BASIS,0,5568001.0
 00532015001192,ALTERNATE_WAITINGPERIOD_UNITS,0,30.0
 00532015001191,ALTERNATE_WAITINGPERIOD_BASIS,0,5568001.0
 00532015001191,ALTERNATE_WAITINGPERIOD_UNITS,0,30.0
 00532015001190,ALTERNATE_WAITINGPERIOD_BASIS,0,5568001.0
 00532015001190,ALTERNATE_WAITINGPERIOD_UNITS,0,30.0
 00532015001189,ALTERNATE_WAITINGPERIOD_BASIS,0,5568001.0
 00532015001189,ALTERNATE_WAITINGPERIOD_UNITS,0,180.0
 00532015001187,ALTERNATE_WAITINGPERIOD_BASIS,0,5568001.0
 00532015001187,ALTERNATE_WAITINGPERIOD_UNITS,0,30.0
 00532015001186,ALTERNATE_WAITINGPERIOD_BASIS,0,5568001.0
 00532015001186,ALTERNATE_WAITINGPERIOD_UNITS,0,90.0
 00532015001185,ALTERNATE_WAITINGPERIOD_BASIS,0,5568001.0
 00532015001185,ALTERNATE_WAITINGPERIOD_UNITS,0,90.0
 00532015001184,ALTERNATE_WAITINGPERIOD_BASIS,0,5568001.0
 00532015001184,ALTERNATE_WAITINGPERIOD_UNITS,0,30.0
 00532015001183,ALTERNATE_WAITINGPERIOD_BASIS,0,5568001.0
 00532015001183,ALTERNATE_WAITINGPERIOD_UNITS,0,90.0
 00532015001180,ALTERNATE_WAITINGPERIOD_BASIS,0,5568001.0
 00532015001180,ALTERNATE_WAITINGPERIOD_UNITS,0,90.0
 00532015001179,ALTERNATE_WAITINGPERIOD_BASIS,0,5568001.0
 00532015001179,ALTERNATE_WAITINGPERIOD_UNITS,0,60.0
 00532015001178,ALTERNATE_WAITINGPERIOD_BASIS,0,5568001.0
 00532015001178,ALTERNATE_WAITINGPERIOD_UNITS,0,30.0
 00532015001177,ALTERNATE_WAITINGPERIOD_BASIS,0,5568001.0
 00532015001177,ALTERNATE_WAITINGPERIOD_UNITS,0,365.0
 00532015001176,ALTERNATE_WAITINGPERIOD_BASIS,0,5568001.0
 00532015001176,ALTERNATE_WAITINGPERIOD_UNITS,0,30.0
 00532015001175,ALTERNATE_WAITINGPERIOD_BASIS,0,5568001.0
 00532015001175,ALTERNATE_WAITINGPERIOD_UNITS,0,30.0
 00532015001174,ALTERNATE_WAITINGPERIOD_BASIS,0,5568001.0
 00532015001174,ALTERNATE_WAITINGPERIOD_UNITS,0,60.0
 00532015001173,ALTERNATE_WAITINGPERIOD_BASIS,0,5568001.0
 00532015001172,ALTERNATE_WAITINGPERIOD_BASIS,0,5568001.0
 00532015001172,ALTERNATE_WAITINGPERIOD_UNITS,0,30.0
 00532015001171,ALTERNATE_WAITINGPERIOD_BASIS,0,5568001.0
 00532015001171,ALTERNATE_WAITINGPERIOD_UNITS,0,180.0
 00532015001169,ALTERNATE_WAITINGPERIOD_BASIS,0,5568001.0
 00532015001169,ALTERNATE_WAITINGPERIOD_UNITS,0,30.0
 00532015001167,ALTERNATE_WAITINGPERIOD_BASIS,0,5568001.0
 00532015001167,ALTERNATE_WAITINGPERIOD_UNITS,0,30.0
 00532015001166,ALTERNATE_WAITINGPERIOD_BASIS,0,5568001.0
 00532015001166,ALTERNATE_WAITINGPERIOD_UNITS,0,30.0
 00532015001165,ALTERNATE_WAITINGPERIOD_BASIS,0,5568001.0
 00532015001165,ALTERNATE_WAITINGPERIOD_UNITS,0,60.0
 00532015001164,ALTERNATE_WAITINGPERIOD_BASIS,0,5568003.0
 00532015001164,ALTERNATE_WAITINGPERIOD_UNITS,0,1.0
 00532015001163,ALTERNATE_WAITINGPERIOD_BASIS,0,5568001.0
 00532015001163,ALTERNATE_WAITINGPERIOD_UNITS,0,30.0
 00532015001162,ALTERNATE_WAITINGPERIOD_BASIS,0,5568001.0
 00532015001162,ALTERNATE_WAITINGPERIOD_UNITS,0,90.0
 00532015001161,ALTERNATE_WAITINGPERIOD_BASIS,0,5568001.0
 00532015001161,ALTERNATE_WAITINGPERIOD_UNITS,0,30.0
 00532015001159,ALTERNATE_WAITINGPERIOD_BASIS,0,5568001.0
 00532015001159,ALTERNATE_WAITINGPERIOD_UNITS,0,30.0
 00532015001158,ALTERNATE_WAITINGPERIOD_BASIS,0,5568001.0
 00532015001158,ALTERNATE_WAITINGPERIOD_UNITS,0,90.0
 00532015001157,ALTERNATE_WAITINGPERIOD_BASIS,0,5568001.0
 00532015001157,ALTERNATE_WAITINGPERIOD_UNITS,0,60.0
 00532015001156,ALTERNATE_WAITINGPERIOD_BASIS,0,5568001.0
 00532015001156,ALTERNATE_WAITINGPERIOD_UNITS,0,90.0
 00532015001154,ALTERNATE_WAITINGPERIOD_BASIS,0,5568003.0
 00532015001154,ALTERNATE_WAITINGPERIOD_UNITS,0,3.0
 00532015001152,ALTERNATE_WAITINGPERIOD_BASIS,0,5568001.0
 00532015001152,ALTERNATE_WAITINGPERIOD_UNITS,0,90.0
 00532015001151,ALTERNATE_WAITINGPERIOD_BASIS,0,5568001.0
 00532015001151,ALTERNATE_WAITINGPERIOD_UNITS,0,30.0
 00532015001150,ALTERNATE_WAITINGPERIOD_BASIS,0,5568001.0
 00532015001150,ALTERNATE_WAITINGPERIOD_UNITS,0,30.0
 00532015001149,ALTERNATE_WAITINGPERIOD_BASIS,0,5568001.0
 00532015001149,ALTERNATE_WAITINGPERIOD_UNITS,0,60.0
 00532015001148,ALTERNATE_WAITINGPERIOD_BASIS,0,5568001.0
 00532015001148,ALTERNATE_WAITINGPERIOD_UNITS,0,30.0
 00532015001146,ALTERNATE_WAITINGPERIOD_BASIS,0,5568001.0
 00532015001146,ALTERNATE_WAITINGPERIOD_UNITS,0,90.0
 00532015001145,ALTERNATE_WAITINGPERIOD_BASIS,0,5568001.0
 00532015001145,ALTERNATE_WAITINGPERIOD_UNITS,0,30.0
 00532015001144,ALTERNATE_WAITINGPERIOD_BASIS,0,5568001.0
 00532015001144,ALTERNATE_WAITINGPERIOD_UNITS,0,90.0
 00532015001143,ALTERNATE_WAITINGPERIOD_BASIS,0,5568001.0
 00532015001143,ALTERNATE_WAITINGPERIOD_UNITS,0,90.0
 00532015001142,ALTERNATE_WAITINGPERIOD_BASIS,0,5568003.0
 00532015001142,ALTERNATE_WAITINGPERIOD_UNITS,0,4.0
 00532015001141,ALTERNATE_WAITINGPERIOD_BASIS,0,5568001.0
 00532015001141,ALTERNATE_WAITINGPERIOD_UNITS,0,90.0
 00532015001140,ALTERNATE_WAITINGPERIOD_BASIS,0,5568001.0
 00532015001140,ALTERNATE_WAITINGPERIOD_UNITS,0,90.0
 00532015001139,ALTERNATE_WAITINGPERIOD_BASIS,0,5568001.0
 00532015001139,ALTERNATE_WAITINGPERIOD_UNITS,0,60.0
 00532015001138,ALTERNATE_WAITINGPERIOD_BASIS,0,5568001.0
 00532015001138,ALTERNATE_WAITINGPERIOD_UNITS,0,30.0
 00532015001137,ALTERNATE_WAITINGPERIOD_BASIS,0,5568001.0
 00532015001137,ALTERNATE_WAITINGPERIOD_UNITS,0,60.0
 00532015001135,ALTERNATE_WAITINGPERIOD_BASIS,0,5568001.0
 00532015001135,ALTERNATE_WAITINGPERIOD_UNITS,0,60.0
 00532015001132,ALTERNATE_WAITINGPERIOD_BASIS,0,5568001.0
 00532015001132,ALTERNATE_WAITINGPERIOD_UNITS,0,60.0
 00532015001129,ALTERNATE_WAITINGPERIOD_BASIS,0,5568001.0
 00532015001129,ALTERNATE_WAITINGPERIOD_UNITS,0,90.0
 00532015001127,ALTERNATE_WAITINGPERIOD_BASIS,0,5568001.0
 00532015001127,ALTERNATE_WAITINGPERIOD_UNITS,0,90.0
 00532015001122,ALTERNATE_WAITINGPERIOD_BASIS,0,5568001.0
 00532015001122,ALTERNATE_WAITINGPERIOD_UNITS,0,30.0
 00532015001119,ALTERNATE_WAITINGPERIOD_BASIS,0,5568001.0
 00532015001119,ALTERNATE_WAITINGPERIOD_UNITS,0,30.0
 00532015001118,ALTERNATE_WAITINGPERIOD_BASIS,0,5568001.0
 00532015001118,ALTERNATE_WAITINGPERIOD_UNITS,0,365.0
 00532015001114,ALTERNATE_WAITINGPERIOD_BASIS,0,5568001.0
 00532015001114,ALTERNATE_WAITINGPERIOD_UNITS,0,60.0
 00532015001113,ALTERNATE_WAITINGPERIOD_BASIS,0,5568001.0
 00532015001113,ALTERNATE_WAITINGPERIOD_UNITS,0,60.0
 00532015001112,ALTERNATE_WAITINGPERIOD_BASIS,0,5568001.0
 00532015001112,ALTERNATE_WAITINGPERIOD_UNITS,0,90.0
 00532015001111,ALTERNATE_WAITINGPERIOD_BASIS,0,5568001.0
 00532015001111,ALTERNATE_WAITINGPERIOD_UNITS,0,30.0
 00532015001110,ALTERNATE_WAITINGPERIOD_BASIS,0,5568003.0
 00532015001110,ALTERNATE_WAITINGPERIOD_UNITS,0,2.0
 00532015001109,ALTERNATE_WAITINGPERIOD_BASIS,0,5568003.0
 00532015001109,ALTERNATE_WAITINGPERIOD_UNITS,0,2.0
 00532015001108,ALTERNATE_WAITINGPERIOD_BASIS,0,5568001.0
 00532015001108,ALTERNATE_WAITINGPERIOD_UNITS,0,30.0
 00532015001107,ALTERNATE_WAITINGPERIOD_BASIS,0,5568001.0
 00532015001107,ALTERNATE_WAITINGPERIOD_UNITS,0,90.0
 00532015001106,ALTERNATE_WAITINGPERIOD_BASIS,0,5568001.0
 00532015001106,ALTERNATE_WAITINGPERIOD_UNITS,0,90.0
 00532015001105,ALTERNATE_WAITINGPERIOD_BASIS,0,5568001.0
 00532015001105,ALTERNATE_WAITINGPERIOD_UNITS,0,90.0
 00532015001101,ALTERNATE_WAITINGPERIOD_BASIS,0,5568001.0
 00532015001101,ALTERNATE_WAITINGPERIOD_UNITS,0,60.0
 00532015001100,ALTERNATE_WAITINGPERIOD_BASIS,0,5568003.0
 00532015001100,ALTERNATE_WAITINGPERIOD_UNITS,0,1.0
 00532015001099,ALTERNATE_WAITINGPERIOD_BASIS,0,5568001.0
 00532015001099,ALTERNATE_WAITINGPERIOD_UNITS,0,60.0
 00532015001097,ALTERNATE_WAITINGPERIOD_BASIS,0,5568003.0
 00532015001097,ALTERNATE_WAITINGPERIOD_UNITS,0,4.0
 00532015001096,ALTERNATE_WAITINGPERIOD_BASIS,0,5568004.0
 00532015001096,ALTERNATE_WAITINGPERIOD_UNITS,0,3.0
 00532015001095,ALTERNATE_WAITINGPERIOD_BASIS,0,5568001.0
 00532015001095,ALTERNATE_WAITINGPERIOD_UNITS,0,90.0
 00532015001094,ALTERNATE_WAITINGPERIOD_BASIS,0,5568001.0
 00532015001094,ALTERNATE_WAITINGPERIOD_UNITS,0,60.0
 00532015001093,ALTERNATE_WAITINGPERIOD_BASIS,0,5568001.0
 00532015001093,ALTERNATE_WAITINGPERIOD_UNITS,0,120.0
 00532015001092,ALTERNATE_WAITINGPERIOD_BASIS,0,5568003.0
 00532015001092,ALTERNATE_WAITINGPERIOD_UNITS,0,6.0
 00532015001091,ALTERNATE_WAITINGPERIOD_BASIS,0,5568001.0
 00532015001091,ALTERNATE_WAITINGPERIOD_UNITS,0,30.0
 00532015001086,ALTERNATE_WAITINGPERIOD_BASIS,0,5568001.0
 00532015001086,ALTERNATE_WAITINGPERIOD_UNITS,0,90.0
 00532015001085,ALTERNATE_WAITINGPERIOD_BASIS,0,5568001.0
 00532015001085,ALTERNATE_WAITINGPERIOD_UNITS,0,30.0
 00532015001084,ALTERNATE_WAITINGPERIOD_BASIS,0,5568001.0
 00532015001084,ALTERNATE_WAITINGPERIOD_UNITS,0,90.0
 00532015001081,ALTERNATE_WAITINGPERIOD_BASIS,0,5568001.0
 00532015001081,ALTERNATE_WAITINGPERIOD_UNITS,0,30.0
 00532015001080,ALTERNATE_WAITINGPERIOD_BASIS,0,5568001.0
 00532015001080,ALTERNATE_WAITINGPERIOD_UNITS,0,30.0
 00532015001079,ALTERNATE_WAITINGPERIOD_BASIS,0,5568001.0
 00532015001079,ALTERNATE_WAITINGPERIOD_UNITS,0,30.0
 00532015001078,ALTERNATE_WAITINGPERIOD_BASIS,0,5568001.0
 00532015001078,ALTERNATE_WAITINGPERIOD_UNITS,0,60.0
 00532015001077,ALTERNATE_WAITINGPERIOD_BASIS,0,5568001.0
 00532015001077,ALTERNATE_WAITINGPERIOD_UNITS,0,60.0
 00532015001076,ALTERNATE_WAITINGPERIOD_BASIS,0,5568001.0
 00532015001076,ALTERNATE_WAITINGPERIOD_UNITS,0,60.0
 00532015001073,ALTERNATE_WAITINGPERIOD_BASIS,0,5568001.0
 00532015001073,ALTERNATE_WAITINGPERIOD_UNITS,0,60.0
 00532015001072,ALTERNATE_WAITINGPERIOD_BASIS,0,5568001.0
 00532015001072,ALTERNATE_WAITINGPERIOD_UNITS,0,30.0
 00532015001070,ALTERNATE_WAITINGPERIOD_BASIS,0,5568001.0
 00532015001070,ALTERNATE_WAITINGPERIOD_UNITS,0,60.0
 00532015001069,ALTERNATE_WAITINGPERIOD_BASIS,0,5568001.0
 00532015001069,ALTERNATE_WAITINGPERIOD_UNITS,0,60.0
 00532015001068,ALTERNATE_WAITINGPERIOD_BASIS,0,5568001.0
 00532015001068,ALTERNATE_WAITINGPERIOD_UNITS,0,30.0
 00532015001066,ALTERNATE_WAITINGPERIOD_BASIS,0,5568001.0
 00532015001066,ALTERNATE_WAITINGPERIOD_UNITS,0,30.0
 00532015001065,ALTERNATE_WAITINGPERIOD_BASIS,0,5568001.0
 00532015001065,ALTERNATE_WAITINGPERIOD_UNITS,0,60.0
 00532015001064,ALTERNATE_WAITINGPERIOD_BASIS,0,5568001.0
 00532015001064,ALTERNATE_WAITINGPERIOD_UNITS,0,60.0
 00532015001063,ALTERNATE_WAITINGPERIOD_BASIS,0,5568001.0
 00532015001063,ALTERNATE_WAITINGPERIOD_UNITS,0,90.0
 00532015001062,ALTERNATE_WAITINGPERIOD_BASIS,0,5568001.0
 00532015001062,ALTERNATE_WAITINGPERIOD_UNITS,0,30.0
 00532015001056,ALTERNATE_WAITINGPERIOD_BASIS,0,5568001.0
 00532015001056,ALTERNATE_WAITINGPERIOD_UNITS,0,90.0
 00532015001054,ALTERNATE_WAITINGPERIOD_BASIS,0,5568001.0
 00532015001054,ALTERNATE_WAITINGPERIOD_UNITS,0,90.0
 00532015001053,ALTERNATE_WAITINGPERIOD_BASIS,0,5568001.0
 00532015001053,ALTERNATE_WAITINGPERIOD_UNITS,0,30.0
 00532015001052,ALTERNATE_WAITINGPERIOD_BASIS,0,5568001.0
 00532015001052,ALTERNATE_WAITINGPERIOD_UNITS,0,60.0
 00532015001051,ALTERNATE_WAITINGPERIOD_BASIS,0,5568001.0
 00532015001051,ALTERNATE_WAITINGPERIOD_UNITS,0,30.0
 00532015001050,ALTERNATE_WAITINGPERIOD_BASIS,0,5568001.0
 00532015001050,ALTERNATE_WAITINGPERIOD_UNITS,0,30.0
 00532015001048,ALTERNATE_WAITINGPERIOD_BASIS,0,5568001.0
 00532015001048,ALTERNATE_WAITINGPERIOD_UNITS,0,30.0
 00532015001047,ALTERNATE_WAITINGPERIOD_BASIS,0,5568001.0
 00532015001047,ALTERNATE_WAITINGPERIOD_UNITS,0,180.0
 00532015001046,ALTERNATE_WAITINGPERIOD_BASIS,0,5568001.0
 00532015001046,ALTERNATE_WAITINGPERIOD_UNITS,0,30.0
 00532015001045,ALTERNATE_WAITINGPERIOD_BASIS,0,5568001.0
 00532015001045,ALTERNATE_WAITINGPERIOD_UNITS,0,30.0
 00532015001044,ALTERNATE_WAITINGPERIOD_BASIS,0,5568001.0
 00532015001044,ALTERNATE_WAITINGPERIOD_UNITS,0,30.0
 00532015001043,ALTERNATE_WAITINGPERIOD_BASIS,0,5568001.0
 00532015001043,ALTERNATE_WAITINGPERIOD_UNITS,0,60.0
 00532015001041,ALTERNATE_WAITINGPERIOD_BASIS,0,5568001.0
 00532015001041,ALTERNATE_WAITINGPERIOD_UNITS,0,30.0
 00532015001040,ALTERNATE_WAITINGPERIOD_BASIS,0,5568001.0
 00532015001040,ALTERNATE_WAITINGPERIOD_UNITS,0,60.0
 00532015001038,ALTERNATE_WAITINGPERIOD_BASIS,0,5568001.0
 00532015001038,ALTERNATE_WAITINGPERIOD_UNITS,0,30.0
 00532015001036,ALTERNATE_WAITINGPERIOD_BASIS,0,5568001.0
 00532015001036,ALTERNATE_WAITINGPERIOD_UNITS,0,90.0
 00532015001035,ALTERNATE_WAITINGPERIOD_BASIS,0,5568001.0
 00532015001035,ALTERNATE_WAITINGPERIOD_UNITS,0,90.0
 00532015001034,ALTERNATE_WAITINGPERIOD_BASIS,0,5568001.0
 00532015001034,ALTERNATE_WAITINGPERIOD_UNITS,0,90.0
 00532015001031,ALTERNATE_WAITINGPERIOD_BASIS,0,5568001.0
 00532015001031,ALTERNATE_WAITINGPERIOD_UNITS,0,45.0
 00532015001029,ALTERNATE_WAITINGPERIOD_BASIS,0,5568001.0
 00532015001029,ALTERNATE_WAITINGPERIOD_UNITS,0,90.0
 00532015001028,ALTERNATE_WAITINGPERIOD_BASIS,0,5568001.0
 00532015001028,ALTERNATE_WAITINGPERIOD_UNITS,0,60.0
 00532015001027,ALTERNATE_WAITINGPERIOD_BASIS,0,5568003.0
 00532015001027,ALTERNATE_WAITINGPERIOD_UNITS,0,3.0
 00532015001024,ALTERNATE_WAITINGPERIOD_BASIS,0,5568001.0
 00532015001024,ALTERNATE_WAITINGPERIOD_UNITS,0,30.0
 00532015001023,ALTERNATE_WAITINGPERIOD_BASIS,0,5568003.0
 00532015001023,ALTERNATE_WAITINGPERIOD_UNITS,0,2.0
 00532015001022,ALTERNATE_WAITINGPERIOD_BASIS,0,5568001.0
 00532015001022,ALTERNATE_WAITINGPERIOD_UNITS,0,90.0
 00532015001021,ALTERNATE_WAITINGPERIOD_BASIS,0,5568001.0
 00532015001021,ALTERNATE_WAITINGPERIOD_UNITS,0,90.0
 00532015001020,ALTERNATE_WAITINGPERIOD_BASIS,0,5568001.0
 00532015001020,ALTERNATE_WAITINGPERIOD_UNITS,0,90.0
 00532015001019,ALTERNATE_WAITINGPERIOD_BASIS,0,5568001.0
 00532015001019,ALTERNATE_WAITINGPERIOD_UNITS,0,30.0
 00532015001018,ALTERNATE_WAITINGPERIOD_BASIS,0,5568001.0
 00532015001018,ALTERNATE_WAITINGPERIOD_UNITS,0,30.0
 00532015001015,ALTERNATE_WAITINGPERIOD_BASIS,0,5568003.0
 00532015001015,ALTERNATE_WAITINGPERIOD_UNITS,0,2.0
 00532015001013,ALTERNATE_WAITINGPERIOD_BASIS,0,5568001.0
 00532015001013,ALTERNATE_WAITINGPERIOD_UNITS,0,30.0
 00532015001012,ALTERNATE_WAITINGPERIOD_BASIS,0,5568001.0
 00532015001012,ALTERNATE_WAITINGPERIOD_UNITS,0,30.0
 00532015001011,ALTERNATE_WAITINGPERIOD_BASIS,0,5568003.0
 00532015001011,ALTERNATE_WAITINGPERIOD_UNITS,0,12.0
 00532015001008,ALTERNATE_WAITINGPERIOD_BASIS,0,5568001.0
 00532015001008,ALTERNATE_WAITINGPERIOD_UNITS,0,60.0
 00532015001007,ALTERNATE_WAITINGPERIOD_BASIS,0,5568001.0
 00532015001007,ALTERNATE_WAITINGPERIOD_UNITS,0,30.0
 00532015001006,ALTERNATE_WAITINGPERIOD_BASIS,0,5568001.0
 00532015001006,ALTERNATE_WAITINGPERIOD_UNITS,0,90.0
 00532015001004,ALTERNATE_WAITINGPERIOD_BASIS,0,5568001.0
 00532015001004,ALTERNATE_WAITINGPERIOD_UNITS,0,30.0
 00532015001003,ALTERNATE_WAITINGPERIOD_BASIS,0,5568001.0
 00532015001003,ALTERNATE_WAITINGPERIOD_UNITS,0,30.0
 00532015001002,ALTERNATE_WAITINGPERIOD_BASIS,0,5568001.0
 00532015001002,ALTERNATE_WAITINGPERIOD_UNITS,0,90.0
 00532015001001,ALTERNATE_WAITINGPERIOD_BASIS,0,5568001.0
 00532015001001,ALTERNATE_WAITINGPERIOD_UNITS,0,60.0
 00532015001000,ALTERNATE_WAITINGPERIOD_BASIS,0,5568001.0
 00532015001000,ALTERNATE_WAITINGPERIOD_UNITS,0,90.0
 00532015000999,ALTERNATE_WAITINGPERIOD_BASIS,0,5568001.0
 00532015000999,ALTERNATE_WAITINGPERIOD_UNITS,0,60.0
 00532015000998,ALTERNATE_WAITINGPERIOD_BASIS,0,5568001.0
 00532015000998,ALTERNATE_WAITINGPERIOD_UNITS,0,60.0
 00532015000996,ALTERNATE_WAITINGPERIOD_BASIS,0,5568001.0
 00532015000996,ALTERNATE_WAITINGPERIOD_UNITS,0,90.0
 00532015000995,ALTERNATE_WAITINGPERIOD_BASIS,0,5568001.0
 00532015000995,ALTERNATE_WAITINGPERIOD_UNITS,0,60.0
 00532015000994,ALTERNATE_WAITINGPERIOD_BASIS,0,5568001.0
 00532015000994,ALTERNATE_WAITINGPERIOD_UNITS,0,30.0
 00532015000992,ALTERNATE_WAITINGPERIOD_BASIS,0,5568001.0
 00532015000992,ALTERNATE_WAITINGPERIOD_UNITS,0,120.0
 00532015000991,ALTERNATE_WAITINGPERIOD_BASIS,0,5568001.0
 00532015000991,ALTERNATE_WAITINGPERIOD_UNITS,0,90.0
 00532015000990,ALTERNATE_WAITINGPERIOD_BASIS,0,5568001.0
 00532015000990,ALTERNATE_WAITINGPERIOD_UNITS,0,60.0
 00532015000988,ALTERNATE_WAITINGPERIOD_BASIS,0,5568001.0
 00532015000988,ALTERNATE_WAITINGPERIOD_UNITS,0,365.0
 00532015000987,ALTERNATE_WAITINGPERIOD_BASIS,0,5568003.0
 00532015000987,ALTERNATE_WAITINGPERIOD_UNITS,0,1.0
 00532015000986,ALTERNATE_WAITINGPERIOD_BASIS,0,5568003.0
 00532015000986,ALTERNATE_WAITINGPERIOD_UNITS,0,60.0
 00532015000984,ALTERNATE_WAITINGPERIOD_BASIS,0,5568001.0
 00532015000984,ALTERNATE_WAITINGPERIOD_UNITS,0,30.0
 00532015000983,ALTERNATE_WAITINGPERIOD_BASIS,0,5568003.0
 00532015000983,ALTERNATE_WAITINGPERIOD_UNITS,0,3.0
 00532015000981,ALTERNATE_WAITINGPERIOD_BASIS,0,5568001.0
 00532015000981,ALTERNATE_WAITINGPERIOD_UNITS,0,30.0
 00532015000980,ALTERNATE_WAITINGPERIOD_BASIS,0,5568003.0
 00532015000980,ALTERNATE_WAITINGPERIOD_UNITS,0,6.0
 00532015000979,ALTERNATE_WAITINGPERIOD_BASIS,0,5568001.0
 00532015000979,ALTERNATE_WAITINGPERIOD_UNITS,0,30.0
 00532015000978,ALTERNATE_WAITINGPERIOD_BASIS,0,5568001.0
 00532015000978,ALTERNATE_WAITINGPERIOD_UNITS,0,30.0
 00532015000976,ALTERNATE_WAITINGPERIOD_BASIS,0,5568001.0
 00532015000976,ALTERNATE_WAITINGPERIOD_UNITS,0,60.0
 00532015000975,ALTERNATE_WAITINGPERIOD_BASIS,0,5568001.0
 00532015000975,ALTERNATE_WAITINGPERIOD_UNITS,0,60.0
 00532015000974,ALTERNATE_WAITINGPERIOD_BASIS,0,5568001.0
 00532015000974,ALTERNATE_WAITINGPERIOD_UNITS,0,60.0
 00532015000973,ALTERNATE_WAITINGPERIOD_BASIS,0,5568001.0
 00532015000973,ALTERNATE_WAITINGPERIOD_UNITS,0,90.0
 00532015000972,ALTERNATE_WAITINGPERIOD_BASIS,0,5568001.0
 00532015000972,ALTERNATE_WAITINGPERIOD_UNITS,0,30.0
 00532015000971,ALTERNATE_WAITINGPERIOD_BASIS,0,5568001.0
 00532015000971,ALTERNATE_WAITINGPERIOD_UNITS,0,60.0
 00532015000969,ALTERNATE_WAITINGPERIOD_BASIS,0,5568001.0
 00532015000969,ALTERNATE_WAITINGPERIOD_UNITS,0,30.0
 00532015000968,ALTERNATE_WAITINGPERIOD_BASIS,0,5568001.0
 00532015000968,ALTERNATE_WAITINGPERIOD_UNITS,0,30.0
 00532015000966,ALTERNATE_WAITINGPERIOD_BASIS,0,5568001.0
 00532015000966,ALTERNATE_WAITINGPERIOD_UNITS,0,60.0
 00532015000965,ALTERNATE_WAITINGPERIOD_BASIS,0,5568001.0
 00532015000965,ALTERNATE_WAITINGPERIOD_UNITS,0,30.0
 00532015000964,ALTERNATE_WAITINGPERIOD_BASIS,0,5568001.0
 00532015000964,ALTERNATE_WAITINGPERIOD_UNITS,0,60.0
 00532015000963,ALTERNATE_WAITINGPERIOD_BASIS,0,5568001.0
 00532015000963,ALTERNATE_WAITINGPERIOD_UNITS,0,60.0
 00532015000962,ALTERNATE_WAITINGPERIOD_BASIS,0,5568001.0
 00532015000962,ALTERNATE_WAITINGPERIOD_UNITS,0,60.0
 00532015000961,ALTERNATE_WAITINGPERIOD_BASIS,0,5568001.0
 00532015000961,ALTERNATE_WAITINGPERIOD_UNITS,0,30.0
 00532015000958,ALTERNATE_WAITINGPERIOD_BASIS,0,5568001.0
 00532015000958,ALTERNATE_WAITINGPERIOD_UNITS,0,30.0
 00532015000957,ALTERNATE_WAITINGPERIOD_BASIS,0,5568001.0
 00532015000957,ALTERNATE_WAITINGPERIOD_UNITS,0,30.0
 00532015000952,ALTERNATE_WAITINGPERIOD_BASIS,0,5568001.0
 00532015000952,ALTERNATE_WAITINGPERIOD_UNITS,0,30.0
 00532015000951,ALTERNATE_WAITINGPERIOD_BASIS,0,5568001.0
 00532015000951,ALTERNATE_WAITINGPERIOD_UNITS,0,30.0
 00532015000950,ALTERNATE_WAITINGPERIOD_BASIS,0,5568001.0
 00532015000950,ALTERNATE_WAITINGPERIOD_UNITS,0,30.0
 00532015000948,ALTERNATE_WAITINGPERIOD_BASIS,0,5568001.0
 00532015000948,ALTERNATE_WAITINGPERIOD_UNITS,0,30.0
 00532015000947,ALTERNATE_WAITINGPERIOD_BASIS,0,5568001.0
 00532015000947,ALTERNATE_WAITINGPERIOD_UNITS,0,30.0
 00532015000945,ALTERNATE_WAITINGPERIOD_BASIS,0,5568003.0
 00532015000945,ALTERNATE_WAITINGPERIOD_UNITS,0,4.0
 00532015000944,ALTERNATE_WAITINGPERIOD_BASIS,0,5568001.0
 00532015000944,ALTERNATE_WAITINGPERIOD_UNITS,0,365.0
 00532015000941,ALTERNATE_WAITINGPERIOD_BASIS,0,5568001.0
 00532015000941,ALTERNATE_WAITINGPERIOD_UNITS,0,30.0
 00532015000939,ALTERNATE_WAITINGPERIOD_BASIS,0,5568001.0
 00532015000939,ALTERNATE_WAITINGPERIOD_UNITS,0,90.0
 00532015000938,ALTERNATE_WAITINGPERIOD_BASIS,0,5568001.0
 00532015000938,ALTERNATE_WAITINGPERIOD_UNITS,0,60.0
 00532015000937,ALTERNATE_WAITINGPERIOD_BASIS,0,5568001.0
 00532015000937,ALTERNATE_WAITINGPERIOD_UNITS,0,90.0
 00532015000936,ALTERNATE_WAITINGPERIOD_BASIS,0,5568003.0
 00532015000936,ALTERNATE_WAITINGPERIOD_UNITS,0,1.0
 00532015000935,ALTERNATE_WAITINGPERIOD_BASIS,0,5568001.0
 00532015000935,ALTERNATE_WAITINGPERIOD_UNITS,0,30.0
 00532015000933,ALTERNATE_WAITINGPERIOD_BASIS,0,5568001.0
 00532015000933,ALTERNATE_WAITINGPERIOD_UNITS,0,30.0
 00532015000932,ALTERNATE_WAITINGPERIOD_BASIS,0,5568001.0
 00532015000932,ALTERNATE_WAITINGPERIOD_UNITS,0,180.0
 00532015000930,ALTERNATE_WAITINGPERIOD_BASIS,0,5568001.0
 00532015000930,ALTERNATE_WAITINGPERIOD_UNITS,0,90.0
 00532015000929,ALTERNATE_WAITINGPERIOD_BASIS,0,5568001.0
 00532015000929,ALTERNATE_WAITINGPERIOD_UNITS,0,90.0
 00532015000928,ALTERNATE_WAITINGPERIOD_BASIS,0,5568001.0
 00532015000928,ALTERNATE_WAITINGPERIOD_UNITS,0,90.0
 00532015000927,ALTERNATE_WAITINGPERIOD_BASIS,0,5568001.0
 00532015000927,ALTERNATE_WAITINGPERIOD_UNITS,0,60.0
 00532015000926,ALTERNATE_WAITINGPERIOD_BASIS,0,5568001.0
 00532015000926,ALTERNATE_WAITINGPERIOD_UNITS,0,60.0
 00532015000925,ALTERNATE_WAITINGPERIOD_BASIS,0,5568001.0
 00532015000925,ALTERNATE_WAITINGPERIOD_UNITS,0,90.0
 00532015000924,ALTERNATE_WAITINGPERIOD_BASIS,0,5568001.0
 00532015000924,ALTERNATE_WAITINGPERIOD_UNITS,0,30.0
 00532015000923,ALTERNATE_WAITINGPERIOD_BASIS,0,5568001.0
 00532015000923,ALTERNATE_WAITINGPERIOD_UNITS,0,30.0
 00532015000921,ALTERNATE_WAITINGPERIOD_BASIS,0,5568001.0
 00532015000921,ALTERNATE_WAITINGPERIOD_UNITS,0,30.0
 00532015000920,ALTERNATE_WAITINGPERIOD_BASIS,0,5568001.0
 00532015000920,ALTERNATE_WAITINGPERIOD_UNITS,0,30.0
 00532015000919,ALTERNATE_WAITINGPERIOD_BASIS,0,5568001.0
 00532015000919,ALTERNATE_WAITINGPERIOD_UNITS,0,90.0
 00532015000918,ALTERNATE_WAITINGPERIOD_BASIS,0,5568001.0
 00532015000918,ALTERNATE_WAITINGPERIOD_UNITS,0,90.0
 00532015000916,ALTERNATE_WAITINGPERIOD_BASIS,0,5568001.0
 00532015000916,ALTERNATE_WAITINGPERIOD_UNITS,0,90.0
 00532015000915,ALTERNATE_WAITINGPERIOD_BASIS,0,5568003.0
 00532015000915,ALTERNATE_WAITINGPERIOD_UNITS,0,1.0
 00532015000913,ALTERNATE_WAITINGPERIOD_BASIS,0,5568001.0
 00532015000913,ALTERNATE_WAITINGPERIOD_UNITS,0,180.0
 00532015000910,ALTERNATE_WAITINGPERIOD_BASIS,0,5568003.0
 00532015000910,ALTERNATE_WAITINGPERIOD_UNITS,0,1.0
 00532015000909,ALTERNATE_WAITINGPERIOD_BASIS,0,5568003.0
 00532015000909,ALTERNATE_WAITINGPERIOD_UNITS,0,1.0
 00532015000908,ALTERNATE_WAITINGPERIOD_BASIS,0,5568001.0
 00532015000908,ALTERNATE_WAITINGPERIOD_UNITS,0,90.0
 00532015000907,ALTERNATE_WAITINGPERIOD_BASIS,0,5568001.0
 00532015000907,ALTERNATE_WAITINGPERIOD_UNITS,0,90.0
 00532015000906,ALTERNATE_WAITINGPERIOD_BASIS,0,5568001.0
 00532015000906,ALTERNATE_WAITINGPERIOD_UNITS,0,90.0
 00532015000905,ALTERNATE_WAITINGPERIOD_BASIS,0,5568003.0
 00532015000905,ALTERNATE_WAITINGPERIOD_UNITS,0,6.0
 00532015000904,ALTERNATE_WAITINGPERIOD_BASIS,0,5568001.0
 00532015000904,ALTERNATE_WAITINGPERIOD_UNITS,0,90.0
 00532015000903,ALTERNATE_WAITINGPERIOD_BASIS,0,5568001.0
 00532015000903,ALTERNATE_WAITINGPERIOD_UNITS,0,30.0
 00532015000902,ALTERNATE_WAITINGPERIOD_BASIS,0,5568001.0
 00532015000902,ALTERNATE_WAITINGPERIOD_UNITS,0,30.0
 00532015000901,ALTERNATE_WAITINGPERIOD_BASIS,0,5568003.0
 00532015000901,ALTERNATE_WAITINGPERIOD_UNITS,0,1.0
 00532015000900,ALTERNATE_WAITINGPERIOD_BASIS,0,5568001.0
 00532015000900,ALTERNATE_WAITINGPERIOD_UNITS,0,90.0
 00532015000897,ALTERNATE_WAITINGPERIOD_BASIS,0,5568001.0
 00532015000897,ALTERNATE_WAITINGPERIOD_UNITS,0,90.0
 00532015000895,ALTERNATE_WAITINGPERIOD_BASIS,0,5568001.0
 00532015000895,ALTERNATE_WAITINGPERIOD_UNITS,0,60.0
 00532015000894,ALTERNATE_WAITINGPERIOD_BASIS,0,5568001.0
 00532015000894,ALTERNATE_WAITINGPERIOD_UNITS,0,90.0
 00532015000893,ALTERNATE_WAITINGPERIOD_BASIS,0,5568001.0
 00532015000893,ALTERNATE_WAITINGPERIOD_UNITS,0,90.0
 00532015000889,ALTERNATE_WAITINGPERIOD_BASIS,0,5568001.0
 00532015000889,ALTERNATE_WAITINGPERIOD_UNITS,0,30.0
 00532015000887,ALTERNATE_WAITINGPERIOD_BASIS,0,5568001.0
 00532015000887,ALTERNATE_WAITINGPERIOD_UNITS,0,90.0
 00532015000886,ALTERNATE_WAITINGPERIOD_BASIS,0,5568001.0
 00532015000886,ALTERNATE_WAITINGPERIOD_UNITS,0,30.0
 00532015000884,ALTERNATE_WAITINGPERIOD_BASIS,0,5568001.0
 00532015000884,ALTERNATE_WAITINGPERIOD_UNITS,0,90.0
 00532015000883,ALTERNATE_WAITINGPERIOD_BASIS,0,5568001.0
 00532015000883,ALTERNATE_WAITINGPERIOD_UNITS,0,30.0
 00532015000880,ALTERNATE_WAITINGPERIOD_BASIS,0,5568001.0
 00532015000880,ALTERNATE_WAITINGPERIOD_UNITS,0,30.0
 00532015000879,ALTERNATE_WAITINGPERIOD_BASIS,0,5568001.0
 00532015000879,ALTERNATE_WAITINGPERIOD_UNITS,0,30.0
 00532015000878,ALTERNATE_WAITINGPERIOD_BASIS,0,5568004.0
 00532015000878,ALTERNATE_WAITINGPERIOD_UNITS,0,1.0
 00532015000877,ALTERNATE_WAITINGPERIOD_BASIS,0,5568001.0
 00532015000877,ALTERNATE_WAITINGPERIOD_UNITS,0,90.0
 00532015000876,ALTERNATE_WAITINGPERIOD_BASIS,0,5568001.0
 00532015000876,ALTERNATE_WAITINGPERIOD_UNITS,0,90.0
 00532015000875,ALTERNATE_WAITINGPERIOD_BASIS,0,5568004.0
 00532015000875,ALTERNATE_WAITINGPERIOD_UNITS,0,1.0
 00532015000874,ALTERNATE_WAITINGPERIOD_BASIS,0,5568001.0
 00532015000874,ALTERNATE_WAITINGPERIOD_UNITS,0,30.0
 00532015000873,ALTERNATE_WAITINGPERIOD_BASIS,0,5568001.0
 00532015000873,ALTERNATE_WAITINGPERIOD_UNITS,0,30.0
 00532015000872,ALTERNATE_WAITINGPERIOD_BASIS,0,5568001.0
 00532015000872,ALTERNATE_WAITINGPERIOD_UNITS,0,30.0
 00532015000871,ALTERNATE_WAITINGPERIOD_BASIS,0,5568001.0
 00532015000871,ALTERNATE_WAITINGPERIOD_UNITS,0,90.0
 00532015000870,ALTERNATE_WAITINGPERIOD_BASIS,0,5568001.0
 00532015000870,ALTERNATE_WAITINGPERIOD_UNITS,0,30.0
 00532015000869,ALTERNATE_WAITINGPERIOD_BASIS,0,5568001.0
 00532015000869,ALTERNATE_WAITINGPERIOD_UNITS,0,30.0
 00532015000868,ALTERNATE_WAITINGPERIOD_BASIS,0,5568001.0
 00532015000868,ALTERNATE_WAITINGPERIOD_UNITS,0,60.0
 00532015000867,ALTERNATE_WAITINGPERIOD_BASIS,0,5568001.0
 00532015000867,ALTERNATE_WAITINGPERIOD_UNITS,0,90.0
 00532015000866,ALTERNATE_WAITINGPERIOD_BASIS,0,5568001.0
 00532015000866,ALTERNATE_WAITINGPERIOD_UNITS,0,30.0
 00532015000865,ALTERNATE_WAITINGPERIOD_BASIS,0,5568001.0
 00532015000865,ALTERNATE_WAITINGPERIOD_UNITS,0,30.0
 00532015000864,ALTERNATE_WAITINGPERIOD_BASIS,0,5568001.0
 00532015000864,ALTERNATE_WAITINGPERIOD_UNITS,0,30.0
 00532015000863,ALTERNATE_WAITINGPERIOD_BASIS,0,5568001.0
 00532015000863,ALTERNATE_WAITINGPERIOD_UNITS,0,60.0
 00532015000862,ALTERNATE_WAITINGPERIOD_BASIS,0,5568001.0
 00532015000862,ALTERNATE_WAITINGPERIOD_UNITS,0,30.0
 00532015000861,ALTERNATE_WAITINGPERIOD_BASIS,0,5568001.0
 00532015000861,ALTERNATE_WAITINGPERIOD_UNITS,0,30.0
 00532015000860,ALTERNATE_WAITINGPERIOD_BASIS,0,5568001.0
 00532015000860,ALTERNATE_WAITINGPERIOD_UNITS,0,30.0
 00532015000859,ALTERNATE_WAITINGPERIOD_BASIS,0,5568001.0
 00532015000859,ALTERNATE_WAITINGPERIOD_UNITS,0,90.0
 00532015000858,ALTERNATE_WAITINGPERIOD_BASIS,0,5568001.0
 00532015000858,ALTERNATE_WAITINGPERIOD_UNITS,0,90.0
 00532015000857,ALTERNATE_WAITINGPERIOD_BASIS,0,5568001.0
 00532015000857,ALTERNATE_WAITINGPERIOD_UNITS,0,90.0
 00532015000856,ALTERNATE_WAITINGPERIOD_BASIS,0,5568001.0
 00532015000856,ALTERNATE_WAITINGPERIOD_UNITS,0,90.0
 00532015000855,ALTERNATE_WAITINGPERIOD_BASIS,0,5568001.0
 00532015000855,ALTERNATE_WAITINGPERIOD_UNITS,0,60.0
 00532015000854,ALTERNATE_WAITINGPERIOD_BASIS,0,5568001.0
 00532015000854,ALTERNATE_WAITINGPERIOD_UNITS,0,90.0
 00532015000853,ALTERNATE_WAITINGPERIOD_BASIS,0,5568001.0
 00532015000853,ALTERNATE_WAITINGPERIOD_UNITS,0,60.0
 00532015000852,ALTERNATE_WAITINGPERIOD_BASIS,0,5568001.0
 00532015000852,ALTERNATE_WAITINGPERIOD_UNITS,0,30.0
 00532015000850,ALTERNATE_WAITINGPERIOD_BASIS,0,5568001.0
 00532015000850,ALTERNATE_WAITINGPERIOD_UNITS,0,90.0
