CaseNo,ColumnName,FinVal,ArenaVal
 00532015000007,OCCUPATIONSTRENGTH,,5120000
 00532015000007,OCCUPATION,Unknown,514030
 00532015000006,OCCUPATIONSTRENGTH,,5120000
 00532015000006,OCCUPATION,Unknown,130000
 00532015000005,OCCUPATIONSTRENGTH,,5120000
 00532015000005,OCCUPATION,Unknown,434051
 00532015000004,RETURNTOWORKPARTTIMEDATE,,09/08/2015
 00532015000004,OCCUPATIONSTRENGTH,,5120000
 00532015000004,OCCUPATION,Unknown,132072
 00532015000003,OCCUPATIONSTRENGTH,,5120000
 00532015000003,OCCUPATION,Unknown,291031
 00532015000002,OCCUPATIONSTRENGTH,,5120000
 00532015000002,OCCUPATION,Unknown,113111
 00532015000001,OCCUPATIONSTRENGTH,,5120000
 00532015000001,OCCUPATION,Unknown,291141
