CaseNo,ColumnName,FinVal,ArenaVal
 00532015000003,CURRBENEFITPAYMENTAMOUNT,0,201.360000
 00532015000003,PAYMENTDATE,,09/01/2015
 00532015000003,AUTHUSER,,E010077
 00532015000003,ADDEDUSER,,E010080
 00532015000003,COUNTRY, 45601,US
 00532015000003,STATE, CHILLICOTHE,OH
 00532015000003,POSTCODE, ,45601
 00532015000003,SUBURB, Ave,CHILLICOTHE
 00532015000003,MASKED_STREET, 8755 Nec,
 00532015000003,MASKED_UNITNO,P.O. Box 249,"P.O. Box 249, 8755 Nec, Ave"
 00532015000003,STATUS,66944002,64256005
 00532015000003,POSTEDDATE,09/01/2015,08/31/2015
 00532015000003,GROSSBENEFITAMOUNT,316.42,201.360000
 00532015000003,PAYMENTAMOUNT,316.42,-4.590000
 00532015000003,PAYMENTDESCRIPTOR,66912052,66912054
 00532015000003,PAYMENTREVIEWDATE,09/01/2015,08/31/2015
 00532015000003,REVIEWDATE,09/01/2015,08/31/2015
 00532015000003,CURRBENEFITPAYMENTAMOUNT,0,201.360000
 00532015000003,PAYMENTDATE,,09/01/2015
 00532015000003,AUTHUSER,,E010077
 00532015000003,ADDEDUSER,,E010080
 00532015000003,COUNTRY, 45601,US
 00532015000003,STATE, CHILLICOTHE,OH
 00532015000003,POSTCODE, ,45601
 00532015000003,SUBURB, Ave,CHILLICOTHE
 00532015000003,MASKED_STREET, 8755 Nec,
 00532015000003,MASKED_UNITNO,P.O. Box 249,"P.O. Box 249, 8755 Nec, Ave"
 00532015000003,STATUS,66944002,64256005
 00532015000003,POSTEDDATE,09/01/2015,08/31/2015
 00532015000003,GROSSBENEFITAMOUNT,316.42,201.360000
 00532015000003,PAYMENTAMOUNT,316.42,-19.620000
 00532015000003,PAYMENTDESCRIPTOR,66912052,66912054
 00532015000003,PAYMENTREVIEWDATE,09/01/2015,08/31/2015
 00532015000003,REVIEWDATE,09/01/2015,08/31/2015
 00532015000003,CURRBENEFITPAYMENTAMOUNT,0,201.360000
 00532015000003,PAYMENTDATE,,09/01/2015
 00532015000003,AUTHUSER,,E010077
 00532015000003,ADDEDUSER,,E010080
 00532015000003,COUNTRY, 45601,US
 00532015000003,STATE, CHILLICOTHE,OH
 00532015000003,POSTCODE, ,45601
 00532015000003,SUBURB, Ave,CHILLICOTHE
 00532015000003,MASKED_STREET, 8755 Nec,
 00532015000003,MASKED_UNITNO,P.O. Box 249,"P.O. Box 249, 8755 Nec, Ave"
 00532015000003,STATUS,66944002,64256005
 00532015000003,POSTEDDATE,09/01/2015,08/31/2015
 00532015000003,GROSSBENEFITAMOUNT,316.42,201.360000
 00532015000003,PAYMENTDESCRIPTOR,66912052,66912054
 00532015000003,PAYMENTREVIEWDATE,09/01/2015,08/31/2015
 00532015000003,REVIEWDATE,09/01/2015,08/31/2015
 00532015000002,CURRBENEFITPAYMENTAMOUNT,0,653.650000
 00532015000002,PAYMENTDATE,,07/24/2015
 00532015000002,STATUS,66944002,64256005
 00532015000002,POSTEDDATE,07/24/2015,07/23/2015
 00532015000002,GROSSBENEFITAMOUNT,3268.25,653.650000
 00532015000002,PAYMENTAMOUNT,3268.25,-47.390000
 00532015000002,PAYMENTDESCRIPTOR,66912052,66912054
 00532015000002,PAYMENTREVIEWDATE,07/24/2015,07/23/2015
 00532015000002,REVIEWDATE,07/24/2015,07/23/2015
 00532015000002,CURRBENEFITPAYMENTAMOUNT,0,653.650000
 00532015000002,PAYMENTDATE,,07/24/2015
 00532015000002,STATUS,66944002,64256005
 00532015000002,POSTEDDATE,07/24/2015,07/23/2015
 00532015000002,GROSSBENEFITAMOUNT,3268.25,653.650000
 00532015000002,PAYMENTAMOUNT,3268.25,-202.630000
 00532015000002,PAYMENTDESCRIPTOR,66912052,66912054
 00532015000002,PAYMENTREVIEWDATE,07/24/2015,07/23/2015
 00532015000002,REVIEWDATE,07/24/2015,07/23/2015
 00532015000002,CURRBENEFITPAYMENTAMOUNT,0,653.650000
 00532015000002,PAYMENTDATE,,07/24/2015
 00532015000002,STATUS,66944002,64256005
 00532015000002,POSTEDDATE,07/24/2015,07/23/2015
 00532015000002,GROSSBENEFITAMOUNT,3268.25,653.650000
 00532015000002,PAYMENTAMOUNT,3268.25,-100.000000
 00532015000002,PAYMENTDESCRIPTOR,66912052,66912054
 00532015000002,PAYMENTREVIEWDATE,07/24/2015,07/23/2015
 00532015000002,REVIEWDATE,07/24/2015,07/23/2015
 00532015000002,CURRBENEFITPAYMENTAMOUNT,0,653.650000
 00532015000002,PAYMENTDATE,,07/24/2015
 00532015000002,STATUS,66944002,64256005
 00532015000002,POSTEDDATE,07/24/2015,07/23/2015
 00532015000002,GROSSBENEFITAMOUNT,3268.25,653.650000
 00532015000002,PAYMENTDESCRIPTOR,66912052,66912054
 00532015000002,PAYMENTREVIEWDATE,07/24/2015,07/23/2015
 00532015000002,REVIEWDATE,07/24/2015,07/23/2015
