CaseNo,ColumnName,FinVal,ArenaVal
 00532015000001,CURRBENEFITPAYMENTAMOUNT,0,619.780000
 00532015000001,MASKED_UNITNO, 6025 Consectetuer St.,3611 In Avenue
 00532015000001,STATUS,66944002,64256005
 00532015000001,POSTEDDATE,09/02/2015,09/01/2015
 00532015000001,PAYEENAME,Lahoma E Rodolfo,Tobi E Sharlene
 00532015000001,PAYMENTREVIEWDATE,09/02/2015,09/01/2015
 00532015000001,REVIEWDATE,09/02/2015,09/01/2015
 00532015000001,CURRBENEFITPAYMENTAMOUNT,0,619.780000
 00532015000001,MASKED_UNITNO, 6025 Consectetuer St.,3611 In Avenue
 00532015000001,STATUS,66944002,64256005
 00532015000001,POSTEDDATE,08/26/2015,08/25/2015
 00532015000001,PAYEENAME,Lahoma E Rodolfo,Tobi E Sharlene
 00532015000001,PAYMENTREVIEWDATE,08/26/2015,08/25/2015
 00532015000001,REVIEWDATE,08/26/2015,08/25/2015
 00532015000001,CURRBENEFITPAYMENTAMOUNT,0,619.780000
 00532015000001,MASKED_UNITNO, 6025 Consectetuer St.,3611 In Avenue
 00532015000001,STATUS,66944002,64256005
 00532015000001,POSTEDDATE,08/19/2015,08/18/2015
 00532015000001,PAYEENAME,Lahoma E Rodolfo,Tobi E Sharlene
 00532015000001,PAYMENTREVIEWDATE,08/19/2015,08/18/2015
 00532015000001,REVIEWDATE,08/19/2015,08/18/2015
 00532015000001,CURRBENEFITPAYMENTAMOUNT,0,619.780000
 00532015000001,ADDEDUSER,,E010080
 00532015000001,MASKED_UNITNO, 6025 Consectetuer St.,3611 In Avenue
 00532015000001,STATUS,66944002,64256005
 00532015000001,POSTEDDATE,08/12/2015,08/11/2015
 00532015000001,PAYEENAME,Lahoma E Rodolfo,Tobi E Sharlene
 00532015000001,PAYMENTREVIEWDATE,08/12/2015,08/11/2015
 00532015000001,REVIEWDATE,08/12/2015,08/11/2015
 00532015000001,CURRBENEFITPAYMENTAMOUNT,0,619.780000
 00532015000001,MASKED_UNITNO, 6025 Consectetuer St.,3611 In Avenue
 00532015000001,STATUS,66944002,64256005
 00532015000001,POSTEDDATE,08/05/2015,08/04/2015
 00532015000001,PAYEENAME,Lahoma E Rodolfo,Tobi E Sharlene
 00532015000001,PAYMENTREVIEWDATE,08/05/2015,08/04/2015
 00532015000001,REVIEWDATE,08/05/2015,08/04/2015
 00532015000001,CURRBENEFITPAYMENTAMOUNT,0,619.780000
 00532015000001,MASKED_UNITNO, 6025 Consectetuer St.,3611 In Avenue
 00532015000001,STATUS,66944002,64256005
 00532015000001,POSTEDDATE,07/29/2015,07/28/2015
 00532015000001,PAYEENAME,Lahoma E Rodolfo,Tobi E Sharlene
 00532015000001,PAYMENTREVIEWDATE,07/29/2015,07/28/2015
 00532015000001,REVIEWDATE,07/29/2015,07/28/2015
 00532015000001,CURRBENEFITPAYMENTAMOUNT,0,619.780000
 00532015000001,MASKED_UNITNO, 6025 Consectetuer St.,3611 In Avenue
 00532015000001,STATUS,66944002,64256005
 00532015000001,POSTEDDATE,07/22/2015,07/21/2015
 00532015000001,PAYEENAME,Lahoma E Rodolfo,Tobi E Sharlene
 00532015000001,PAYMENTREVIEWDATE,07/22/2015,07/21/2015
 00532015000001,REVIEWDATE,07/22/2015,07/21/2015
