CaseNo,ColumnName,FinVal,ArenaVal
 00532015000366,MEDDATE,08/02/2015,01/15/2016
 00532015000366,BENEFITTERMDATE,08/02/2015,08/03/2015
 00532015000366,FINISHDATE,,08/11/2015
 00532015000366,ENDDATE,01/14/2016,01/15/2016
 00532015000366,BENEFITENDDATE,01/14/2016,01/15/2016
 00532015000365,MEDDATE,09/30/2015,10/03/2015
 00532015000365,BENEFITTERMDATE,09/30/2015,10/01/2015
 00532015000365,ELIMINATIONPERIOD,0,14.0
 00532015000365,ELIMINATIONPERIODBASIS,5568000,5568001
 00532015000365,FINISHDATE,,09/23/2015
 00532015000365,ENDDATE,10/02/2015,10/03/2015
 00532015000365,BENEFITENDDATE,10/02/2015,10/03/2015
 00532015000364,MEDDATE,10/06/2015,01/28/2016
 00532015000364,BENEFITTERMDATE,10/06/2015,10/07/2015
 00532015000364,FINISHDATE,,10/06/2015
 00532015000364,ENDDATE,01/27/2016,01/28/2016
 00532015000364,BENEFITENDDATE,01/27/2016,01/28/2016
 00532015000363,MEDDATE,10/13/2015,10/22/2015
 00532015000363,BENEFITTERMDATE,10/13/2015,10/14/2015
 00532015000363,ELIMINATIONPERIOD,0,7.0
 00532015000363,ELIMINATIONPERIODBASIS,5568000,5568001
 00532015000363,FINISHDATE,,10/16/2015
 00532015000363,ENDDATE,10/21/2015,10/22/2015
 00532015000363,BENEFITENDDATE,10/21/2015,10/22/2015
 00532015000362,MEDDATE,08/11/2015,10/21/2015
 00532015000362,BENEFITTERMDATE,08/11/2015,08/12/2015
 00532015000362,ELIMINATIONPERIODBASIS,5568000,5568001
 00532015000362,FINISHDATE,,08/17/2015
 00532015000362,ENDDATE,10/20/2015,10/21/2015
 00532015000362,BENEFITENDDATE,10/20/2015,10/21/2015
 00532015000361,MEDDATE,10/05/2015,10/06/2015
 00532015000361,BENEFITTERMDATE,10/05/2015,10/06/2015
 00532015000361,FINISHDATE,,10/05/2015
 00532015000361,ENDDATE,10/05/2015,10/06/2015
 00532015000361,BENEFITENDDATE,10/05/2015,10/06/2015
 00532015000360,MEDDATE,10/13/2015,01/25/2016
 00532015000360,BENEFITTERMDATE,10/13/2015,10/14/2015
 00532015000360,FINISHDATE,,10/16/2015
 00532015000360,ENDDATE,01/24/2016,01/25/2016
 00532015000360,BENEFITENDDATE,01/24/2016,01/25/2016
 00532015000359,MEDDATE,08/24/2015,10/27/2015
 00532015000359,BENEFITTERMDATE,08/24/2015,08/25/2015
 00532015000359,FINISHDATE,,08/17/2015
 00532015000359,ENDDATE,10/26/2015,10/27/2015
 00532015000359,BENEFITENDDATE,10/26/2015,10/27/2015
 00532015000358,MEDDATE,08/05/2015,01/11/2016
 00532015000358,BENEFITTERMDATE,08/05/2015,08/06/2015
 00532015000358,FINISHDATE,,08/06/2015
 00532015000358,ENDDATE,01/10/2016,01/11/2016
 00532015000358,BENEFITENDDATE,01/10/2016,01/11/2016
 00532015000357,MEDDATE,08/25/2015,01/29/2016
 00532015000357,BENEFITTERMDATE,08/25/2015,08/26/2015
 00532015000357,FINISHDATE,,08/27/2015
 00532015000357,ENDDATE,01/28/2016,01/29/2016
 00532015000357,BENEFITENDDATE,01/28/2016,01/29/2016
 00532015000356,MEDDATE,09/03/2015,10/30/2015
 00532015000356,BENEFITTERMDATE,09/03/2015,09/04/2015
 00532015000356,FINISHDATE,,09/10/2015
 00532015000356,ENDDATE,10/29/2015,10/30/2015
 00532015000356,BENEFITENDDATE,10/29/2015,10/30/2015
