CaseNo,ColumnName,FinVal,ArenaVal
 00532016001424,OCCUPATION,-,493020
 00532016001419,OCCUPATION,-,514012
 00532016001418,RETURNTOWORKPARTTIMEDATE,,04/25/2016
 00532016001415,OCCUPATION,-,311014
 00532016001413,OCCUPATION,-,211020
 00532016001409,OCCUPATION,-,311011
 00532016001408,PDI_SALARY_FREQUENCY,,5152001
 00532016001408,OCCUPATION,-,
 00532016001405,OCCUPATION,-,151134
 00532016001404,RETURNTOWORKPARTTIMEDATE,,03/21/2016
 00532016001404,OCCUPATION,-,299012
 00532016001403,RETURNTOWORKPARTTIMEDATE,,03/16/2016
 00532016001401,PDI_SALARY_FREQUENCY,,5152001
 00532016001399,RETURNTOWORKPARTTIMEDATE,,05/09/2016
 00532016001395,PDI_SALARY_FREQUENCY,,5152001
 00532016001395,OCCUPATION,-,
 00532016001394,OCCUPATION,-,292041
 00532016001391,RETURNTOWORKPARTTIMEDATE,,03/15/2016
 00532016001388,RETURNTOWORKPARTTIMEDATE,,06/10/2016
 00532016001386,OCCUPATION,-,311010
 00532016001385,RETURNTOWORKPARTTIMEDATE,,03/24/2016
 00532016001383,RETURNTOWORKPARTTIMEDATE,,05/02/2016
 00532016001381,OCCUPATION,-,
 00532016001380,RETURNTOWORKPARTTIMEDATE,,05/02/2016
 00532016001376,OCCUPATION,-,533030
 00532016001374,RETURNTOWORKPARTTIMEDATE,,03/21/2016
 00532016001371,RETURNTOWORKPARTTIMEDATE,,02/19/2016
 00532016001369,RETURNTOWORKPARTTIMEDATE,,03/28/2016
 00532016001368,OCCUPATION,-,259041
 00532016001365,RETURNTOWORKPARTTIMEDATE,,04/11/2016
 00532016001363,OCCUPATION,-,211020
 00532016001362,RETURNTOWORKPARTTIMEDATE,,04/12/2016
 00532016001359,RETURNTOWORKPARTTIMEDATE,,05/11/2016
 00532016001355,RETURNTOWORKPARTTIMEDATE,,05/09/2016
 00532016001355,OCCUPATION,-,493090
 00532016001351,RETURNTOWORKPARTTIMEDATE,,04/28/2016
 00532016001349,OCCUPATION,-,537060
 00532016001342,RETURNTOWORKPARTTIMEDATE,,03/28/2016
 00532016001341,RETURNTOWORKPARTTIMEDATE,,04/29/2016
 00532016001336,OCCUPATION,-,537060
 00532016001329,RETURNTOWORKPARTTIMEDATE,,03/22/2016
 00532016001328,RETURNTOWORKPARTTIMEDATE,,04/11/2016
 00532016001324,OCCUPATION,-,311011
 00532016001323,OCCUPATION,-,352010
 00532016001322,RETURNTOWORKPARTTIMEDATE,,04/19/2016
 00532016001322,OCCUPATION,-,292010
 00532016001319,OCCUPATION,-,533030
 00532016001318,RETURNTOWORKPARTTIMEDATE,,05/09/2016
 00532016001314,OCCUPATION,-,311011
 00532016001312,RETURNTOWORKPARTTIMEDATE,,04/18/2016
 00532016001309,RETURNTOWORKPARTTIMEDATE,,03/07/2016
 00532016001309,OCCUPATION,-,472150
 00532016001304,RETURNTOWORKPARTTIMEDATE,,04/25/2016
 00532016001300,OCCUPATION,-,439020
 00532016001298,OCCUPATION,-,319090
 00532016001291,OCCUPATION,-,311014
 00532016001279,OCCUPATION,-,252020
 00532016001278,RETURNTOWORKPARTTIMEDATE,,04/04/2016
 00532016001272,RETURNTOWORKPARTTIMEDATE,,04/11/2016
 00532016001260,RETURNTOWORKPARTTIMEDATE,,03/24/2016
 00532016001256,RETURNTOWORKPARTTIMEDATE,,05/02/2016
 00532016001256,OCCUPATION,-,331090
 00532016001255,OCCUPATION,-,299011
 00532016001254,OCCUPATION,-,537060
 00532016001253,RETURNTOWORKPARTTIMEDATE,,03/28/2016
 00532016001252,OCCUPATION,-,113011
 00532016001250,OCCUPATION,-,433090
 00532016001249,RETURNTOWORKPARTTIMEDATE,,04/27/2016
 00532016001245,OCCUPATION,-,319090
 00532016001242,RETURNTOWORKPARTTIMEDATE,,03/22/2016
 00532016001238,RETURNTOWORKPARTTIMEDATE,,04/18/2016
 00532016001233,OCCUPATION,-,352010
 00532016001232,RETURNTOWORKPARTTIMEDATE,,04/26/2016
 00532016001231,RETURNTOWORKPARTTIMEDATE,,03/14/2016
 00532016001229,OCCUPATION,-,514070
 00532016001224,OCCUPATION,-,231020
 00532016001222,OCCUPATION,-,151100
 00532016001218,RETURNTOWORKPARTTIMEDATE,,03/28/2016
 00532016001216,RETURNTOWORKPARTTIMEDATE,,05/12/2016
 00532016001216,OCCUPATION,-,399021
 00532016001204,RETURNTOWORKPARTTIMEDATE,,05/16/2016
 00532016001204,OCCUPATION,-,339030
 00532016001202,RETURNTOWORKPARTTIMEDATE,,04/11/2016
 00532016001197,RETURNTOWORKPARTTIMEDATE,,08/01/2016
 00532016001197,OCCUPATION,-,333050
 00532016001189,OCCUPATION,-,292041
 00532016001188,RETURNTOWORKPARTTIMEDATE,,04/01/2016
 00532016001188,OCCUPATION,-,519190
 00532016001186,RETURNTOWORKPARTTIMEDATE,,03/07/2016
 00532016001185,OCCUPATION,-,493020
 00532016001178,OCCUPATION,-,151150
 00532016001170,RETURNTOWORKPARTTIMEDATE,,04/04/2016
 00532016001169,RETURNTOWORKPARTTIMEDATE,,03/14/2016
 00532016001168,RETURNTOWORKPARTTIMEDATE,,02/29/2016
 00532016001164,OCCUPATION,-,533030
 00532016001162,OCCUPATION,-,194090
 00532016001161,OCCUPATION,-,311014
 00532016001160,OCCUPATION,-,151100
 00532016001159,OCCUPATION,-,514120
 00532016001156,OCCUPATION,-,399021
 00532016001153,RETURNTOWORKPARTTIMEDATE,,04/13/2016
 00532016001152,OCCUPATION,-,131020
 00532016001146,RETURNTOWORKPARTTIMEDATE,,04/19/2016
 00532016001146,OCCUPATION,-,537060
 00532016001145,PDI_SALARY_FREQUENCY,,5152001
 00532016001145,OCCUPATION,-,
 00532016001141,RETURNTOWORKPARTTIMEDATE,,05/25/2016
 00532016001141,OCCUPATION,-,311014
 00532016001135,OCCUPATION,-,413099
 00532016001132,OCCUPATION,-,399090
 00532016001130,OCCUPATION,-,537060
 00532016001124,RETURNTOWORKPARTTIMEDATE,,03/02/2016
 00532016001123,RETURNTOWORKPARTTIMEDATE,,03/08/2016
 00532016001121,OCCUPATION,-,533030
 00532016001119,RETURNTOWORKPARTTIMEDATE,,05/03/2016
 00532016001116,OCCUPATION,-,533030
 00532016001115,OCCUPATION,-,151100
 00532016001108,RETURNTOWORKPARTTIMEDATE,,03/14/2016
 00532016001102,RETURNTOWORKPARTTIMEDATE,,03/01/2016
 00532016001102,OCCUPATION,-,436010
 00532016001099,OCCUPATION,-,311011
 00532016001086,RETURNTOWORKPARTTIMEDATE,,04/25/2016
 00532016001086,OCCUPATION,-,537060
 00532016001084,OCCUPATION,-,211020
 00532016001080,OCCUPATION,-,475040
 00532016001079,OCCUPATION,-,537060
