CaseNo,ColumnName,FinVal,ArenaVal
 00532015000042,CURRBENEFITPAYMENTAMOUNT,0,682.730000
 00532015000042,ADDEDUSER,,E010080
 00532015000042,MASKED_UNITNO,1078 Justo Rd.,"P.O. Box 249, 8755 Nec, Ave"
 00532015000042,STATUS,66944002,64256005
 00532015000042,POSTEDDATE,08/04/2015,08/03/2015
 00532015000042,PAYEENAME,AltPayee_Kati Jeramy,Sharlene Tiffaney
 00532015000042,PAYMENTDESCRIPTOR,66912054,66912055
 00532015000042,PAYEETYPE,Payee,AltPayee
 00532015000042,PAYMENTREVIEWDATE,08/04/2015,08/03/2015
 00532015000042,REVIEWDATE,08/04/2015,08/03/2015
