CaseNo,ColumnName,FinVal,ArenaVal
 00532016003552,ALTERNATE_WAITINGPERIOD_BASIS,0,5568001.0
 00532016003552,ALTERNATE_WAITINGPERIOD_UNITS,0,30.0
 00532016003549,INTEGRATIONTYPE,73660000,73660001
 00532016003538,INTEGRATIONTYPE,73660001,73660000
 00532016003533,INTEGRATIONTYPE,73660001,73660000
 00532016003533,ALTERNATE_WAITINGPERIOD_BASIS,5568001,0
 00532016003533,ALTERNATE_WAITINGPERIOD_UNITS,30,0
 00532016003532,ALTERNATE_WAITINGPERIOD_UNITS,30,90.0
 00532016003528,INTEGRATIONTYPE,73660001,73660000
 00532016003528,ALTERNATE_WAITINGPERIOD_UNITS,60,90.0
 00532016003525,INTEGRATIONTYPE,73660001,73660000
 00532016003524,INTEGRATIONTYPE,73660000,73660001
 00532016003524,ALTERNATE_WAITINGPERIOD_BASIS,5568001,0
 00532016003524,ALTERNATE_WAITINGPERIOD_UNITS,30,0
 00532016003520,INTEGRATIONTYPE,73660000,73660001
 00532016003517,ALTERNATE_WAITINGPERIOD_UNITS,60,90.0
 00532016003514,INTEGRATIONTYPE,73660001,73660000
 00532016003513,INTEGRATIONTYPE,73660001,73660000
 00532016003512,TAXAPPLIES,0,1
 00532016003510,ALTERNATE_WAITINGPERIOD_BASIS,0,5568001.0
 00532016003510,ALTERNATE_WAITINGPERIOD_UNITS,0,30.0
 00532016003508,INTEGRATIONTYPE,73660000,73660001
 00532016003507,INTEGRATIONTYPE,73660001,73660000
 00532016003504,ALTERNATE_WAITINGPERIOD_BASIS,5568003,0
 00532016003504,ALTERNATE_WAITINGPERIOD_UNITS,2,0
 00532016003501,INTEGRATIONTYPE,73660000,73660001
 00532016003501,ALTERNATE_WAITINGPERIOD_BASIS,5568003,0
 00532016003501,ALTERNATE_WAITINGPERIOD_UNITS,1,0
 00532016003498,TAXAPPLIES,0,1
 00532016003498,ALTERNATE_WAITINGPERIOD_UNITS,60,120.0
 00532016003497,TAXAPPLIES,0,1
 00532016003497,ALTERNATE_WAITINGPERIOD_UNITS,60,120.0
 00532016003496,INTEGRATIONTYPE,73660001,73660000
 00532016003495,INTEGRATIONTYPE,73660000,73660001
 00532016003494,TAXAPPLIES,0,1
 00532016003493,ALTERNATE_WAITINGPERIOD_BASIS,5568001,0
 00532016003493,ALTERNATE_WAITINGPERIOD_UNITS,60,0
