CaseNo,ColumnName,FinVal,ArenaVal
 00532016003929,DEFINITIONOFDISABILITYPERIOD,Unknown,Months
 00532016003928,DEFINITIONOFDISABILITYPERIOD,Unknown,Months
 00532016003927,DEFINITIONOFDISABILITYPERIOD,Unknown,Months
 00532016003926,DEFINITIONOFDISABILITYPERIOD,Unknown,Months
 00532016003925,PARTIALDISABILITYENDDATE,,08/29/2016
 00532016003925,PARTIALDISABILITYSTARTDATE,,08/15/2016
 00532016003925,PARTIALDISABILITYEMPLOYER,70496000,70496006.0
 00532016003925,DEFINITIONOFDISABILITYPERIOD,Unknown,Months
 00532016003924,DEFINITIONOFDISABILITYPERIOD,Unknown,Months
 00532016003922,DEFINITIONOFDISABILITYPERIOD,Unknown,Months
 00532016003921,BENEFITTERMDATE,,08/09/2016
 00532016003921,DEFINITIONOFDISABILITYPERIOD,Unknown,Months
 00532016003920,DEFINITIONOFDISABILITYPERIOD,Unknown,Months
 00532016003919,BENEFITTERMDATE,,09/15/2016
 00532016003919,DEFINITIONOFDISABILITYPERIOD,Unknown,Months
 00532016003918,DEFINITIONOFDISABILITYPERIOD,Unknown,Months
 00532016003917,DEFINITIONOFDISABILITYPERIOD,Unknown,Months
 00532016003916,DEFINITIONOFDISABILITYPERIOD,Unknown,Months
 00532016003915,DEFINITIONOFDISABILITYPERIOD,Unknown,Months
 00532016003914,DEFINITIONOFDISABILITYPERIOD,Unknown,Months
 00532016003913,DEFINITIONOFDISABILITYPERIOD,Unknown,Months
 00532016003912,DEFINITIONOFDISABILITYPERIOD,Unknown,Months
 00532016003911,BENEFITTERMDATE,09/12/2016,09/19/2016
 00532016003911,DEFINITIONOFDISABILITYPERIOD,Unknown,Months
 00532016003910,DEFINITIONOFDISABILITYPERIOD,Unknown,Months
 00532016003909,BENEFITTERMDATE,,07/18/2016
 00532016003909,EMPLOYEECONTRIBUTION,1,0
 00532016003909,DEFINITIONOFDISABILITYPERIOD,Unknown,Months
 00532016003908,BENEFITTERMDATE,09/26/2016,10/03/2016
 00532016003908,DEFINITIONOFDISABILITYPERIOD,Unknown,Months
 00532016003907,DEFINITIONOFDISABILITYPERIOD,Unknown,Months
 00532016003906,DEFINITIONOFDISABILITYPERIOD,Unknown,Months
 00532016003905,DEFINITIONOFDISABILITYPERIOD,Unknown,Months
 00532016003904,DEFINITIONOFDISABILITYPERIOD,Unknown,Months
 00532016003903,BENEFITTERMDATE,09/27/2016,10/02/2016
 00532016003903,DEFINITIONOFDISABILITYPERIOD,Unknown,Months
 00532016003902,BENEFITTERMDATE,,07/19/2016
 00532016003902,DEFINITIONOFDISABILITYPERIOD,Unknown,Months
 00532016003901,PARTIALDISABILITYENDDATE,,08/29/2016
 00532016003901,PARTIALDISABILITYSTARTDATE,,08/15/2016
 00532016003901,PARTIALDISABILITYEMPLOYER,70496000,70496006.0
 00532016003901,DEFINITIONOFDISABILITYPERIOD,Unknown,Months
 00532016003900,BENEFITTERMDATE,09/04/2016,09/07/2016
 00532016003900,DEFINITIONOFDISABILITYPERIOD,Unknown,Months
 00532016003899,DEFINITIONOFDISABILITYPERIOD,Unknown,Months
 00532016003898,PARTIALDISABILITYENDDATE,,09/10/2016
 00532016003898,PARTIALDISABILITYSTARTDATE,,08/28/2016
 00532016003898,PARTIALDISABILITYEMPLOYER,70496000,70496006.0
 00532016003898,BENEFITTERMDATE,08/28/2016,09/10/2016
 00532016003898,DEFINITIONOFDISABILITYPERIOD,Unknown,Months
 00532016003897,DEFINITIONOFDISABILITYPERIOD,Unknown,Months
 00532016003896,DEFINITIONOFDISABILITYPERIOD,Unknown,Months
 00532016003895,DEFINITIONOFDISABILITYPERIOD,Unknown,Months
 00532016003894,DEFINITIONOFDISABILITYPERIOD,Unknown,Months
 00532016003893,BENEFITTERMDATE,08/07/2016,10/07/2016
 00532016003893,DEFINITIONOFDISABILITYPERIOD,Unknown,Months
 00532016003892,BENEFITTERMDATE,10/13/2016,11/02/2016
 00532016003892,DEFINITIONOFDISABILITYPERIOD,Unknown,Months
 00532016003891,DEFINITIONOFDISABILITYPERIOD,Unknown,Months
 00532016003890,DEFINITIONOFDISABILITYPERIOD,Unknown,Months
 00532016003889,DEFINITIONOFDISABILITYPERIOD,Unknown,Months
 00532016003888,BENEFITTERMDATE,09/21/2016,10/13/2016
 00532016003888,DEFINITIONOFDISABILITYPERIOD,Unknown,Months
 00532016003887,DEFINITIONOFDISABILITYPERIOD,Unknown,Months
 00532016003886,DEFINITIONOFDISABILITYPERIOD,Unknown,Months
 00532016003885,BENEFITTERMDATE,,11/17/2016
 00532016003885,DEFINITIONOFDISABILITYPERIOD,Unknown,Months
 00532016003884,DEFINITIONOFDISABILITYPERIOD,Unknown,Months
 00532016003883,DEFINITIONOFDISABILITYPERIOD,Unknown,Months
 00532016003882,DEFINITIONOFDISABILITYPERIOD,Unknown,Months
 00532016003881,DEFINITIONOFDISABILITYPERIOD,Unknown,Months
 00532016003880,DEFINITIONOFDISABILITYPERIOD,Unknown,Months
 00532016003879,BENEFITTERMDATE,,08/08/2016
 00532016003879,DEFINITIONOFDISABILITYPERIOD,Unknown,Months
 00532016003878,DEFINITIONOFDISABILITYPERIOD,Unknown,Months
 00532016003877,DEFINITIONOFDISABILITYPERIOD,Unknown,Months
 00532016003876,DEFINITIONOFDISABILITYPERIOD,Unknown,Months
 00532016003875,DEFINITIONOFDISABILITYPERIOD,Unknown,Months
 00532016003874,DEFINITIONOFDISABILITYPERIOD,Unknown,Months
 00532016003873,BENEFITTERMDATE,,07/28/2016
 00532016003873,DEFINITIONOFDISABILITYPERIOD,Unknown,Months
 00532016003872,DEFINITIONOFDISABILITYPERIOD,Unknown,Months
 00532016003871,DEFINITIONOFDISABILITYPERIOD,Unknown,Months
 00532016003870,BENEFITTERMDATE,,07/26/2016
 00532016003870,DEFINITIONOFDISABILITYPERIOD,Unknown,Months
 00532016003869,DEFINITIONOFDISABILITYPERIOD,Unknown,Months
 00532016003868,DEFINITIONOFDISABILITYPERIOD,Unknown,Months
 00532016003867,DEFINITIONOFDISABILITYPERIOD,Unknown,Months
 00532016003866,DEFINITIONOFDISABILITYPERIOD,Unknown,Months
 00532016003865,ELIMINATIONPERIOD,0,29.0
 00532016003865,ELIMINATIONPERIODBASIS,5568000,5568001.0
 00532016003865,ELIMINATIONPERIODTYPE,65376000,68960004.0
 00532016003865,BENEFITTERMDATE,,07/13/2016
 00532016003865,EMPLOYEECONTRIBUTION,1,0
 00532016003865,DEFINITIONOFDISABILITYPERIOD,Unknown,Months
 00532016003864,ELIMINATIONPERIOD,0,15.0
 00532016003864,ELIMINATIONPERIODBASIS,5568000,5568001.0
 00532016003864,ELIMINATIONPERIODTYPE,65376000,68960004.0
 00532016003864,BENEFITTERMDATE,,07/01/2016
 00532016003864,DEFINITIONOFDISABILITYPERIOD,Unknown,Months
 00532016003863,DEFINITIONOFDISABILITYPERIOD,Unknown,Months
 00532016003862,BENEFITTERMDATE,,07/29/2016
 00532016003862,EMPLOYEECONTRIBUTION,1,0
 00532016003862,DEFINITIONOFDISABILITYPERIOD,Unknown,Months
 00532016003861,DEFINITIONOFDISABILITYPERIOD,Unknown,Months
 00532016003860,BENEFITTERMDATE,,08/02/2016
 00532016003860,DEFINITIONOFDISABILITYPERIOD,Unknown,Months
 00532016003859,BENEFITTERMDATE,,10/12/2016
 00532016003859,DEFINITIONOFDISABILITYPERIOD,Unknown,Months
 00532016003858,BENEFITTERMDATE,,08/08/2016
 00532016003858,EMPLOYEECONTRIBUTION,1,0
 00532016003858,DEFINITIONOFDISABILITYPERIOD,Unknown,Months
 00532016003857,DEFINITIONOFDISABILITYPERIOD,Unknown,Months
 00532016003856,DEFINITIONOFDISABILITYPERIOD,Unknown,Months
 00532016003855,DEFINITIONOFDISABILITYPERIOD,Unknown,Months
 00532016003854,DEFINITIONOFDISABILITYPERIOD,Unknown,Months
 00532016003853,BENEFITTERMDATE,,09/16/2016
 00532016003853,DEFINITIONOFDISABILITYPERIOD,Unknown,Months
