CaseNo,Status
 00532020004752,Pass
 00532020004750,Pass
 00532020004749,Pass
 00532020004748,Pass
 00532020004747,Pass
 00532020004746,Pass
 00532020004745,Pass
 00532020004744,Pass
 00532020004743,Pass
 00532020004742,Pass
 00532020004741,Pass
 00532020004740,Pass
 00532020004739,Pass
 00532020004738,Pass
 00532020004737,Pass
 00532020004736,Pass
 00532020004735,Pass
 00532020004734,Pass
 00532020004733,Pass
 00532020004732,Pass
 00532020004731,Pass
 00532020004730,Pass
 00532020004729,Pass
 00532020004728,Pass
 00532020004727,Pass
 00532020004726,Pass
 00532020004725,Pass
 00532020004724,Pass
 00532020004723,Pass
 00532020004722,Pass
 00532020004721,Pass
 00532020004720,Pass
 00532020004719,Pass
 00532020004718,Pass
 00532020004717,Pass
 00532020004716,Pass
 00532020004715,Pass
 00532020004714,Pass
 00532020004713,Pass
 00532020004712,Pass
 00532020004711,Pass
 00532020004710,Pass
 00532020004708,Pass
 00532020004707,Pass
 00532020004706,Pass
 00532020004705,Pass
 00532020004704,Pass
 00532020004703,Pass
 00532020004702,Pass
 00532020004701,Pass
 00532020004698,Pass
 00532020004697,Pass
 00532020004696,Pass
 00532020004695,Pass
 00532020004694,Pass
 00532020004693,Pass
 00532020004692,Pass
 00532020004691,Pass
 00532020004690,Pass
 00532020004689,Pass
 00532020004688,Pass
 00532020004687,Pass
 00532020004686,Pass
 00532020004685,Pass
 00532020004683,Pass
 00532020004682,Pass
 00532020004681,Pass
 00532020004680,Pass
 00532020004679,Pass
 00532020004678,Pass
 00532020004677,Pass
 00532020004676,Pass
 00532020004675,Pass
 00532020004674,Pass
 00532020004673,Pass
 00532020004672,Pass
 00532020004671,Pass
 00532020004668,Pass
 00532020004667,Pass
 00532020004666,Pass
 00532020004665,Pass
 00532020004664,Pass
 00532020004663,Pass
 00532020004662,Pass
 00532020004660,Pass
 00532020004659,Pass
 00532020004658,Pass
 00532020004657,Pass
 00532020004656,Pass
 00532020004655,Pass
 00532020004653,Pass
 00532020004652,Pass
 00532020004651,Pass
 00532020004650,Pass
 00532020004649,Pass
 00532020004648,Pass
 00532020004647,Pass
 00532020004644,Pass
 00532020004643,Pass
 00532020004642,Pass
 00532020004641,Pass
 00532020004640,Pass
 00532020004639,Pass
 00532020004638,Pass
 00532020004637,Pass
 00532020004636,Pass
 00532020004635,Pass
 00532020004634,Pass
 00532020004633,Pass
 00532020004632,Pass
 00532020004630,Pass
 00532020004629,Pass
 00532020004628,Pass
 00532020004627,Pass
 00532020004626,Pass
 00532020004625,Pass
 00532020004624,Pass
 00532020004623,Pass
 00532020004622,Pass
 00532020004621,Pass
 00532020004620,Pass
 00532020004619,Pass
 00532020004618,Pass
 00532020004617,Pass
 00532020004616,Pass
 00532020004615,Pass
 00532020004614,Pass
 00532020004612,Pass
 00532020004611,Pass
 00532020004610,Pass
 00532020004609,Pass
 00532020004608,Pass
 00532020004607,Pass
 00532020004606,Pass
 00532020004605,Pass
 00532020004604,Pass
 00532020004603,Pass
 00532020004601,Pass
 00532020004600,Pass
 00532020004599,Pass
 00532020004598,Pass
 00532020004597,Pass
 00532020004596,Pass
 00532020004595,Pass
 00532020004592,Pass
 00532020004591,Pass
 00532020004590,Pass
 00532020004588,Pass
 00532020004587,Pass
 00532020004586,Pass
 00532020004585,Pass
 00532020004584,Pass
 00532020004583,Pass
 00532020004582,Pass
 00532020004581,Pass
 00532020004580,Pass
 00532020004577,Pass
 00532020004576,Pass
 00532020004575,Pass
 00532020004574,Pass
 00532020004573,Pass
 00532020004572,Pass
 00532020004571,Pass
 00532020004570,Pass
 00532020004569,Pass
 00532020004568,Pass
 00532020004567,Pass
 00532020004566,Pass
 00532020004565,Pass
 00532020004564,Pass
 00532020004563,Pass
 00532020004562,Pass
 00532020004561,Pass
 00532020004560,Pass
 00532020004559,Pass
 00532020004558,Pass
 00532020004557,Pass
 00532020004556,Pass
 00532020004555,Pass
 00532020004554,Pass
 00532020004553,Pass
 00532020004552,Pass
 00532020004551,Pass
 00532020004550,Pass
 00532020004547,Pass
 00532020004546,Pass
 00532020004544,Pass
 00532020004543,Pass
 00532020004542,Pass
 00532020004541,Pass
 00532020004540,Pass
 00532020004539,Pass
 00532020004538,Pass
 00532020004537,Pass
 00532020004536,Pass
 00532020004534,Pass
 00532020004533,Pass
 00532020004531,Pass
 00532020004530,Pass
 00532020004528,Pass
 00532020004525,Pass
 00532020004524,Pass
 00532020004523,Pass
 00532020004522,Pass
 00532020004520,Pass
 00532020004518,Pass
 00532020004517,Pass
 00532020004516,Pass
 00532020004515,Pass
 00532020004514,Pass
 00532020004513,Pass
 00532020004512,Pass
 00532020004511,Pass
 00532020004510,Pass
 00532020004509,Pass
 00532020004508,Pass
 00532020004507,Pass
 00532020004506,Pass
 00532020004505,Pass
 00532020004504,Pass
 00532020004503,Pass
 00532020004502,Pass
 00532020004501,Pass
 00532020004500,Pass
 00532020004499,Pass
 00532020004498,Pass
 00532020004497,Pass
 00532020004496,Pass
 00532020004495,Pass
 00532020004494,Pass
 00532020004493,Pass
 00532020004492,Pass
 00532020004491,Pass
 00532020004490,Pass
 00532020004489,Pass
 00532020004488,Pass
 00532020004487,Pass
 00532020004485,Pass
 00532020004484,Pass
 00532020004483,Pass
 00532020004482,Pass
 00532020004480,Pass
 00532020004479,Pass
 00532020004478,Pass
 00532020004477,Pass
 00532020004476,Pass
 00532020004475,Pass
 00532020004472,Pass
 00532020004471,Pass
 00532020004470,Pass
 00532020004469,Pass
 00532020004468,Pass
 00532020004467,Pass
 00532020004465,Pass
 00532020004464,Pass
 00532020004463,Pass
 00532020004462,Pass
 00532020004461,Pass
 00532020004460,Pass
 00532020004459,Pass
 00532020004458,Pass
 00532020004457,Pass
 00532020004456,Pass
 00532020004455,Pass
 00532020004454,Pass
 00532020004453,Pass
 00532020004451,Pass
 00532020004450,Pass
 00532020004449,Pass
 00532020004447,Pass
 00532020004446,Pass
 00532020004445,Pass
 00532020004444,Pass
 00532020004443,Pass
 00532020004442,Pass
 00532020004441,Pass
 00532020004440,Pass
 00532020004439,Pass
 00532020004438,Pass
 00532020004437,Pass
 00532020004436,Pass
 00532020004435,Pass
 00532020004434,Pass
 00532020004433,Pass
 00532020004432,Pass
 00532020004431,Pass
 00532020004430,Pass
 00532020004429,Pass
 00532020004428,Pass
 00532020004427,Pass
 00532020004426,Pass
 00532020004424,Pass
 00532020004423,Pass
 00532020004421,Pass
 00532020004420,Pass
 00532020004419,Pass
 00532020004418,Pass
 00532020004417,Pass
 00532020004416,Pass
 00532020004415,Pass
 00532020004414,Pass
 00532020004412,Pass
 00532020004411,Pass
 00532020004410,Pass
 00532020004409,Pass
 00532020004408,Pass
 00532020004407,Pass
 00532020004406,Pass
 00532020004405,Pass
 00532020004403,Pass
 00532020004402,Pass
 00532020004401,Pass
 00532020004400,Pass
 00532020004399,Pass
 00532020004398,Pass
 00532020004397,Pass
 00532020004396,Pass
 00532020004395,Pass
 00532020004394,Pass
 00532020004393,Pass
 00532020004391,Pass
 00532020004390,Pass
 00532020004389,Pass
 00532020004388,Pass
 00532020004387,Pass
 00532020004386,Pass
 00532020004385,Pass
 00532020004384,Pass
 00532020004382,Pass
 00532020004381,Pass
 00532020004380,Pass
 00532020004379,Pass
 00532020004378,Pass
 00532020004377,Pass
 00532020004375,Pass
 00532020004374,Pass
 00532020004373,Pass
 00532020004371,Pass
 00532020004370,Pass
 00532020004369,Pass
 00532020004368,Pass
 00532020004367,Pass
 00532020004366,Pass
 00532020004365,Pass
 00532020004364,Pass
 00532020004363,Pass
 00532020004362,Pass
 00532020004361,Pass
 00532020004360,Pass
 00532020004358,Pass
 00532020004357,Pass
 00532020004356,Pass
 00532020004355,Pass
 00532020004354,Pass
 00532020004353,Pass
 00532020004351,Pass
 00532020004350,Pass
 00532020004349,Pass
 00532020004348,Pass
 00532020004347,Pass
 00532020004346,Pass
 00532020004345,Pass
 00532020004344,Pass
 00532020004343,Pass
